<?xml version="1.0" encoding="utf-8"?>
<!-- Generator: Adobe Illustrator 24.2.0, SVG Export Plug-In . SVG Version: 6.00 Build 0)  -->
<svg version="1.1" id="Layer_1" xmlns="http://www.w3.org/2000/svg" xmlns:xlink="http://www.w3.org/1999/xlink" x="0px" y="0px"
	 viewBox="0 0 100 100" style="enable-background:new 0 0 100 100;" xml:space="preserve">
<style type="text/css">
	.st0{fill:#AC7FFF;}
	.st1{fill:#FBA438;}
	.st2{fill:#341472;}
	.st3{fill:#FCA121;}
	.st4{fill:#380D75;}
	.st5{fill:#38F2AF;}
</style>
<g>
	<g>
		<path class="st3" d="M36.93,78.57l-1.35,2.9c1.09,1.5,2.41,2.82,3.91,3.91l2.9-1.35c1.45-0.68,3.21,0.05,3.75,1.55l1.09,3.01
			c1.86,0.29,3.72,0.28,5.53,0l1.09-3.01c0.55-1.5,2.3-2.23,3.75-1.55l2.9,1.35c1.5-1.09,2.82-2.41,3.91-3.91l-1.35-2.9
			c-0.68-1.45,0.05-3.21,1.55-3.75l3.01-1.09c0.29-1.84,0.28-3.7,0-5.53l-3.01-1.09c-1.5-0.55-2.23-2.3-1.55-3.75l1.35-2.9
			c-1.09-1.5-2.41-2.82-3.91-3.91l-2.9,1.35c-1.45,0.68-3.21-0.05-3.75-1.55l-1.09-3.01c-1.86-0.29-3.72-0.28-5.53,0l-1.09,3.01
			c-0.55,1.5-2.3,2.23-3.75,1.55l-2.9-1.35c-1.5,1.09-2.82,2.41-3.91,3.91l1.35,2.9c0.68,1.45-0.05,3.21-1.55,3.75l-3.01,1.09
			c-0.29,1.89-0.28,3.75,0,5.53l3.01,1.09C36.9,75.37,37.62,77.1,36.93,78.57z M44.15,70.96c0-3.23,2.62-5.85,5.85-5.85
			c3.23,0,5.85,2.62,5.85,5.85c0,3.23-2.62,5.85-5.85,5.85C46.77,76.8,44.15,74.19,44.15,70.96z"/>
	</g>
	<g>
		<path class="st4" d="M85.09,95H17.41V57.72c0-1.38-1.12-2.5-2.5-2.5s-2.5,1.12-2.5,2.5V97.5c0,1.38,1.12,2.5,2.5,2.5h70.18
			c1.38,0,2.5-1.12,2.5-2.5S86.47,95,85.09,95z"/>
		<path class="st4" d="M85.09,41.91h-7.2V28.45C77.89,12.76,65.12,0,49.44,0S20.99,12.76,20.99,28.45v13.46h-6.08
			c-1.38,0-2.5,1.12-2.5,2.5s1.12,2.5,2.5,2.5h67.68v38.55c0,1.38,1.12,2.5,2.5,2.5s2.5-1.12,2.5-2.5V44.41
			C87.59,43.03,86.47,41.91,85.09,41.91z M25.99,28.45C25.99,15.52,36.51,5,49.44,5s23.45,10.52,23.45,23.45v13.46H25.99V28.45z"/>
		<path class="st4" d="M34.52,64.75l-3.01,1.09c-0.86,0.31-1.48,1.06-1.62,1.97c-0.32,2.09-0.32,4.21,0,6.3
			c0.14,0.9,0.76,1.65,1.62,1.97l3.01,1.09c0.07,0.03,0.12,0.07,0.15,0.14c0.03,0.07,0.03,0.14,0,0.21l-1.35,2.9
			c-0.39,0.83-0.29,1.8,0.25,2.53c1.25,1.71,2.75,3.21,4.46,4.46c0.73,0.54,1.7,0.63,2.53,0.25l2.9-1.35c0.08-0.04,0.16-0.01,0.2,0
			c0.04,0.02,0.12,0.06,0.15,0.14l1.09,3.01c0.31,0.86,1.06,1.48,1.97,1.62c1.04,0.16,2.1,0.24,3.15,0.24c1.05,0,2.1-0.08,3.15-0.24
			c0.9-0.14,1.65-0.76,1.97-1.62l1.09-3.01c0.03-0.08,0.1-0.12,0.14-0.14c0.04-0.02,0.12-0.04,0.2,0l2.9,1.35
			c0.83,0.39,1.79,0.29,2.53-0.25c1.71-1.25,3.21-2.75,4.46-4.46c0.54-0.74,0.63-1.71,0.25-2.53l-1.35-2.9
			c-0.04-0.08-0.01-0.16,0-0.2c0.02-0.04,0.06-0.12,0.14-0.15l3.01-1.09c0.86-0.31,1.48-1.06,1.62-1.97c0.33-2.09,0.33-4.21,0-6.3
			c-0.14-0.9-0.76-1.65-1.62-1.97l-3.01-1.09c-0.08-0.03-0.12-0.1-0.14-0.15c-0.02-0.04-0.04-0.12,0-0.2l1.35-2.9
			c0.39-0.83,0.29-1.8-0.25-2.53c-1.25-1.71-2.75-3.21-4.46-4.46c-0.74-0.54-1.7-0.63-2.53-0.25l-2.9,1.35
			c-0.08,0.04-0.16,0.01-0.2,0c-0.04-0.02-0.12-0.06-0.15-0.14l-1.09-3.01c-0.31-0.86-1.06-1.48-1.97-1.62
			c-2.09-0.32-4.21-0.32-6.3,0c-0.9,0.14-1.65,0.76-1.97,1.62l-1.09,3.01c-0.03,0.08-0.1,0.12-0.15,0.14c-0.04,0.02-0.12,0.04-0.2,0
			l-2.9-1.35c-0.83-0.38-1.8-0.29-2.53,0.25c-1.71,1.25-3.21,2.75-4.46,4.46c-0.54,0.74-0.63,1.71-0.25,2.53l1.35,2.9
			c0.04,0.08,0.01,0.16,0,0.2C34.65,64.64,34.6,64.72,34.52,64.75z M36.23,69.45c1.37-0.5,2.49-1.57,3.05-2.93
			c0.56-1.36,0.53-2.9-0.08-4.23L38.5,60.8c0.42-0.47,0.87-0.92,1.34-1.34l1.49,0.69c1.32,0.62,2.87,0.65,4.23,0.08
			c1.36-0.56,2.43-1.68,2.93-3.05l0.56-1.55c0.63-0.04,1.26-0.04,1.89,0l0.56,1.55c0.5,1.37,1.57,2.49,2.93,3.05
			c1.36,0.57,2.9,0.53,4.23-0.08l1.49-0.7c0.47,0.42,0.92,0.87,1.34,1.34l-0.7,1.49c-0.62,1.32-0.65,2.87-0.08,4.23
			s1.68,2.43,3.05,2.93l1.55,0.56c0.04,0.63,0.04,1.26,0,1.89l-1.55,0.56c-1.37,0.5-2.49,1.57-3.05,2.93s-0.53,2.9,0.08,4.23
			l0.7,1.49c-0.42,0.47-0.87,0.92-1.34,1.34l-1.49-0.7c-1.32-0.62-2.87-0.65-4.23-0.08c-1.36,0.56-2.43,1.68-2.93,3.05l-0.56,1.55
			c-0.63,0.04-1.26,0.04-1.89,0l-0.56-1.55c-0.5-1.37-1.57-2.49-2.93-3.05c-1.36-0.56-2.9-0.53-4.23,0.08l-1.49,0.7
			c-0.47-0.42-0.92-0.87-1.34-1.34l0.69-1.49l0,0c0.62-1.33,0.66-2.88,0.09-4.23s-1.68-2.42-3.06-2.93l-1.55-0.56
			c-0.04-0.63-0.04-1.26,0-1.89L36.23,69.45z"/>
		<path class="st4" d="M50,79.3c4.6,0,8.35-3.75,8.35-8.35c0-4.6-3.75-8.35-8.35-8.35c-4.6,0-8.35,3.75-8.35,8.35
			C41.65,75.56,45.4,79.3,50,79.3z M50,67.61c1.85,0,3.35,1.5,3.35,3.35c0,1.85-1.5,3.35-3.35,3.35c-1.85,0-3.35-1.5-3.35-3.35
			C46.65,69.11,48.15,67.61,50,67.61z"/>
	</g>
</g>
</svg>
