<?xml version="1.0" encoding="utf-8"?>
<!-- Generator: Adobe Illustrator 26.1.0, SVG Export Plug-In . SVG Version: 6.00 Build 0)  -->
<svg version="1.1" id="Layer_1" xmlns="http://www.w3.org/2000/svg" xmlns:xlink="http://www.w3.org/1999/xlink" x="0px" y="0px"
	 viewBox="0 0 1203.4 1174.3" style="enable-background:new 0 0 1203.4 1174.3;" xml:space="preserve">
<style type="text/css">
	.st0{fill:#7759C0;}
	.st1{fill:#5829C9;}
	.st2{fill:#A787F3;}
	.st3{fill:#E04329;}
	.st4{fill:#FA6D26;}
	.st5{fill:#FF9B73;}
	.st6{fill:#FAA126;}
	.st7{fill:#10AFAF;}
	.st8{fill:#0C8C89;}
	.st9{fill:#6FD8C7;}
	.st10{fill:#2B2838;}
	.st11{fill:#45424D;}
	.st12{fill:#74717A;}
	.st13{fill:#A09FA4;}
	.st14{fill:#D1D0D3;}
	.st15{fill:#EAEAEA;}
	.st16{fill:#F7F7F7;}
	.st17{fill:#ACA3D4;}
	.st18{fill:#CEC3E0;}
	.st19{fill:#E5E2F0;}
	.st20{fill:#F4F1FC;}
	.st21{fill:#171321;}
	.st22{fill:#FFFFFF;}
	.st23{fill:none;stroke:#171321;stroke-width:2;stroke-miterlimit:10;}
	.st24{clip-path:url(#SVGID_00000021803581325426706270000005558782464425548216_);}
	.st25{opacity:0.3;}
	.st26{clip-path:url(#SVGID_00000091005663162817435210000010029780182350246058_);}
	.st27{clip-path:url(#SVGID_00000180343556061188954970000007184167495069882265_);}
	.st28{clip-path:url(#SVGID_00000172415430144239263450000002454792520742968499_);}
	.st29{clip-path:url(#SVGID_00000082338251429119457210000013183897269954573720_);}
	.st30{fill:#CFCED1;}
	.st31{fill:#CDDFFB;}
	.st32{fill:#6D9ADD;}
	.st33{fill:#B7714E;}
	.st34{fill:#EAB0A4;}
	.st35{fill:#AA5F44;}
	.st36{fill:#51352B;}
	.st37{fill:#E8BD9A;}
	.st38{fill:none;stroke:#D1D0D3;stroke-width:2;stroke-miterlimit:10;}
	.st39{fill:#EFE8FF;}
	.st40{fill:#A98FD2;}
	.st41{fill:none;stroke:#CFCED1;stroke-width:2;stroke-miterlimit:10;}
	.st42{fill:none;stroke:#CFCED1;stroke-width:2;stroke-miterlimit:10;stroke-dasharray:11;}
	.st43{fill:none;stroke:#D1D0D3;stroke-width:2;stroke-miterlimit:10;stroke-dasharray:11;}
	.st44{fill:none;stroke:#FA6D26;stroke-width:2;stroke-miterlimit:10;}
	.st45{fill:none;stroke:#CFCED1;stroke-width:2;stroke-miterlimit:10;stroke-dasharray:16.2924,16.2924;}
	.st46{fill:#EDEDEF;}
	.st47{fill:none;stroke:#180633;stroke-width:2.4007;stroke-linecap:round;stroke-linejoin:round;stroke-miterlimit:10;}
	.st48{fill:none;stroke:#CFCED1;stroke-width:2;stroke-miterlimit:10;stroke-dasharray:8,17;}
	.st49{fill:#FFE0D9;}
	.st50{fill:#FF9669;}
	.st51{fill:#9A8AF9;}
	.st52{fill:#CFCFE2;}
	.st53{fill:#6C6C82;}
	.st54{fill:#FFCFE3;}
	.st55{fill:#DAD4FF;}
	.st56{fill:#4429B7;}
	.st57{fill:#EA3285;}
	.st58{fill:#FF9ABF;}
	.st59{fill:#6D4ADD;}
	.st60{fill:#A2A2BA;}
	.st61{fill:#DD6B43;}
	.st62{fill:none;stroke:#180633;stroke-width:1.2041;stroke-linecap:round;stroke-linejoin:round;stroke-miterlimit:10;}
	.st63{fill:#180633;stroke:#180633;stroke-width:1.2041;stroke-linecap:round;stroke-linejoin:round;stroke-miterlimit:10;}
	.st64{fill:none;stroke:#32195B;stroke-width:3.2977;stroke-linecap:round;stroke-linejoin:round;stroke-miterlimit:10;}
	.st65{fill:#256AD1;}
	.st66{fill:#6D33CC;}
	.st67{fill:#844A40;}
	.st68{fill:#E0AD99;}
	.st69{fill:#915236;}
	.st70{opacity:0.2;}
</style>
<g>
	<g>
		<polygon class="st31" points="1057.5,720 1092.4,720 1092.4,718.4 1059.2,685.1 1057.5,685.1 		"/>
	</g>
	<g>
		<circle class="st31" cx="63.6" cy="757.9" r="18.4"/>
	</g>
	<g>
		<circle class="st31" cx="63.6" cy="852.8" r="18.4"/>
	</g>
	<g>
		<path class="st36" d="M907.2,297.2c6,0.2,10.2,6.2,8.4,11.9c0,0,10.3,7.6,4.6,17.8c10.4,9.8-0.3,17.2-0.3,17.2s5.5,12.4-5.6,15.1
			c0,0-0.5,8.7-7.8,10.8c-4,4.9-8.2,3.7-8.2,3.7l-140.9,2.9l-8.5-6.5c-14.9,1.2-17.2-9.6-14.1-14.7c-7.5-2.4-7.8-12.7-2.5-14.9
			c-1.4-2.6-0.7-6.3,1.6-8.2c0,0-8.4-7.8,0.6-17c0,0-8-11.3,2.4-20.6c0,0-0.8-4.3,0-7.8c1.1-4.6,4.1-9,8.8-9.5
			c1.9-8.3,8.7-15.6,16.6-13.5c1.5,0.4,3-0.6,3.3-2.1c1.5-8.5,15.4-13.8,25-12.2c13.1-16.6,27.3,0.2,27.3,0.2c5.4-5,14.1-3,16.3,1.8
			c0.6-3.8,3.1-8.7,13.1-5.1c6.1-3.3,15.8-0.3,15.9,6.4c5.9-0.5,10,1.2,11.3,5.6l4.5-1.2c6.7-2.7,16.1,2.9,14.1,11.4
			c10.4,2,13.9,8.7,12.5,13.8C909.3,283.1,912.6,292.4,907.2,297.2z"/>
	</g>
	<g>
		<rect x="158.7" y="153.3" class="st21" width="2" height="145.5"/>
	</g>
	<g>
		<rect x="158.7" y="441.7" class="st21" width="2" height="264.7"/>
	</g>
	<g>
		<polygon class="st21" points="498.7,1031.2 158.7,1031.2 158.7,901.5 160.7,901.5 160.7,1029.2 498.7,1029.2 		"/>
	</g>
	<g>
		<path class="st21" d="M881.3,1031.2H678.4v-2h202.8c85.1,0,154.3-69.2,154.3-154.3h2C1037.6,961,967.5,1031.2,881.3,1031.2z"/>
	</g>
	<g>
		<rect x="1035.6" y="476.5" class="st21" width="2" height="176.2"/>
	</g>
	<g>
		<polygon class="st21" points="1037.6,230.2 1035.6,230.2 1035.6,154.3 567.7,154.3 567.7,152.3 1037.6,152.3 		"/>
	</g>
	<g>
		<rect x="176.6" y="152.3" class="st21" width="181.4" height="2"/>
	</g>
	<g>
		<path class="st21" d="M599.1,591.7h-2V413.3c-5.3,2.2-11,3.3-16.8,3.3c-24.3,0-44.2-19.8-44.2-44.2s19.8-44.2,44.2-44.2
			c5.8,0,11.4,1.1,16.8,3.3V153.3h2v181.4l-1.4-0.6c-5.5-2.5-11.3-3.7-17.3-3.7c-23.2,0-42.2,18.9-42.2,42.2s18.9,42.2,42.2,42.2
			c6,0,11.9-1.3,17.3-3.7l1.4-0.6V591.7z"/>
	</g>
	<g>
		<path class="st21" d="M378.9,653.6c-24.3,0-44.2-19.8-44.2-44.2c0-5.8,1.1-11.4,3.3-16.8H159.7v-2h181.4l-0.6,1.4
			c-2.5,5.5-3.7,11.3-3.7,17.3c0,23.2,18.9,42.2,42.2,42.2c23.2,0,42.2-18.9,42.2-42.2c0-6-1.3-11.9-3.7-17.3l-0.6-1.4h181.4v2
			H419.8c2.2,5.3,3.3,11,3.3,16.8C423.1,633.8,403.3,653.6,378.9,653.6z"/>
	</g>
	<g>
		<path class="st21" d="M599.1,1013.3h-2V848.7l1.4,0.6c5.5,2.5,11.3,3.7,17.3,3.7c23.2,0,42.2-18.9,42.2-42.2s-18.9-42.2-42.2-42.2
			c-6,0-11.9,1.3-17.3,3.7l-1.4,0.6V591.7h2v178.4c5.3-2.2,11-3.3,16.8-3.3c24.3,0,44.2,19.8,44.2,44.2c0,24.3-19.8,44.2-44.2,44.2
			c-5.8,0-11.4-1.1-16.8-3.3V1013.3z"/>
	</g>
	<g>
		<path class="st21" d="M1020.1,592.7H855.2l0.6-1.4c2.5-5.5,3.7-11.3,3.7-17.3c0-23.2-18.9-42.2-42.2-42.2s-42.2,18.9-42.2,42.2
			c0,6,1.3,11.9,3.7,17.3l0.6,1.4H598.1v-2h178.4c-2.2-5.3-3.3-11-3.3-16.8c0-24.3,19.8-44.2,44.2-44.2s44.2,19.8,44.2,44.2
			c0,5.8-1.1,11.4-3.3,16.8h161.9V592.7z"/>
	</g>
	<g>
		<g>
			<path class="st68" d="M429.3,357.9l-6.2,9.2c0.1-1.4,0.2-2.7,0.2-3.9l0.5-10.7c0.3-5.7,0.1-11.5-0.6-17.2l-0.4-3.6
				c-4.9-40.1-49.9-49.1-60.4-36.9c-10.2,11.8-24.5,14.3-42,10.9v0c-5.6-1.1-11.2,2.1-13,7.5l-4.3,12.4c-3.6,10.4-5.4,21.3-5.4,32.2
				l-3.1,0c-8.6,0-10.8,7.8-8.4,14.1l6.8,17.7c1.7,4.5,6.6,5,8.7,5c2.6,12.3,6.6,24.1,12.6,29.9c2.2,2.2,4.3,4.2,6.2,6.1v30.2
				l9.9,58.5l12.4,7.2l21.7,24.6l14.8-24.6l13.7-7.2l8.1-55.4l0.1-33.9l-0.1,0c1.7-1.7,3.6-3.5,5.5-5.5c6.1-5.9,10.1-17.8,12.6-30.2
				l0.1,0.2c0.5,0,7.6,0.7,9.8-4.9l6.8-17.7C438.4,366,436.5,358.8,429.3,357.9z"/>
		</g>
		<g>
			<polygon class="st21" points="339.9,412.6 342.8,409.7 339.1,406.8 336.5,407.2 338.5,411.3 			"/>
		</g>
		<g>
			<polygon class="st21" points="381.4,405.2 377.6,408.6 379.5,412 382.9,408.4 382.9,405.4 			"/>
		</g>
		<g>
			<path class="st22" d="M340.6,406.5l-0.6,0.3l3.7,2.9l-2.9,2.9c3.7,3,10.5,6.1,20.2,6.3c6.3,0.2,11.8-1.6,15.9-3.9l3.5-3l-1.9-3.4
				l3.8-3.4C362.1,404.8,346.6,406,340.6,406.5z"/>
		</g>
		<g>
			<path class="st11" d="M423,370c13.8-26.1,15.6-57.7,15.6-57.7c1.8-22.5-14.4-51.3-38.1-42.1l-21.9-16.2
				c-10.9-9.9-25.7-14.4-40.3-12.3h0c-10.1,1.5-17.7,10-18,20.2l0,0c-40.9,0.2-25.9,36.2-25.9,36.2c-7,27.5-3.2,50.5,4.1,74.1
				l4.6-46.6l4.3-12.4c1.9-5.4,7.4-8.6,13-7.5h0c17.5,3.4,31.8,0.9,42-10.9c9.8-11.3,49-4.5,58.7,28.4L423,370z"/>
		</g>
		<g>
			<g>
				<path class="st21" d="M420.5,394.6l-2-0.4c0.9-4.4,1.7-9.2,2.4-14.2l2,0.3C422.2,385.4,421.4,390.2,420.5,394.6z"/>
			</g>
			<g>
				<path class="st21" d="M368.6,450.6h-16c-13.6,0-20.6-7-32.2-18.6l-0.6-0.6l1.4-1.4l0.6,0.6c11.6,11.6,18,18,30.8,18h16
					c12.8,0,19.2-6.4,30.8-18l1.2-1.2l1.4,1.4l-1.2,1.2C389.2,443.6,382.2,450.6,368.6,450.6z"/>
			</g>
			<g>
				<path class="st21" d="M300.5,393.3c-0.8-4-1.5-8.3-2.1-12.8l2-0.3c0.6,4.4,1.3,8.7,2.1,12.6L300.5,393.3z"/>
			</g>
			<g>
				<path class="st21" d="M361,390.8c-2,0-4-0.2-6-0.6l-7.6-1.7l0.4-2l7.6,1.7c3.6,0.8,7.5,0.8,11.1,0l7.6-1.7l0.4,2l-7.6,1.7
					C365,390.6,363,390.8,361,390.8z"/>
			</g>
			<g>
				<path class="st21" d="M409.5,347.1c-10.1-8.8-19.4-7.9-28-5.7l-0.5-1.9c8.6-2.3,19-3.3,29.8,6.1L409.5,347.1z"/>
			</g>
			<g>
				<path class="st21" d="M317.6,347.1l-1.3-1.5c10.9-9.4,21.2-8.4,29.8-6.1l-0.5,1.9C337.1,339.1,327.8,338.3,317.6,347.1z"/>
			</g>
			<g>
				<path class="st21" d="M366,388.9l-2-0.1l2.1-32.3c0.3-5.1,2.8-9.8,6.7-13.1l1.3,1.5c-3.5,2.9-5.7,7.2-5.9,11.7L366,388.9z"/>
			</g>
			<g>
				<rect x="393.8" y="353.4" class="st21" width="2" height="8.8"/>
			</g>
			<g>
				<rect x="330.4" y="353.4" class="st21" width="2" height="8.8"/>
			</g>
			<g>
				<path class="st21" d="M360.9,420c-0.3,0-0.5,0-0.8,0c-12-0.3-19.9-4.8-23-8.7l-0.2-0.2l-1.1-5.2l1.1-0.1
					c0.2,0,19.5-2.2,46.4-1.6l1.1,0l-0.5,5.5l-0.2,0.2C379.9,414.9,371.3,420,360.9,420z M338.8,410.2c3,3.4,10.3,7.5,21.4,7.7
					c10.6,0.3,18.7-5.1,21.7-8.9l0.3-2.8c-22.5-0.5-39.5,1-43.9,1.4L338.8,410.2z"/>
			</g>
			<g>
				<polygon class="st21" points="340.6,413.3 339.2,411.9 341.3,409.8 338.5,407.6 339.7,406 344.3,409.6 				"/>
			</g>
			<g>
				<polygon class="st21" points="378.6,412.5 376.3,408.4 380.7,404.5 382,406 378.9,408.9 380.4,411.6 				"/>
			</g>
			<g>
				<polygon class="st21" points="301.9,556.7 296.7,480.6 321.2,458.9 331.3,518.7 343.5,525.9 360.7,545 359.2,546.3 342.1,527.3 
					329.5,520 319.8,462.8 298.8,481.5 303.6,552.2 318.5,537.5 319.9,539 				"/>
			</g>
			<g>
				<polygon class="st21" points="350.5,576.2 348.8,575.2 378.6,525.8 392.1,518.7 400.9,458.9 425.4,480.6 420.2,556.7 
					402.6,539.3 376.2,542.9 375.9,540.9 403.3,537.2 418.5,552.2 423.4,481.5 402.4,462.9 394,520 380.1,527.3 				"/>
			</g>
			<g>
				<path class="st21" d="M365.4,570.6c-1,0-1.9-0.8-1.9-1.9c0-1,0.8-1.9,1.9-1.9s1.9,0.8,1.9,1.9
					C367.2,569.8,366.4,570.6,365.4,570.6z M365.4,568.6c-0.1,0-0.1,0.1-0.1,0.1c0,0.2,0.3,0.2,0.3,0
					C365.5,568.7,365.4,568.6,365.4,568.6z"/>
			</g>
			<g>
				<polygon class="st21" points="192.1,578 190.4,577 230.6,509.2 230.9,509.1 297.4,483.5 298.1,485.4 232,510.8 				"/>
			</g>
			<g>
				<polygon class="st21" points="540.7,592.2 489.8,510.8 431.8,488.5 432.5,486.6 491.2,509.2 542.4,591.2 				"/>
			</g>
			<g>
				<path class="st21" d="M375.6,280c-3.2-9.5-12.6-11.3-21.8-13c-7.7-1.4-15-2.8-18.6-8.6l1.7-1.1c3.2,5,10,6.3,17.3,7.7
					c9.2,1.7,19.7,3.7,23.3,14.3L375.6,280z"/>
			</g>
			<g>
				<path class="st21" d="M351.8,286c-1.6-5.1-5.2-5.9-9.8-6.8c-4-0.8-8.6-1.7-11.9-6.2l1.6-1.2c2.8,3.9,6.8,4.7,10.7,5.5
					c4.6,0.9,9.3,1.9,11.3,8.1L351.8,286z"/>
			</g>
		</g>
	</g>
	<g>
		<path class="st35" d="M928.1,932.9c-18.6-20.5-17.8-40.9-18.4-57.1c-1.6-42.5-4.5-85.2-15.5-126.2c-1.9-7.1-4.1-14.2-8.2-20.2
			c-6.5-9.4-17-15.2-27.3-20.1c-8.6-4.1-20.3-7.6-28.5-2.6c-14.4-6.7-41.2-1.7-54.2,7.4c-21.4,15-34.9,69.8-38.4,82.3
			c-5.5,19.9-5.7,40.7-5.8,61.4l-0.2,15.3c0,0,0,51.2-16.7,71.6l40.9-24.8l12.2-24.3l17.2-3.5c0,0-2.5,20.4-6.1,22.8
			c0,0,13,20,36.4,30.5l-1.3,4.6l4.7,2.1l4.7-3.2l1.4-4.7c0,0,28.1-17,35.1-31.2l3-4.9l4.7,1.8c0.7,5.2,1.9,11.8,4,16.8
			c0,0,11.1,25.2,31.8,16.3c0,0,18.5-5.3,30.5-3.7L928.1,932.9z"/>
	</g>
	<g>
		<path class="st37" d="M780,916c6.2-13,7-49.2,7-49.2l35.4,10l34.5-2.2c0,0-3.6,15.7,3.3,40.6c0,0-24.3,24.6-36.6,29.5v4.1
			l-4.7,3.2l-4.7-3.3l1.3-3.4c0,0-24.2-12.1-33.4-26.7"/>
	</g>
	<g>
		<path class="st37" d="M887.7,770.9l-2,46.5c-1.1,25.7-14.1,49.3-35.2,64l0,0c-3.9,2.7-12.2,6.3-15.8,7.8c-1.3,0.5-2.7,1-4.1,1.3
			c-6.1,1.3-11.9,0.6-15.2,0c-1.5-0.3-2.9-0.7-4.4-1.2c-3.8-1.5-12.9-5.1-16.8-7.9l0,0c-21.1-14.7-34.1-38.3-35.2-64l-2-46.5
			c0,0,6.7-12.8,22.8-19.2c0,0,40.5-13.1,42.5-20.4l4.4,3.9c0,0,5.7,10.9,14.9,13.2l20.2,7.9C862,756.3,884.1,763.8,887.7,770.9z"/>
	</g>
	<g>
		<path class="st37" d="M758.5,802.1l-2.6-0.8c-2.6-0.8-4.5-0.5-6.3,0.7c-2.2,1.5-3.5,4-3.9,6.6c-0.8,6.1,1.6,13.7,4.1,18.9
			c1.4,2.8,3.9,5,7,5.9l4.9,1.5"/>
	</g>
	<g>
		<path class="st37" d="M883.2,834.9l4.9-1.5c3-1,5.6-3.1,7-5.9c2.6-5.2,4.9-12.8,4.1-18.9c-0.3-2.6-1.7-5.1-3.9-6.6
			c-1.7-1.2-3.7-1.5-6.3-0.7l-2.6,0.8"/>
	</g>
	<g>
		<path class="st21" d="M757.2,790.8l-0.9-20.7l0.2-0.3c11.3-16.2,29-22.1,43.2-26.8c11.6-3.8,20.7-6.8,22.5-13.9l1.9,0.5
			c-2.1,8.1-11.6,11.2-23.8,15.3c-13.9,4.6-31.1,10.3-42,25.8l0.8,20.1L757.2,790.8z"/>
	</g>
	<g>
		<path class="st21" d="M823.5,891.7c-3.3,0-6.2-0.4-8-0.7c-1.5-0.3-3-0.7-4.5-1.3c-3.8-1.5-13-5.2-17-8
			c-21.2-14.8-34.5-39-35.6-64.8l2-0.1c1.1,25.2,14,48.8,34.7,63.2c3.9,2.7,12.9,6.3,16.6,7.7c1.4,0.5,2.8,0.9,4.2,1.2
			c2.9,0.5,8.8,1.3,14.8,0c1.2-0.3,2.5-0.7,3.9-1.2c3.4-1.4,11.8-5,15.6-7.7c20.7-14.4,33.7-38,34.7-63.2l1.9-46.2
			c-5.8-7.5-15.5-10.5-25.8-13.6c-12.5-3.9-26.8-8.3-35.9-22.1l1.7-1.1c8.7,13.2,22,17.3,34.8,21.3c10.7,3.3,20.8,6.4,27,14.6
			l0.2,0.3l-2,46.9c-1.1,25.8-14.4,50-35.6,64.8c-3.8,2.7-11.7,6.1-16,7.9c-1.5,0.6-2.9,1.1-4.3,1.4
			C828.4,891.5,825.8,891.7,823.5,891.7z"/>
	</g>
	<g>
		<path class="st21" d="M820.8,839.1c-0.9,0-1.8-0.1-2.6-0.3l-9.7-2.1l0.4-2l9.7,2.1c1.4,0.3,3,0.3,4.4,0l9.7-2.1l0.4,2l-9.7,2.1
			C822.5,839,821.6,839.1,820.8,839.1z"/>
	</g>
	<g>
		<path class="st21" d="M822.3,838.3l-2-4.2c-1.5-3.3-2.4-6.9-2.4-10.6v-18h2v18c0,3.3,0.7,6.7,2.2,9.7l2,4.2L822.3,838.3z"/>
	</g>
	<g>
		<path class="st21" d="M761.7,835.4l-4.9-1.5c-3.3-1-6.1-3.4-7.6-6.5c-2.6-5.2-5.1-13.1-4.2-19.4c0.5-3.9,3.4-7.1,7.2-8.2l1.6-0.5
			l17,1.3l-0.1,2l-16.6-1.2l-1.2,0.4c-3.1,0.9-5.4,3.4-5.8,6.4c-0.8,6,1.6,13.4,4,18.4c1.3,2.6,3.6,4.6,6.4,5.4l4.9,1.5L761.7,835.4
			z"/>
	</g>
	<g>
		<path class="st21" d="M883.6,835.4l-0.6-1.9l4.9-1.5c2.8-0.9,5.1-2.9,6.4-5.4c2.3-4.7,4.8-12.3,4-18.3c-0.3-2.5-1.6-4.6-3.4-5.9
			c-1.6-1.1-3.3-1.3-5.4-0.6l-2.6,0.8l-0.6-1.9l2.6-0.8c2.7-0.9,5-0.6,7.1,0.9c2.3,1.6,3.9,4.2,4.3,7.3c0.8,6.4-1.6,14.2-4.2,19.4
			c-1.5,3.1-4.3,5.4-7.6,6.4L883.6,835.4z"/>
	</g>
	<g>
		<path class="st21" d="M826.3,866.4c-4.5,0-8.7-1.6-11.4-3.4l1.1-1.7c4.8,3.2,14.8,5.5,21.4-1.9l1.5,1.3
			C835.3,864.9,830.7,866.4,826.3,866.4z"/>
	</g>
	<g>
		<path class="st21" d="M819.5,858.7c-4,0-6.6-0.8-6.9-0.9l-1.1-0.4l0.6-1.1c3-5.7,5.4-5.8,8.8-5.4c1,0.1,2.1,0.3,3.2,0.1
			c2-0.2,3.9-1.3,5.9-2.6l1.1,1.7c-2.2,1.4-4.3,2.6-6.7,2.9c-1.4,0.2-2.6,0-3.7-0.1c-2.4-0.3-4-0.5-6.2,3.2c1.4,0.3,4.1,0.7,7.4,0.4
			c4.7-0.4,11.8-2.3,19-8.7l1.3,1.5C833.7,857.1,825.2,858.7,819.5,858.7z"/>
	</g>
	<g>
		<path class="st21" d="M780.9,916.4l-1.9-0.7c3.1-8,7-31.4,6.3-40.9l2-0.2C788.1,884.4,784.1,908.2,780.9,916.4z"/>
	</g>
	<g>
		<path class="st21" d="M859.3,913.6c-2.7-6.9-4.4-20.6-4.6-29.9l2-0.1c0.2,9.2,1.9,22.6,4.5,29.3L859.3,913.6z"/>
	</g>
	<g>
		<path class="st21" d="M964.6,992.8l-13.3-33.2l-17.6-19.5c-9.1-1.1-18.4-0.1-27.1,2.8c-0.6,0.2-1.2,0.4-1.8,0.6
			c-2.1,0.7-4.2,1.5-6.5,1.8c-8.1,1.3-17.1-2.8-22.9-10.5c-4.5-6-7.2-13.7-8.5-24.2c-1.2-10.1-1.1-20.2,0.5-30.2l2,0.3
			c-1.6,9.8-1.7,19.8-0.5,29.7c1.3,10.2,3.8,17.6,8.1,23.2c5.3,7.1,13.6,10.9,21,9.7c2.1-0.3,4-1,6.1-1.8c0.6-0.2,1.2-0.4,1.8-0.6
			c9.1-3,18.9-4,28.3-2.8l0.4,0l18.4,20.3l13.5,33.5L964.6,992.8z"/>
	</g>
	<g>
		<polygon class="st21" points="759.7,913.4 757.9,912.5 767.3,894.6 781.9,891 782.3,892.9 768.7,896.3 		"/>
	</g>
	<g>
		<path class="st21" d="M854,978.6L820.8,945l1.2-0.6c0.3-0.2,34.3-17.5,43.8-44.9l1.9,0.7c-5.1,14.7-17,26.5-26.1,33.7
			c-7.7,6.1-14.7,10.2-17.5,11.7l30.1,30.5c10.4-7.5,18.1-18.9,22.9-33.8l1.9,0.6c-5,15.6-13.2,27.5-24.3,35.3L854,978.6z"/>
	</g>
	<g>
		<path class="st21" d="M670.3,1019.9l-1.9-0.7l22.5-60.8l0.3-0.2l65.3-40.9l0,1.7c0,0.4,1.3,38.2,27.3,57l30.1-30.5
			c-2.7-1.5-9.8-5.5-17.5-11.7c-9.1-7.2-21-19-26.1-33.7l1.9-0.7c9.5,27.4,43.5,44.7,43.8,44.9l1.2,0.6L784,978.6l-0.7-0.5
			c-24.1-16.8-28.1-49.5-28.7-57.3l-62.1,38.9L670.3,1019.9z"/>
	</g>
	<g>
		<path class="st22" d="M770.6,805.1c-1-25,51.8-22.7,43.2,5.7C806.5,835.3,771.8,834.7,770.6,805.1z"/>
	</g>
	<g>
		<path class="st22" d="M874.6,805.1c1-25-51.8-22.7-43.2,5.7C838.7,835.3,873.4,834.7,874.6,805.1z"/>
	</g>
	<g>
		<path class="st21" d="M814.8,803.7l-1.1-1.7c5.4-3.6,12.2-3.6,17.6,0l-1.1,1.7C825.4,800.6,819.5,800.6,814.8,803.7z"/>
	</g>
	<g>
		<path class="st21" d="M799.4,810.3h-2c0-3.9-2.4-5.7-4.7-5.7c-2.3,0-4.7,1.8-4.7,5.7h-2c0-5,3.4-7.7,6.7-7.7
			C796,802.6,799.4,805.3,799.4,810.3z"/>
	</g>
	<g>
		<path class="st21" d="M859.2,810.3h-2c0-3.9-2.4-5.7-4.7-5.7c-2.3,0-4.7,1.8-4.7,5.7h-2c0-5,3.4-7.7,6.7-7.7
			C855.8,802.6,859.2,805.3,859.2,810.3z"/>
	</g>
	<g>
		
			<rect x="874.6" y="800" transform="matrix(0.9973 -7.374576e-02 7.374576e-02 0.9973 -56.663 67.2986)" class="st21" width="16.9" height="2"/>
	</g>
	<g>
		<polygon class="st21" points="818.9,953.3 812.4,948.7 813.6,947 818.9,950.8 824.4,947 825.6,948.7 		"/>
	</g>
	<g>
		<path class="st21" d="M819,988.9l-0.4-0.2c-10.1-4.3-19.1-10.8-27-19.3l1.5-1.4c7.6,8.2,16.3,14.4,25.9,18.7
			c8-3.5,15.4-8.4,21.9-14.6l1.4,1.5c-6.8,6.5-14.6,11.6-22.9,15.2L819,988.9z"/>
	</g>
	<g>
		<path class="st21" d="M896.7,905.2c-3.6-3.2-5.2-8.1-6.2-11.9c-2.6-9.9-3.2-20.5-1.7-30.6l2,0.3c-1.5,9.9-0.9,20.2,1.6,29.8
			c0.9,3.6,2.4,8,5.6,10.9L896.7,905.2z"/>
	</g>
	<g>
		<polygon class="st21" points="213.1,1004.5 211.4,1003.5 242.4,951.8 322.4,909.5 323.4,911.3 243.9,953.3 		"/>
	</g>
	<g>
		<polygon class="st21" points="499,993 472.6,953.3 405.9,918.1 406.9,916.3 474,951.8 500.7,991.9 		"/>
	</g>
	<g>
		<polygon class="st21" points="340,1022.7 338,1022.7 338,961.5 322,924.7 323.8,923.9 340,961.1 		"/>
	</g>
	<g>
		<polygon class="st21" points="378.5,1022.7 376.5,1022.7 376.5,961.1 392.7,923.9 394.5,924.7 378.5,961.5 		"/>
	</g>
	<g>
		<path class="st69" d="M793,426.9l0.4,21.4c0,0,0.2,23.1-18.6,33.4c0,0-5.7,0.1-0.9,7.2c0,0,7.1,25.5,67.6,22.3
			c0,0,35.7-1.2,44-25.7c0,0-14-11.2-19.4-23c0,0-4.1-13.6-1.6-29.1L793,426.9z"/>
	</g>
	<g>
		<path class="st69" d="M889,330.5l0.4,49.4c-1,24.4-13.5,46.8-33.8,60.8l0,0c-3.7,2.6-11.7,6-15.2,7.4c-1.3,0.5-2.6,1-3.9,1.2
			c-5.9,1.2-11.5,0.6-14.6,0c-1.4-0.3-2.8-0.7-4.2-1.2c-3.6-1.4-12.4-4.9-16.2-7.5h0c-20.3-13.9-32.8-36.4-33.8-60.8l-1.9-49.4H889z
			"/>
	</g>
	<g class="st70">
		<path class="st36" d="M820.4,413.3c-1.8,1.1-3.1,3.2-2.7,5.3c0.4,2.1,2.4,3.4,4.3,4.3c4.5,2.1,9.8,2.6,14.5,0.9
			c8.6-3.1,11.7-12.3,9.1-14.7c-6.6-6-13.7,3.7-17.7,3.7C825.2,412.9,823.2,411.7,820.4,413.3z"/>
	</g>
	<g>
		<path class="st69" d="M766.9,365.4l-2.5-0.8c-2.5-0.8-4.3-0.4-6,0.7c-2.1,1.4-3.4,3.8-3.7,6.2c-0.8,5.8,1.5,13,4,17.9
			c1.4,2.7,3.8,4.7,6.7,5.6l4.7,1.5"/>
	</g>
	<g>
		<path class="st69" d="M888.5,366.4l4.1-1.8c2.5-0.8,4.3-0.4,6,0.7c2.1,1.4,3.4,3.8,3.7,6.2c0.8,5.8-1.5,13-4,17.9
			c-1.4,2.7-3.8,4.7-6.7,5.6l-4.7,1.5"/>
	</g>
	<g>
		
			<rect x="880.7" y="388.2" transform="matrix(0.1641 -0.9864 0.9864 0.1641 358.4617 1201.4543)" class="st21" width="14.9" height="2"/>
	</g>
	<g>
		
			<rect x="767.9" y="381.8" transform="matrix(0.9864 -0.1642 0.1642 0.9864 -53.4649 131.5047)" class="st21" width="2" height="14.9"/>
	</g>
	<g>
		<path class="st21" d="M828.4,451.3c-9.3,0-18.6-3.1-27.6-9.3c-2.8-2-5.5-4.1-8.1-6.4l1.3-1.5c2.5,2.2,5.1,4.3,7.9,6.3
			c20.4,14.2,42.6,11.4,62.6-7.9l1.4,1.4C854,445.5,841.2,451.3,828.4,451.3z"/>
	</g>
	<g>
		<path class="st21" d="M826.7,395.5c-0.9,0-1.7-0.1-2.5-0.3l-9.3-2.1l0.4-2l9.3,2.1c1.4,0.3,2.8,0.3,4.2,0l9.3-2.1l0.4,2l-9.3,2.1
			C828.4,395.4,827.5,395.5,826.7,395.5z"/>
	</g>
	<g>
		<rect x="855.1" y="366.4" class="st21" width="2" height="7.3"/>
	</g>
	<g>
		<rect x="797.6" y="366.4" class="st21" width="2" height="7.3"/>
	</g>
	<g>
		<path class="st21" d="M828.1,394.7l-1.9-4.1c-1.4-3-2.3-5.6-2.3-9.3v-22.6h2v22.6c0,3.3,0.8,5.6,2.1,8.4l1.9,4.1L828.1,394.7z"/>
	</g>
	<g>
		<path class="st21" d="M830.2,426.2c-4.3,0-8.4-1.5-11-3.2l1.1-1.7c4.6,3.1,14.2,5.3,20.5-1.8l1.5,1.3
			C838.8,424.8,834.4,426.2,830.2,426.2z"/>
	</g>
	<g>
		<path class="st21" d="M823.6,418.8c-3.9,0-6.4-0.8-6.6-0.9l-1.1-0.4l0.6-1.1c2.9-5.5,5.3-5.6,8.5-5.2c1,0.1,2,0.3,3.1,0.1
			c1.9-0.2,3.7-1.3,5.7-2.5l1.1,1.7c-2.2,1.3-4.1,2.5-6.5,2.8c-1.4,0.2-2.6,0-3.6-0.1c-2.3-0.3-3.8-0.5-5.9,3
			c3.6,0.7,14.5,1.8,25.4-8l1.3,1.5C837.3,417.2,829.1,418.8,823.6,418.8z"/>
	</g>
	<g>
		<path class="st36" d="M764,328.8h127.2V362c-3.9,15.9-17.6,3.4-9.6-3.3c-10.9-1.3-12-11.4-10.6-14c-4.5,0.6-13.6-2.5-14.4-8.3
			c-3.4,2.2-8,1.4-11.6-0.4c-1.9-1-4.5-2.5-5.1-4.6c-3.5,1-17.6,8.3-30.2-2.7c-3,9-14.9,14.3-21.8,10.1
			c0.4,10.5-10.9,17.5-19.6,10.4c0,0,3.8,10.1-1.4,15.5l-6.6-5.4L764,328.8z"/>
	</g>
	<g>
		<path class="st21" d="M870.6,351.4c-6-2.7-14.7-2.7-21.6-2.5l-0.1-2c7.6-0.3,16.2-0.2,22.5,2.6L870.6,351.4z"/>
	</g>
	<g>
		<path class="st21" d="M785.4,351.4l-0.8-1.8c6.3-2.9,14.9-2.9,22.5-2.6l-0.1,2C800.1,348.7,791.4,348.7,785.4,351.4z"/>
	</g>
	<g>
		<polygon class="st21" points="665.5,592.3 663.8,591.2 714.9,511.8 772.3,482.8 773.2,484.6 716.3,513.3 		"/>
	</g>
	<g>
		<polygon class="st21" points="985.2,592.2 938.2,513.3 890.4,488.2 891.4,486.4 939.6,511.8 939.8,512 986.9,591.2 		"/>
	</g>
	<g>
		<g>
			<path class="st31" d="M469.6,222.2h-32v-26.9h50.6v8.3C488.2,213.8,479.9,222.2,469.6,222.2z"/>
		</g>
		<g>
			<g>
				<path class="st14" d="M455,194.7h-2v-49.1h-17.8v-1c0-10.8,8.5-19.5,18.8-19.5h1v18.5h15.8v-18.5h1c10.4,0,18.8,8.7,18.8,19.5v1
					h-17.8V194h-2v-48.3H455V194.7z M472.8,143.7h15.8c-0.5-8.8-7.3-15.9-15.8-16.5V143.7z M437.2,143.7H453v-16.5
					C444.5,127.7,437.7,134.8,437.2,143.7z"/>
			</g>
			<g>
				<path class="st21" d="M470.3,222.7h-33.7v-14.9h2v12.9h31.7c9.3,0,16.8-7.8,16.8-17.5V195c0-6.3,2.8-12.3,7.6-15.9
					c13.9-10.5,22.1-27.4,22.1-45.2c0-15.5-6.2-30.4-17.1-40.9c-10.5-10.2-24.2-15.5-38.5-15.1c-28.2,0.9-51.1,24.4-52.3,53.6
					c-0.7,18.7,7.5,36.4,22,47.5c4.8,3.7,7.7,9.5,7.7,15.5h48.1v2h-50.1v-1.8c0-5.5-2.6-10.8-6.9-14.1c-15-11.5-23.5-29.9-22.7-49.2
					c1.2-30.2,25-54.6,54.2-55.5c14.9-0.5,29.1,5.1,40,15.6c11.3,10.9,17.7,26.4,17.7,42.4c0,18.4-8.6,35.9-22.9,46.8
					c-4.3,3.2-6.8,8.6-6.8,14.3v8.3C489.2,214,480.7,222.7,470.3,222.7z"/>
			</g>
		</g>
		<g>
			<rect x="542.6" y="128.3" class="st14" width="20.3" height="2"/>
		</g>
		<g>
			<rect x="362.9" y="128.3" class="st14" width="20.3" height="2"/>
		</g>
		<g>
			<rect x="461.9" y="25.6" class="st14" width="2" height="21.1"/>
		</g>
		<g>
			
				<rect x="516.1" y="62.4" transform="matrix(0.6942 -0.7198 0.7198 0.6942 115.3754 398.3211)" class="st14" width="20.7" height="2"/>
		</g>
		<g>
			
				<rect x="398.4" y="53" transform="matrix(0.7198 -0.6942 0.6942 0.7198 67.9107 295.013)" class="st14" width="2" height="20.7"/>
		</g>
	</g>
	<g>
		<g>
			<path class="st21" d="M1093.4,825.7H1006c-11.5,0-20.9-9.4-20.9-20.9V684.1h70.8v2h-68.8v118.6c0,10.4,8.5,18.9,18.9,18.9h85.4
				V735h2V825.7z"/>
		</g>
		<g>
			<path class="st21" d="M1093.4,721h-36.9v-36.9h3.1l33.8,33.8V721z M1058.5,719h32.9v-0.2l-32.6-32.6h-0.2V719z"/>
		</g>
		<g>
			<rect x="1009.3" y="737.3" class="st14" width="59.8" height="2"/>
		</g>
		<g>
			<rect x="1009.3" y="753.9" class="st14" width="59.8" height="2"/>
		</g>
		<g>
			<rect x="1009.3" y="770.5" class="st14" width="59.8" height="2"/>
		</g>
		<g>
			<rect x="1009.3" y="787.1" class="st14" width="29.9" height="2"/>
		</g>
		<g>
			<polygon class="st14" points="1110.1,842.6 1002.7,842.6 1002.7,840.6 1108.1,840.6 1108.1,703 1092.4,703 1092.4,701 
				1110.1,701 			"/>
		</g>
	</g>
	<g>
		<path class="st14" d="M204.3,795.1H26.2v-74.4h178.1V795.1z M28.2,793.1h174.1v-70.4H28.2V793.1z"/>
	</g>
	<g>
		<path class="st21" d="M63.6,777.3c-5,0-9.9-1.9-13.7-5.7l1.4-1.4c6.8,6.8,17.8,6.8,24.6,0c6.8-6.8,6.8-17.8,0-24.6l1.4-1.4
			c7.6,7.6,7.6,19.9,0,27.4C73.6,775.4,68.6,777.3,63.6,777.3z"/>
	</g>
	<g>
		<polygon class="st21" points="60.6,764.5 55.6,759.5 57,758.1 60.6,761.7 70.2,752 71.6,753.4 		"/>
	</g>
	<g>
		<rect x="152.6" y="750.6" class="st14" width="32.7" height="2"/>
	</g>
	<g>
		<rect x="100.7" y="750.6" class="st14" width="37.3" height="2"/>
	</g>
	<g>
		<rect x="100.7" y="763.1" class="st14" width="54.6" height="2"/>
	</g>
	<g>
		<path class="st14" d="M204.3,890H26.2v-74.4h178.1V890z M28.2,888h174.1v-70.4H28.2V888z"/>
	</g>
	<g>
		<path class="st21" d="M63.6,872.1c-5,0-9.9-1.9-13.7-5.7l1.4-1.4c6.8,6.8,17.8,6.8,24.6,0c6.8-6.8,6.8-17.8,0-24.6l1.4-1.4
			c7.6,7.6,7.6,19.9,0,27.4C73.6,870.3,68.6,872.1,63.6,872.1z"/>
	</g>
	<g>
		<polygon class="st21" points="60.6,859.4 55.6,854.4 57,853 60.6,856.5 70.2,846.9 71.6,848.3 		"/>
	</g>
	<g>
		<rect x="100.7" y="845.5" class="st14" width="63.1" height="2"/>
	</g>
	<g>
		<rect x="157.2" y="858" class="st14" width="13.2" height="2"/>
	</g>
	<g>
		<rect x="100.7" y="858" class="st14" width="43.6" height="2"/>
	</g>
	<g>
		<g>
			<g>
				<path class="st14" d="M1026.3,357c-9.2-2.9-15.3-11.4-15.3-21c0-12.1,9.9-22,22-22c9.6,0,18.1,6.2,21,15.3l-1.9,0.6
					c-2.7-8.3-10.3-13.9-19.1-13.9c-11,0-20,9-20,20c0,8.8,5.6,16.4,13.9,19.1L1026.3,357z"/>
			</g>
			<g>
				<path class="st14" d="M995.4,390.1l-16.6-16.6l9.7-13c-1.8-3.3-3.3-6.8-4.3-10.4l-16-2.3v-23.5l16-2.3c1-3.6,2.5-7.1,4.3-10.4
					l-9.7-13l16.6-16.6l13,9.7c3.3-1.8,6.8-3.3,10.4-4.3l2.3-16h23.5l2.3,16c3.6,1,7.1,2.5,10.4,4.3l13-9.7l16.6,16.6l-9.7,13
					c1.9,3.5,3.4,7.2,4.5,11.1l-1.9,0.5c-1.1-3.9-2.6-7.7-4.6-11.2l-0.3-0.6l9.4-12.6l-14.2-14.2l-12.6,9.4l-0.6-0.3
					c-3.5-2-7.3-3.6-11.2-4.6l-0.6-0.2l-2.3-15.6h-20.1l-2.3,15.6l-0.6,0.2c-3.9,1.1-7.7,2.6-11.2,4.6l-0.6,0.3l-12.6-9.4
					l-14.2,14.2l9.4,12.6l-0.3,0.6c-2,3.5-3.6,7.3-4.6,11.2l-0.2,0.6l-15.6,2.3V346l15.6,2.3l0.2,0.6c1.1,3.9,2.6,7.7,4.6,11.2
					l0.3,0.6l-9.4,12.6l14.2,14.2l12.6-9.4l0.6,0.3c3.5,2,7.3,3.6,11.2,4.6l-0.5,1.9c-3.8-1.1-7.6-2.6-11.1-4.5L995.4,390.1z"/>
			</g>
		</g>
		<g>
			<g>
				<path class="st14" d="M1098.9,426.1c-13.3,0-24.1-10.8-24.1-24.1c0-13.3,10.8-24.1,24.1-24.1c13.3,0,24.1,10.8,24.1,24.1
					C1123,415.2,1112.2,426.1,1098.9,426.1z M1098.9,379.8c-12.2,0-22.1,9.9-22.1,22.1c0,12.2,9.9,22.1,22.1,22.1
					c12.2,0,22.1-9.9,22.1-22.1C1121,389.7,1111.1,379.8,1098.9,379.8z"/>
			</g>
			<g>
				<path class="st14" d="M1111.8,473.2h-25.7l-2.6-17.6c-4-1.2-7.9-2.8-11.6-4.8l-14.3,10.6l-18.2-18.2l10.6-14.3
					c-2-3.7-3.7-7.6-4.8-11.6l-17.6-2.6v-25.7l17.6-2.6c1.2-4,2.8-7.9,4.8-11.6l-10.6-14.3l18.2-18.2l14.2,10.6
					c3.7-2,7.6-3.7,11.6-4.8l2.6-17.6h25.7l2.6,17.6c4,1.2,7.9,2.8,11.6,4.8l14.3-10.6l18.2,18.2l-10.6,14.3c2,3.7,3.6,7.6,4.8,11.6
					l17.6,2.6v25.7l-17.6,2.6c-1.2,4-2.8,7.9-4.8,11.6l10.6,14.3l-18.2,18.2l-14.3-10.6c-3.7,2-7.6,3.6-11.6,4.8L1111.8,473.2z
					 M1087.8,471.2h22.2l2.5-17.2l0.6-0.2c4.3-1.2,8.4-2.9,12.3-5.1l0.6-0.3l13.9,10.4l15.7-15.7l-10.4-13.9l0.3-0.6
					c2.2-3.9,3.9-8,5.1-12.3l0.2-0.6l17.2-2.5v-22.2l-17.2-2.5l-0.2-0.6c-1.2-4.3-2.9-8.4-5.1-12.3l-0.3-0.6l10.4-13.9l-15.7-15.7
					l-13.9,10.4l-0.6-0.3c-3.9-2.2-8-3.9-12.3-5.1l-0.6-0.2l-2.5-17.2h-22.2l-2.5,17.2l-0.6,0.2c-4.3,1.2-8.4,2.9-12.3,5.1l-0.6,0.3
					l-13.9-10.4l-15.7,15.7l10.4,13.9l-0.3,0.6c-2.2,3.9-3.9,8-5.1,12.3l-0.2,0.6l-17.2,2.5v22.2l17.2,2.5l0.2,0.6
					c1.2,4.3,2.9,8.4,5.1,12.3l0.3,0.6l-10.4,13.9l15.7,15.7l13.9-10.4l0.6,0.3c3.9,2.2,8,3.9,12.3,5.1l0.6,0.2L1087.8,471.2z"/>
			</g>
		</g>
	</g>
	<g>
		<g>
			<path class="st14" d="M529.5,1114.3c-3.6,0-7-1.8-9-5.1c-3-5-1.4-11.4,3.6-14.4l11.3-7c5-3,11.4-1.4,14.4,3.6l0,0
				c3,5,1.4,11.4-3.6,14.4l-11.3,7C533.2,1113.8,531.3,1114.3,529.5,1114.3z M540.8,1088.3c-1.5,0-3,0.4-4.4,1.2l-11.3,7
				c-4,2.4-5.3,7.6-2.9,11.7c2.4,4,7.6,5.3,11.6,2.9l11.3-7c4-2.4,5.3-7.6,2.9-11.7C546.5,1089.8,543.6,1088.3,540.8,1088.3z"/>
		</g>
		<g>
			<g>
				<path class="st14" d="M618.7,1134.5c-0.6,0-1.1,0-1.7-0.1l0.3-2c3.7,0.6,7.4-1.2,9.2-4.5c1.2-2.1,1.5-4.5,0.8-6.8
					c-0.6-2.3-2.1-4.2-4.2-5.4l1-1.7c2.5,1.4,4.4,3.8,5.2,6.6c0.8,2.8,0.4,5.8-1,8.3C626.3,1132.4,622.6,1134.5,618.7,1134.5z"/>
			</g>
			<g>
				<path class="st14" d="M639.1,1123.2c-1.8,0-3.7-0.5-5.4-1.4l-49-27.6l1-1.7l49,27.6c4.3,2.4,9.8,0.9,12.2-3.4
					c1.2-2.1,1.5-4.5,0.8-6.8c-0.6-2.3-2.1-4.2-4.2-5.4l-49-27.6l1-1.7l49,27.6c5.3,3,7.1,9.7,4.2,14.9
					C646.7,1121.2,642.9,1123.2,639.1,1123.2z"/>
			</g>
			<g>
				<path class="st14" d="M638.3,1099.9c-1.8,0-3.7-0.5-5.4-1.4l1-1.7c4.3,2.4,9.8,0.9,12.2-3.4c1.2-2.1,1.5-4.5,0.8-6.8
					c-0.6-2.3-2.1-4.2-4.2-5.4l-18.7-10.9l1-1.7l18.7,10.9c5.3,3,7.1,9.7,4.2,14.9C645.8,1097.9,642.1,1099.9,638.3,1099.9z"/>
			</g>
			<g>
				<path class="st14" d="M518.2,1084.6c-2.8-11.9-1.1-24.3,4.9-34.9l1.7,1c-5.7,10.2-7.4,22.1-4.7,33.5L518.2,1084.6z"/>
			</g>
			<g>
				<path class="st14" d="M524.9,1050.6l-1.7-1c12.4-22,34.8-31.7,61.4-26.7l-0.4,2C558.5,1020.1,536.8,1029.4,524.9,1050.6z"/>
			</g>
		</g>
		<g>
			<g>
				<path class="st14" d="M650.2,1111.5l-1.2-1.6c19.5-13.7,25.3-39.8,13.6-60.6c-11.4-20.3-36.3-29-57.8-20.2l-38,20.8
					c-1.5,0.8-3.4,2.3-3.4,4.3c0,2,1.6,4.3,4.5,6c4.3,2.6,12,4.1,19.2,0.1l15.3-8.6l0.5,0.3c0.1,0.1,11.8,7.5,25.4,1.6l0.8,1.8
					c-13,5.7-24.2,0-26.7-1.5l-14.3,8c-8,4.5-16.4,2.8-21.2-0.1c-3.5-2.1-5.5-5-5.5-7.7c0-1.7,0.8-4.1,4.4-6.1l38.2-20.9
					c22.5-9.2,48.4-0.2,60.4,21C676.6,1070,670.5,1097.2,650.2,1111.5z"/>
			</g>
		</g>
		<g>
			<path class="st14" d="M583.3,1148.7c-3.6,0-7-1.8-9-5.1c-1.4-2.4-1.9-5.2-1.2-7.9s2.4-5,4.8-6.5l11.3-7c5-3,11.4-1.4,14.4,3.6
				l0,0c3,5,1.4,11.4-3.6,14.4l-11.3,7C587,1148.2,585.1,1148.7,583.3,1148.7z M594.6,1122.7c-1.5,0-3,0.4-4.4,1.2l-11.3,7
				c-2,1.2-3.3,3-3.9,5.2c-0.5,2.2-0.2,4.5,1,6.4c2.4,4,7.6,5.3,11.6,2.9l11.3-7c4-2.4,5.3-7.6,2.9-11.7l0,0c-1.2-1.9-3-3.3-5.2-3.9
				C595.9,1122.8,595.2,1122.7,594.6,1122.7z"/>
		</g>
		<g>
			<path class="st14" d="M559.8,1140.7c-3.6,0-7-1.8-9-5.1c-1.4-2.4-1.9-5.2-1.2-7.9s2.4-5,4.8-6.5l15.2-9.5c2.4-1.5,5.2-1.9,8-1.2
				c2.7,0.7,5,2.4,6.5,4.8l0,0c1.4,2.4,1.9,5.2,1.2,7.9s-2.4,5-4.8,6.5l-15.2,9.5C563.5,1140.2,561.6,1140.7,559.8,1140.7z
				 M574.9,1112.2c-1.5,0-3,0.4-4.4,1.2l-15.2,9.5c-4,2.4-5.3,7.6-2.9,11.7c2.4,4,7.6,5.3,11.6,2.9l15.2-9.5c2-1.2,3.3-3,3.9-5.2
				c0.5-2.2,0.2-4.5-1-6.4l0,0c-1.2-1.9-3-3.3-5.2-3.9C576.3,1112.3,575.6,1112.2,574.9,1112.2z"/>
		</g>
		<g>
			<path class="st14" d="M542.1,1129.1c-3.4,0-6.8-1.7-8.8-4.7c-3.2-4.8-1.8-11.3,3-14.5l0,0l15.7-10.1c2.4-1.5,5.2-1.9,8-1.2
				c2.7,0.7,5,2.4,6.5,4.8c3,5,1.4,11.4-3.6,14.4l-15.1,9.7C546,1128.6,544.1,1129.1,542.1,1129.1z M537.4,1111.6
				c-1.9,1.2-3.2,3.2-3.6,5.4c-0.5,2.2,0,4.5,1.2,6.4s3.2,3.2,5.4,3.6c2.2,0.5,4.5,0,6.4-1.2l15.1-9.7c4-2.4,5.3-7.7,2.9-11.7
				c-1.2-1.9-3-3.3-5.2-3.9c-2.2-0.5-4.5-0.2-6.4,1L537.4,1111.6z"/>
		</g>
	</g>
	<g>
		<g>
			<path class="st14" d="M145.4,392.8H71.6c-15.5,0-28.1-12.6-28.1-28.1c0-15.5,12.6-28.1,28.1-28.1c1.2,0,2.4,0.1,3.6,0.3
				c1.5-18.8,17.3-33.4,36.3-33.4c15.7,0,29.8,10.3,34.6,25.2c2.7-0.7,5.5-1.1,8.3-1.1c18,0,32.6,14.6,32.6,32.6
				c0,17-12.8,31-29.7,32.5l-0.2-2c15.9-1.4,27.8-14.6,27.8-30.5c0-16.9-13.7-30.6-30.6-30.6c-2.9,0-5.8,0.4-8.7,1.3l-1,0.3l-0.3-1
				c-4.3-14.5-17.8-24.7-33-24.7c-18.3,0-33.4,14.3-34.4,32.6l-0.1,1.1l-1.1-0.2c-1.6-0.3-3-0.4-4.4-0.4
				c-14.4,0-26.1,11.7-26.1,26.1s11.7,26.1,26.1,26.1h73.8V392.8z"/>
		</g>
		<g>
			<rect x="114.3" y="391.8" class="st14" width="2" height="36.2"/>
		</g>
		<g>
			<path class="st14" d="M115.3,441c-3.9,0-7-3.2-7-7s3.2-7,7-7s7,3.2,7,7S119.1,441,115.3,441z M115.3,428.9c-2.8,0-5,2.3-5,5
				s2.3,5,5,5s5-2.3,5-5S118,428.9,115.3,428.9z"/>
		</g>
		<g>
			<path class="st14" d="M56.5,424.4c-3.9,0-7-3.2-7-7s3.2-7,7-7s7,3.2,7,7S60.4,424.4,56.5,424.4z M56.5,412.4c-2.8,0-5,2.3-5,5
				s2.3,5,5,5s5-2.3,5-5S59.3,412.4,56.5,412.4z"/>
		</g>
		<g>
			<path class="st14" d="M177,424.4c-3.9,0-7-3.2-7-7s3.2-7,7-7s7,3.2,7,7S180.9,424.4,177,424.4z M177,412.4c-2.8,0-5,2.3-5,5
				s2.3,5,5,5s5-2.3,5-5S179.8,412.4,177,412.4z"/>
		</g>
		<g>
			<polygon class="st14" points="92.1,418.4 62.5,418.4 62.5,416.4 90.1,416.4 90.1,391.8 92.1,391.8 			"/>
		</g>
		<g>
			<polygon class="st14" points="169.5,418.4 138.4,418.4 138.4,391.8 140.4,391.8 140.4,416.4 169.5,416.4 			"/>
		</g>
	</g>
	<g>
		<g>
			<polygon class="st14" points="1079.2,133.8 1062,92.9 1088.5,66.5 1089.9,67.9 1064.4,93.4 1079.2,128.5 1113.4,42.9 
				1027.8,76.2 1054.4,88.2 1053.6,90 1022.6,76.1 1117,39.4 			"/>
		</g>
		<g>
			
				<rect x="1038.8" y="109.3" transform="matrix(0.7071 -0.7071 0.7071 0.7071 228.4047 771.9998)" class="st14" width="14.6" height="2"/>
		</g>
		<g>
			
				<rect x="1018.6" y="102.3" transform="matrix(0.7071 -0.7071 0.7071 0.7071 228.6445 758.626)" class="st14" width="23" height="2"/>
		</g>
		<g>
			
				<rect x="1041.6" y="125.3" transform="matrix(0.7071 -0.7071 0.7071 0.7071 219.1176 781.626)" class="st14" width="23" height="2"/>
		</g>
	</g>
	<g>
		<g>
			<path class="st14" d="M53.7,141.8V59.1c0-7.2,5.8-13,13-13h49v2h-49c-6.1,0-11,4.9-11,11v77.3l18.3-21.3h48.7V91l23,19V53.2
				l-23,19V46.1h2V68l23-19v65.2l-23-19v21.9H74.9L53.7,141.8z"/>
		</g>
		<g>
			<path class="st14" d="M89.2,104.6c-8.7,0-16.5-4.8-20.5-12.5l1.8-0.9c3.6,7.1,10.8,11.5,18.7,11.5c11.6,0,21-9.4,21-21
				s-9.4-21-21-21s-21,9.4-21,21h-2c0-12.7,10.3-23,23-23s23,10.3,23,23S101.9,104.6,89.2,104.6z"/>
		</g>
	</g>
	<g>
		<g>
			<path class="st14" d="M1146.4,1124.7h-92l10-13.3v-27.7c0-19.9,16.1-36,36-36s36,16.1,36,36v27.7L1146.4,1124.7z M1058.4,1122.7
				h84l-8-10.7v-28.3c0-18.7-15.3-34-34-34s-34,15.3-34,34v28.3L1058.4,1122.7z"/>
		</g>
		<g>
			<polygon class="st14" points="1107.4,1049.7 1105.4,1049.7 1105.4,1043.7 1095.4,1043.7 1095.4,1049.7 1093.4,1049.7 
				1093.4,1041.7 1107.4,1041.7 			"/>
		</g>
		<g>
			<path class="st14" d="M1099.4,1137.7h-10v-15h23v2C1112.4,1131.9,1106.5,1137.7,1099.4,1137.7z M1091.4,1135.7h8
				c6.1,0,11-4.9,11-11h-19V1135.7z"/>
		</g>
	</g>
	<g>
		<g>
			<path class="st14" d="M100.7,1097.5l-50.8-25.3l50.8-24.8l50.8,24.8L100.7,1097.5z M54.5,1072.2l46.2,23l46.2-23l-46.2-22.6
				L54.5,1072.2z"/>
		</g>
		<g>
			<path class="st14" d="M130.1,1114.5h-2v-22.3c0-2.8-1.6-5.4-4.1-6.6l-23.9-12.2l0.9-1.8l23.9,12.2c3.2,1.6,5.2,4.9,5.2,8.4
				V1114.5z"/>
		</g>
		<g>
			<path class="st14" d="M106.2,1126.6c-15.1,0-27.1-4.5-32.8-9.7c-3.7-3.4-5.6-7.3-5.6-11.8v-24.3h2v24.3c0,3.9,1.7,7.4,5,10.4
				c7.5,6.8,23.8,10.4,39.4,8.7l0.2,2C111.5,1126.4,108.8,1126.6,106.2,1126.6z"/>
		</g>
		<g>
			<path class="st14" d="M141.5,1135.6h-24.9l1-1.6c2.7-4,4.1-8.6,4.1-13.4c0-4,3.7-6.2,7.3-6.2c3.7,0,7.3,2.1,7.3,6.2
				c0,4.8,1.4,9.4,4.1,13.4L141.5,1135.6z M120.3,1133.6h17.6c-2.3-3.9-3.4-8.4-3.4-13c0-1.3-0.5-2.3-1.6-3.1
				c-1-0.7-2.3-1.1-3.8-1.1c-2.6,0-5.3,1.3-5.3,4.2C123.7,1125.2,122.5,1129.7,120.3,1133.6z"/>
		</g>
	</g>
	<g>
		<path class="st14" d="M670.7,114.1c-3.7,0-7.5-0.2-11.1-0.4l0.1-2c3.5,0.3,7.2,0.4,10.9,0.4L670.7,114.1z M681.8,113.8l-0.1-2
			c3.6-0.2,7.2-0.5,10.9-0.9l0.2,2C689,113.3,685.3,113.6,681.8,113.8z M648.6,112.4c-3.7-0.6-7.3-1.3-10.9-2.1l0.5-1.9
			c3.5,0.8,7.1,1.6,10.7,2.1L648.6,112.4z M703.7,111.3l-0.3-2c3.5-0.6,7.1-1.3,10.8-2l0.4,2C710.9,110.1,707.2,110.7,703.7,111.3z
			 M627.1,107.2c-3.5-1.2-7-2.6-10.3-4.1l0.8-1.8c3.3,1.5,6.7,2.9,10.1,4L627.1,107.2z M725.3,106.8l-0.5-1.9
			c3.5-0.9,7-1.8,10.6-2.8l0.5,1.9C732.4,105,728.8,106,725.3,106.8z M746.5,100.8l-0.6-1.9c3.3-1,6.7-2.2,10.4-3.4l0.6,1.9
			C753.3,98.7,749.9,99.8,746.5,100.8z M767.4,93.8l-0.7-1.9c3.5-1.2,6.9-2.4,10.4-3.7l0.7,1.9C774.4,91.4,770.9,92.6,767.4,93.8z
			 M788.2,86.5l-0.7-1.9c3.5-1.2,6.9-2.4,10.4-3.6l0.7,1.9C795.1,84.1,791.6,85.3,788.2,86.5z M984.6,86.3c-1.7-0.9-3.5-1.8-5.3-2.7
			l0.9-1.8c1.8,0.9,3.6,1.8,5.4,2.7L984.6,86.3z M809,79.3l-0.6-1.9c3.7-1.2,7.1-2.3,10.5-3.4l0.6,1.9C816.1,77,812.7,78.1,809,79.3
			z M969.3,79.1c-3.3-1.4-6.8-2.7-10.2-4l0.7-1.9c3.5,1.2,6.9,2.6,10.3,4L969.3,79.1z M829.9,72.9l-0.5-1.9c3.6-1,7.2-2,10.7-2.8
			l0.5,1.9C837.1,70.9,833.6,71.9,829.9,72.9z M948.7,71.7c-3.5-1-7-2-10.6-2.8l0.5-1.9c3.6,0.8,7.2,1.8,10.7,2.8L948.7,71.7z
			 M851.3,67.7l-0.4-2c3.7-0.7,7.3-1.4,10.9-1.9l0.3,2C858.5,66.4,854.9,67,851.3,67.7z M927.4,66.7c-3.6-0.6-7.2-1.2-10.8-1.6
			l0.2-2c3.6,0.5,7.3,1,10.9,1.7L927.4,66.7z M872.9,64.5l-0.2-2c3.6-0.4,7.4-0.6,11-0.8l0.1,2C880.2,63.8,876.5,64.1,872.9,64.5z
			 M905.7,64c-3.6-0.3-7.3-0.4-10.9-0.5l0-2c3.7,0.1,7.4,0.2,11,0.5L905.7,64z"/>
	</g>
	<g>
		<path class="st14" d="M1112.9,1011.7l-0.7-1.9c3.3-1.3,6.7-2.8,9.8-4.6l1,1.7C1119.7,1008.8,1116.3,1010.4,1112.9,1011.7z
			 M1132.3,1000.9l-1.2-1.6c2.9-2.2,5.6-4.6,8.2-7.1l1.4,1.4C1138.1,996.2,1135.3,998.7,1132.3,1000.9z M1148.1,985.3l-1.6-1.2
			c2.2-2.9,4.2-5.9,6-9l1.7,1C1152.4,979.2,1150.4,982.3,1148.1,985.3z M1159,966l-1.9-0.7c1.4-3.5,2.3-7,2.9-10.4l2,0.3
			C1161.4,958.7,1160.4,962.3,1159,966z M1145.7,948.7c-0.8,0-1.5,0-2.3-0.1l0.2-2c3.6,0.3,7.1-0.2,10.4-1.4l0.7,1.9
			C1151.8,948.2,1148.8,948.7,1145.7,948.7z M1132.5,945.7c-3.3-1.7-6.2-4.6-8.1-8l1.8-1c1.7,3.1,4.4,5.7,7.3,7.2L1132.5,945.7z
			 M1160.3,944.2c-0.4-3.6-1.4-7.1-3-10.2l1.8-0.9c1.7,3.3,2.7,7,3.2,10.8L1160.3,944.2z M1164.2,941l-1.4-1.4
			c2.4-2.4,4.5-5.2,6.3-8.6l1.8,0.9C1169,935.4,1166.7,938.5,1164.2,941z M1124.5,926.8l-1.9-0.6c0.5-1.9,1.6-3.6,3.1-4.9
			c1.5-1.4,3.3-2.4,5.3-3l0.6,1.9c-1.7,0.5-3.2,1.4-4.5,2.6C1125.8,923.9,1125,925.3,1124.5,926.8z M1150.9,925.7
			c-2.7-2.4-5.9-4.2-9.1-5.2l0.6-1.9c3.5,1.1,7,3,9.9,5.6L1150.9,925.7z M1175,921.5l-1.9-0.5c0.9-3.4,1.6-7,1.9-10.6l2,0.2
			C1176.6,914.3,1176,918,1175,921.5z M1175,899.5c-0.3-3.6-0.8-7.2-1.6-10.7l1.9-0.5c0.8,3.6,1.4,7.3,1.7,11L1175,899.5z
			 M1170.2,878.5c-1.3-3.4-2.9-6.6-4.7-9.7l1.7-1c1.9,3.2,3.5,6.6,4.9,10L1170.2,878.5z M1159.3,859.8c-2.2-2.8-4.7-5.5-7.4-7.9
			l1.4-1.5c2.7,2.5,5.3,5.3,7.6,8.1L1159.3,859.8z M1143.4,845c-2.9-2-6-3.9-9.3-5.6l0.9-1.8c3.3,1.7,6.5,3.7,9.5,5.8L1143.4,845z"
			/>
	</g>
	<g>
		<path class="st14" d="M78.1,688.8l-1.7-1.1c0.7-1.1,1.4-2.2,2.1-3.3l1.7,1.1C79.5,686.6,78.8,687.7,78.1,688.8z M85.7,675.9
			l-1.8-0.9c1.6-3.2,3.2-6.6,4.6-9.9l1.9,0.8C88.9,669.2,87.4,672.6,85.7,675.9z M94.1,655.4l-1.9-0.6c1.1-3.4,2-7,2.9-10.5l1.9,0.4
			C96.2,648.3,95.2,651.9,94.1,655.4z M99,633.8l-2-0.3c0.5-3.6,0.9-7.2,1.2-10.9l2,0.1C100,626.5,99.6,630.2,99,633.8z M98.6,611.7
			c0-3.6-0.2-7.3-0.4-10.9l2-0.2c0.3,3.7,0.4,7.4,0.5,11.1L98.6,611.7z M96.9,590c-0.6-3.6-1.3-7.2-2.1-10.7l1.9-0.5
			c0.8,3.5,1.6,7.2,2.1,10.9L96.9,590z M60.6,569.9c-4.2-0.1-7.8-1.8-10.4-4.8l1.5-1.3c2.2,2.6,5.3,4,9,4.1L60.6,569.9z M91.8,568.8
			c-1.2-3.6-2.5-7-4-10.1l1.8-0.8c1.5,3.2,2.9,6.7,4.1,10.3L91.8,568.8z M71.7,567.3l-0.8-1.8c3-1.4,6-3.3,9-5.8l1.3,1.5
			C78,563.8,74.8,565.9,71.7,567.3z M46,554.5c0-0.5-0.1-1-0.1-1.5c0-3.3,0.8-6.6,2.4-9.7l1.8,0.9c-1.4,2.8-2.2,5.8-2.2,8.7
			c0,0.4,0,0.9,0.1,1.3L46,554.5z M89.1,553.5l-1.5-1.3c2.3-2.6,4.5-5.5,6.5-8.7l1.7,1.1C93.7,547.8,91.5,550.8,89.1,553.5z
			 M82.6,549.1c-2.2-3.3-4.4-6.1-6.8-8.3l1.4-1.4c2.4,2.3,4.8,5.3,7.1,8.7L82.6,549.1z M57.1,536.7l-1-1.7c2.4-1.4,5-2,7.6-2l0.1,0
			c1.2,0,2.4,0.2,3.6,0.5l-0.5,1.9c-1-0.3-2.1-0.4-3.1-0.4l-0.1,0C61.4,534.9,59.2,535.5,57.1,536.7z M101.4,535l-1.8-0.9
			c1.6-3.2,3.1-6.5,4.5-9.9l1.9,0.7C104.6,528.4,103.1,531.8,101.4,535z M109.5,514.4l-1.9-0.6c1-3.4,1.9-7,2.6-10.6l2,0.4
			C111.5,507.3,110.6,510.9,109.5,514.4z M114.1,492.7l-2-0.3c0.5-3.5,0.8-7.2,1.1-10.9l2,0.1C114.9,485.4,114.6,489.1,114.1,492.7z
			 M115.5,470.7l-2,0l0-0.5c0-3.4-0.1-6.9-0.3-10.4l2-0.1c0.2,3.5,0.3,7.1,0.3,10.5L115.5,470.7z"/>
	</g>
	<g>
		<path class="st21" d="M883.6,371c-0.7,0-1.4-0.3-2.2-0.8c-1.8-1.3-3-3.5-3.1-5.7c-0.1-1.6,0.4-3.6,1.4-5.2
			c-5-1.4-9.1-5.9-9.7-11.1l0-0.2c-0.1-1-0.3-2.2-0.1-3.3c-3.1,0.3-5.6,0-7.9-0.9c-2.3-0.9-5.1-3-6.1-6c-3.2,1.4-7.3,1.1-11.4-1
			c-1.8-0.9-4.2-2.3-5.2-4.2c-1.1,0.3-2.2,0.7-3.3,1.1c-2.9,1-5.8,2-8.9,2.3c-4.6,0.4-9.7-1-13.8-4l1.2-1.6c3.7,2.7,8.3,4,12.4,3.6
			c2.9-0.3,5.6-1.2,8.4-2.2c1.4-0.5,2.8-1,4.3-1.4l1-0.3l0.3,1c0.5,1.9,3.6,3.4,4.6,3.9c3.9,2,7.9,2.1,10.6,0.4l1.3-0.8l0.2,1.5
			c0.4,2.7,2.9,4.8,5.2,5.7c2.2,0.9,4.9,1.1,8.4,0.6l1.9-0.3l-0.9,1.7c-0.5,0.9-0.3,2.6-0.1,3.8l0,0.2c0.6,4.8,4.8,9.1,9.7,9.7
			l2.3,0.3l-1.7,1.5c-1.3,1.1-2,3.4-1.9,5c0.1,1.6,0.9,3.2,2.2,4.2c0.5,0.3,0.9,0.5,1.2,0.4l0.9,1.8
			C884.3,370.9,883.9,371,883.6,371z"/>
	</g>
	<g>
		<path class="st21" d="M775,353.1c-4.6,0-9.7-2.2-13.5-8.6l1.7-1c3.6,6.2,9.3,8.8,15.1,7.1c5.3-1.6,8.9-6.4,8.7-11.8l-0.1-1.9
			l1.6,1c3.8,2.3,8.7,2.3,12.7,0.1c4.2-2.4,6.6-6.9,6.6-12.5l2,0c0,6.3-2.8,11.5-7.7,14.2c-4.1,2.3-9.1,2.5-13.2,0.6
			c-0.5,5.6-4.4,10.4-10.1,12.1C777.7,352.9,776.3,353.1,775,353.1z"/>
	</g>
	<g>
		<path class="st21" d="M746.8,371.1c-7.8,0-11.2-3.5-12.6-5.7c-2-3.3-1.9-6.9-0.7-9.5c-3.4-1.5-5.6-4.8-5.7-8.7
			c-0.1-3.1,1.2-5.9,3.4-7.2c-1-3-0.2-6.5,2.2-8.5l1.3,1.5c-1.9,1.6-2.5,4.7-1.3,6.9l0.5,1l-1,0.4c-1.9,0.8-3.1,3.1-3,5.8
			c0.1,2.7,1.6,6.1,5.4,7.3l1.2,0.4l-0.7,1.1c-1.2,2-1.6,5.4,0.2,8.4c2.2,3.5,6.8,5.2,13,4.7l0.2,2
			C748.2,371,747.5,371.1,746.8,371.1z"/>
	</g>
	<g>
		<path class="st21" d="M746.7,277.4l-2-0.4c1.2-5.2,4.9-9.7,9.8-11.8c4.3-1.8,8.8-1.7,12.8,0.3c1.1-2.4,2.8-4.1,4.9-5
			c4.7-2,10.1,0.4,10.4,0.5l-0.8,1.8c0,0-4.9-2.2-8.8-0.5c-1.9,0.8-3.4,2.5-4.3,4.9l-0.4,1.1l-1-0.6c-3.8-2.2-8-2.5-12-0.8
			C751.1,268.9,747.8,272.9,746.7,277.4z"/>
	</g>
	<g>
		<path class="st21" d="M825.9,259.7l-1.6-1.2c2.3-3.1,6-5,9.8-5.1l0.1,2C830.9,255.5,827.8,257.1,825.9,259.7z"/>
	</g>
	<g>
		<path class="st21" d="M871.5,260.8l-1.4-1.5c2.7-2.5,6.4-3.9,10.2-3.7l-0.1,2C877,257.5,873.9,258.7,871.5,260.8z"/>
	</g>
	<g>
		<path class="st36" d="M431.2,808.6l5.9-34.5c2.8-16.3-3.5-32.8-16.5-43l-28.9-22.8l0,0c-5.7-4.5-12.7-6.9-20-6.9h-28.4
			c-7.3,0-14.3,2.4-20,6.9l-28.9,22.8c-13,10.2-19.3,26.7-16.5,43l6.1,35.3"/>
	</g>
	<g>
		<path class="st33" d="M313.5,871l2.4,2.7c4.3,4.8,6.7,11.1,6.7,17.6v28c0,3.1,1.7,5.9,4.4,7.4l0,0c19.1,10.3,42.2,10.3,61.3,0l0,0
			c2.7-1.5,4.4-4.3,4.4-7.4v-28c0-6.5,2.4-12.8,6.8-17.6l0,0"/>
	</g>
	<g>
		<path class="st33" d="M367.6,751.5l-42.2,15.4c-5.6,2.1-10.6,5.7-14.2,10.5l-21,32.3l2,21.6c1,11.4,5.7,22.2,13.4,30.8l27.4,30.8
			c14.8,10.1,34.3,10.1,49.2,0l27.9-31c7.6-8.4,12.3-19.1,13.5-30.3l3.1-22.9l-18.3-30.2c-2.2-2.7-4.8-5-7.7-6.9L367.6,751.5z"/>
	</g>
	<g>
		<path class="st22" d="M417.9,805c0,15.3-11.7,27.7-26.1,27.7c-14.4,0-26.1-12.4-26.1-27.7C365.6,780,417.9,780,417.9,805z"/>
	</g>
	<g>
		<path class="st22" d="M350.5,805c0,15.3-11.7,27.7-26.1,27.7s-26.1-12.4-26.1-27.7C298.3,780,350.5,780,350.5,805z"/>
	</g>
	<g>
		<path class="st67" d="M423.4,831.9c-7.9,7.8-16.4,14.8-25.5,21.1c-11.9,8.2-6.6-14-24.9-10.7c-0.8,0.7-14.8,8.6-31,0.2
			c-18.1-2.9-13.3,18.7-25.3,10.5c-8.7-6-17-12.7-24.5-20.1c1.3,10.9,5.9,21.1,13.2,29.3l27.4,30.8c14.8,10.1,34.3,10.1,49.2,0
			l27.9-31C417.5,853.5,422.2,843,423.4,831.9z"/>
	</g>
	<g>
		<path class="st21" d="M397.3,812.5h-2c0-4.6-2.9-6.8-5.6-6.8c-2.7,0-5.6,2.1-5.6,6.8h-2c0-5.8,3.8-8.8,7.6-8.8
			C393.5,803.7,397.3,806.7,397.3,812.5z"/>
	</g>
	<g>
		<path class="st21" d="M332.9,812.5h-2c0-4.6-2.9-6.8-5.6-6.8s-5.6,2.1-5.6,6.8h-2c0-5.8,3.8-8.8,7.6-8.8S332.9,806.7,332.9,812.5z
			"/>
	</g>
	<g>
		<path class="st21" d="M291,810.2l-1.7-1.1l21-32.6c3.8-5,8.9-8.7,14.7-10.9l82.3-30.1l0.7,1.9l-82.3,30.1
			c-5.5,2-10.2,5.5-13.8,10.1L291,810.2z"/>
	</g>
	<g>
		<path class="st21" d="M356.5,839.3c-2.6-16-2.2-21.5-1.7-27.9c0.2-2.7,0.4-5.5,0.4-9.4c0-8.2-5.1-15.7-12.8-18.6l-0.6-0.2l0.7-1.9
			l0.6,0.2c8.5,3.2,14.1,11.4,14.1,20.5c0,3.9-0.2,6.8-0.4,9.5c-0.5,6.5-0.9,11.7,1.7,27.4L356.5,839.3z"/>
	</g>
	<g>
		<rect x="285" y="748.8" transform="matrix(0.899 -0.438 0.438 0.899 -295.6094 217.964)" class="st21" width="79.4" height="2"/>
	</g>
	<g>
		<rect x="312.3" y="721.6" transform="matrix(0.957 -0.29 0.29 0.957 -195.4496 126.3842)" class="st21" width="32.7" height="2"/>
	</g>
	<g>
		
			<rect x="415.9" y="750.1" transform="matrix(0.6961 -0.7179 0.7179 0.6961 -420.1489 530.7392)" class="st21" width="2" height="23.1"/>
	</g>
	<g>
		<path class="st21" d="M357.5,839.4c-1.6,0-2.5-0.4-7.3-2.5l-3.1-1.3c-0.6-0.3-1-0.3-1.3-0.3l-0.9,1.6c-1.4-0.8-1.6-1.9-1.2-2.5
			c0.6-1.1,2.3-1.4,4.2-0.5l3.1,1.3c4.8,2,5.4,2.3,6.6,2.3c1.1,0,1.8-0.3,6.5-2.3l3.1-1.3c1.9-0.8,3.7-0.6,4.2,0.5
			c0.3,0.7,0.2,1.7-1.2,2.5l-0.9-1.6c-0.3,0-0.7,0.1-1.3,0.3l-3.1,1.3C360,839,359.1,839.4,357.5,839.4z"/>
	</g>
	<g>
		<path class="st21" d="M350.9,805.9l-0.8-1.8c0.3-0.1,8.3-3.5,15.9,0l-0.8,1.8C358.4,802.7,351,805.8,350.9,805.9z"/>
	</g>
	<g>
		
			<rect x="424.3" y="800.9" transform="matrix(0.5369 -0.8436 0.8436 0.5369 -486.1404 733.7228)" class="st21" width="2" height="17.5"/>
	</g>
	<g>
		<path class="st21" d="M358.5,866.5c-0.6,0-1.2,0-1.8-0.1l0.2-2c5.6,0.6,11.1-1.9,15.3-4.1c2-1.1,4.2-2.4,5.2-4.5l1.8,0.8
			c-1.2,2.5-3.6,4.1-6.1,5.4C369.1,864.2,363.9,866.5,358.5,866.5z"/>
	</g>
</g>
</svg>
