<?xml version="1.0" encoding="utf-8"?>
<!-- Generator: Adobe Illustrator 26.1.0, SVG Export Plug-In . SVG Version: 6.00 Build 0)  -->
<svg version="1.1" id="Layer_1" xmlns="http://www.w3.org/2000/svg" xmlns:xlink="http://www.w3.org/1999/xlink" x="0px" y="0px"
	 viewBox="0 0 1600.7 1134.1" style="enable-background:new 0 0 1600.7 1134.1;" xml:space="preserve">
<style type="text/css">
	.st0{fill:#7759C0;}
	.st1{fill:#5829C9;}
	.st2{fill:#A787F3;}
	.st3{fill:#E04329;}
	.st4{fill:#FA6D26;}
	.st5{fill:#FF9B73;}
	.st6{fill:#FAA126;}
	.st7{fill:#10AFAF;}
	.st8{fill:#0C8C89;}
	.st9{fill:#6FD8C7;}
	.st10{fill:#2B2838;}
	.st11{fill:#45424D;}
	.st12{fill:#74717A;}
	.st13{fill:#A09FA4;}
	.st14{fill:#D1D0D3;}
	.st15{fill:#EAEAEA;}
	.st16{fill:#F7F7F7;}
	.st17{fill:#ACA3D4;}
	.st18{fill:#CEC3E0;}
	.st19{fill:#E5E2F0;}
	.st20{fill:#F4F1FC;}
	.st21{fill:#171321;}
	.st22{fill:#FFFFFF;}
	.st23{fill:none;stroke:#171321;stroke-width:2;stroke-miterlimit:10;}
	.st24{clip-path:url(#SVGID_00000067948804025067305850000013970342798680474016_);}
	.st25{opacity:0.3;}
	.st26{clip-path:url(#SVGID_00000120523642249910174310000008540190279140798621_);}
	.st27{clip-path:url(#SVGID_00000062885337111808180440000003842140458882565548_);}
	.st28{clip-path:url(#SVGID_00000114057860311074772050000006695750627297045165_);}
	.st29{clip-path:url(#SVGID_00000173880560945888615770000008636698980126842757_);}
	.st30{fill:#CFCED1;}
	.st31{fill:#CDDFFB;}
	.st32{fill:#6D9ADD;}
	.st33{fill:#B7714E;}
	.st34{fill:#EAB0A4;}
	.st35{fill:#AA5F44;}
	.st36{fill:#51352B;}
	.st37{fill:#E8BD9A;}
	.st38{fill:none;stroke:#D1D0D3;stroke-width:2;stroke-miterlimit:10;}
	.st39{fill:#EFE8FF;}
	.st40{fill:#A98FD2;}
	.st41{fill:none;stroke:#CFCED1;stroke-width:2;stroke-miterlimit:10;}
	.st42{fill:none;stroke:#CFCED1;stroke-width:2;stroke-miterlimit:10;stroke-dasharray:11;}
	.st43{fill:none;stroke:#D1D0D3;stroke-width:2;stroke-miterlimit:10;stroke-dasharray:11;}
	.st44{fill:none;stroke:#FA6D26;stroke-width:2;stroke-miterlimit:10;}
	.st45{fill:none;stroke:#CFCED1;stroke-width:2;stroke-miterlimit:10;stroke-dasharray:16.2924,16.2924;}
	.st46{fill:#EDEDEF;}
	.st47{fill:none;stroke:#180633;stroke-width:2.4007;stroke-linecap:round;stroke-linejoin:round;stroke-miterlimit:10;}
	.st48{fill:none;stroke:#CFCED1;stroke-width:2;stroke-miterlimit:10;stroke-dasharray:8,17;}
	.st49{fill:#FFE0D9;}
	.st50{fill:#FF9669;}
	.st51{fill:#9A8AF9;}
	.st52{fill:#CFCFE2;}
	.st53{fill:#6C6C82;}
	.st54{fill:#FFCFE3;}
	.st55{fill:#DAD4FF;}
	.st56{fill:#4429B7;}
	.st57{fill:#EA3285;}
	.st58{fill:#FF9ABF;}
	.st59{fill:#6D4ADD;}
	.st60{fill:#A2A2BA;}
	.st61{fill:#DD6B43;}
	.st62{fill:none;stroke:#180633;stroke-width:1.2041;stroke-linecap:round;stroke-linejoin:round;stroke-miterlimit:10;}
	.st63{fill:#180633;stroke:#180633;stroke-width:1.2041;stroke-linecap:round;stroke-linejoin:round;stroke-miterlimit:10;}
	.st64{fill:none;stroke:#32195B;stroke-width:3.2977;stroke-linecap:round;stroke-linejoin:round;stroke-miterlimit:10;}
	.st65{fill:#256AD1;}
	.st66{fill:#6D33CC;}
	.st67{fill:#844A40;}
	.st68{fill:#E0AD99;}
	.st69{fill:#915236;}
	.st70{opacity:0.2;}
</style>
<g>
	<g>
		<polyline class="st39" points="412.8,850.5 412.8,774.2 530.8,774.2 530.8,849.4 500.2,849.4 		"/>
	</g>
	<g>
		<rect x="412.8" y="664.1" class="st39" width="44.3" height="99.5"/>
	</g>
	<g>
		<rect x="469.7" y="699.6" class="st39" width="61.1" height="64"/>
	</g>
	<g>
		<rect x="469.7" y="664.1" class="st39" width="61.1" height="25.7"/>
	</g>
	<g>
		<g>
			<path class="st40" d="M69.4,470H24.1c-6.1,0-11.1,5-11.1,11.1v52.7h63.8v-21.3l21.3,17.6v-56.4l-21.3,17.6V469"/>
		</g>
		<g>
			<path class="st22" d="M24.6,501.9c0-11.2,9.1-20.3,20.3-20.3s20.3,9.1,20.3,20.3c0,11.2-9.1,20.3-20.3,20.3
				c-7.9,0-14.8-4.5-18.1-11.1"/>
		</g>
	</g>
	<g>
		<circle class="st39" cx="1293.7" cy="455.7" r="23.1"/>
	</g>
	<g>
		<circle class="st39" cx="1293.7" cy="589.4" r="23.1"/>
	</g>
	<g>
		<path class="st40" d="M569,236.1h-16.6v-12.9h25v4.5C577.4,232.4,573.6,236.1,569,236.1z"/>
	</g>
	<g>
		<path class="st39" d="M591.7,193.7c0-15.7-13.6-28.3-29.7-26.5c-12.4,1.4-22.4,11.5-23.5,24c-0.9,9.7,3.4,18.5,10.5,23.8
			c2.5,1.9,4,4.8,4,7.9v0.7h23.7v-0.3c0-3.2,1.6-6.2,4.2-8.1C587.5,210.3,591.7,202.5,591.7,193.7z"/>
	</g>
	<g>
		<path class="st40" d="M959.7,449.6c-14.1,0-25.5,11.4-25.5,25.5c0,14.1,11.4,25.5,25.5,25.5s25.5-11.4,25.5-25.5
			C985.2,461.1,973.7,449.6,959.7,449.6z M959.7,485.6c-5.8,0-10.4-4.7-10.4-10.4c0-5.8,4.7-10.4,10.4-10.4
			c5.8,0,10.4,4.7,10.4,10.4C970.1,480.9,965.4,485.6,959.7,485.6z"/>
	</g>
	<g>
		<path class="st39" d="M969,451.4l-6.3,13.8c4.3,1.3,7.3,5.3,7.3,10c0,3.5-1.7,6.6-4.4,8.5l9,12.1c6.3-4.6,10.4-12.1,10.4-20.6
			C985.2,464.4,978.5,455.2,969,451.4z"/>
	</g>
	<g>
		
			<rect x="982.8" y="509.5" transform="matrix(0.5592 -0.829 0.829 0.5592 6.4429 1045.9655)" class="st40" width="8" height="14.8"/>
	</g>
	<g>
		<polygon class="st40" points="996.8,499.3 992.3,506 999.8,511 1004.2,504.4 		"/>
	</g>
	<g>
		
			<rect x="999.4" y="480.8" transform="matrix(0.5592 -0.829 0.829 0.5592 36.3781 1047.7097)" class="st40" width="8" height="17.6"/>
	</g>
	<g>
		<rect x="1067.9" y="211.3" class="st40" width="23.9" height="23.9"/>
	</g>
	<g>
		<rect x="1067.2" y="135.8" class="st39" width="25.4" height="25.4"/>
	</g>
	<g>
		<rect x="1067.2" y="173.5" class="st39" width="25.4" height="25.4"/>
	</g>
	<g>
		<path class="st33" d="M459.4,849.3l0.1-3.2l-2.8-3.2c-1-1.1-2.2-2-3.6-2.4l-7.4-2.5c-1.6-0.5-3.3-0.6-4.9-0.2l-3.3,0.9
			c-1.5,0.4-2.9,1.3-4,2.4l-16.6,18.1c-0.6,0.7-1.1,1.5-1.5,2.3l-3.6,8.7l-2.1,14.2l27.5-12.8l0.6-2.4l0.6,0.5
			c0.6-2.9,0.6-5.5,2.1-8.2l5.7-8.5l10.2,4.2c3.5,1.5,7.6,0.3,9.9-2.8l0.7-1L459.4,849.3z"/>
	</g>
	<g>
		<path class="st33" d="M471.7,870.8l-0.1-0.1c-4.1-3.3-10.1-2.6-13.3,1.6l-5.8,7.6c-2,2.6-5.4,3.9-8.7,3.4
			c-0.4-0.1-0.8-0.2-1.2-0.3c-2.7-1.3-4.5-3.3-4.5-3.3l-28.6,16l-0.8,10.2l-14,20l32.6,23.1l4-19.1l4.9-19.2l1.5-0.4
			c6.8-2,12.7-6.3,16.7-12.1c0.2-0.4,0.5-0.7,0.7-1.1L471.7,870.8z"/>
	</g>
	<g>
		<path class="st16" d="M1520.4,152.3H1422c-6.3,0-11.3-5.1-11.3-11.3v0c0-6.3,5.1-11.3,11.3-11.3h98.3c6.3,0,11.3,5.1,11.3,11.3v0
			C1531.7,147.2,1526.6,152.3,1520.4,152.3z"/>
	</g>
	<g>
		<path class="st16" d="M1553.8,194.9h-70.5c-6.3,0-11.3-5.1-11.3-11.3v0c0-6.3,5.1-11.3,11.3-11.3h70.5c6.3,0,11.3,5.1,11.3,11.3v0
			C1565.1,189.8,1560,194.9,1553.8,194.9z"/>
	</g>
	<g>
		<rect x="571.2" y="897.3" class="st16" width="80.1" height="221.5"/>
	</g>
	<g>
		<circle class="st22" cx="585.1" cy="910.4" r="3.5"/>
	</g>
	<g>
		<circle class="st22" cx="599" cy="910.4" r="3.5"/>
	</g>
	<g>
		<circle class="st22" cx="612.9" cy="910.4" r="3.5"/>
	</g>
	<g>
		<rect x="720.6" y="83.5" class="st16" width="208.2" height="15.3"/>
	</g>
	<g>
		<rect x="720.6" y="108.8" class="st16" width="208.2" height="15.3"/>
	</g>
	<g>
		<rect x="720.6" y="134.1" class="st16" width="208.2" height="15.3"/>
	</g>
	<g>
		<rect x="720.6" y="159.4" class="st16" width="208.2" height="15.3"/>
	</g>
	<g>
		<rect x="720.6" y="184.7" class="st16" width="208.2" height="15.3"/>
	</g>
	<g>
		<rect x="787.4" y="457.1" class="st16" width="26.5" height="13.2"/>
	</g>
	<g>
		<rect x="870.8" y="457.1" class="st16" width="26.5" height="13.2"/>
	</g>
	<g>
		<g>
			<rect x="787.4" y="487.8" class="st16" width="73.1" height="13.2"/>
		</g>
	</g>
	<g>
		<rect x="835.9" y="518.4" class="st16" width="60.8" height="13.2"/>
	</g>
	<g>
		<path class="st16" d="M372.8,785.2h-45.3c-3.7,0-6.6-3-6.6-6.6l0,0c0-3.7,3-6.6,6.6-6.6h45.3c3.7,0,6.6,3,6.6,6.6l0,0
			C379.5,782.2,376.5,785.2,372.8,785.2z"/>
	</g>
	<g>
		<path class="st16" d="M224.7,659.4h-46.8c-3.3,0-5.9-2.6-5.9-5.9l0,0c0-3.3,2.6-5.9,5.9-5.9h46.8c3.3,0,5.9,2.6,5.9,5.9l0,0
			C230.6,656.7,227.9,659.4,224.7,659.4z"/>
	</g>
	<g>
		<path class="st16" d="M1382.1,478.6h-35.7c-3.4,0-6.1-2.7-6.1-6.1v0c0-3.4,2.7-6.1,6.1-6.1h35.7c3.4,0,6.1,2.7,6.1,6.1v0
			C1388.2,475.9,1385.4,478.6,1382.1,478.6z"/>
	</g>
	<g>
		<path class="st16" d="M1427.6,478.6h-17.9c-3.4,0-6.1-2.7-6.1-6.1v0c0-3.4,2.7-6.1,6.1-6.1h17.9c3.4,0,6.1,2.7,6.1,6.1v0
			C1433.7,475.9,1431,478.6,1427.6,478.6z"/>
	</g>
	<g>
		<path class="st16" d="M1364.2,612.3h-17.9c-3.4,0-6.1-2.7-6.1-6.1v0c0-3.4,2.7-6.1,6.1-6.1h17.9c3.4,0,6.1,2.7,6.1,6.1v0
			C1370.3,609.6,1367.6,612.3,1364.2,612.3z"/>
	</g>
	<g>
		<path class="st16" d="M1427.6,612.3h-35.7c-3.4,0-6.1-2.7-6.1-6.1v0c0-3.4,2.7-6.1,6.1-6.1h35.7c3.4,0,6.1,2.7,6.1,6.1v0
			C1433.7,609.6,1431,612.3,1427.6,612.3z"/>
	</g>
	<g>
		<path class="st34" d="M1172.2,279.4l52.8,53.2l-26.4,21.5l-76.4,44.6l-35.2,20.7c0,0-11.1,7.6-18.1,19.5
			c-1.2,2.1-10.1,21.2-10.1,21.2l-33.5-23.2l-17.5,7l-5,10.7c0,0-5,9.2-12.2,4.7l2.6-12.9l18.2-24.9l33.6-18.5l50.3-40.5l29.7-34.6
			l30.6-23.7L1172.2,279.4z"/>
	</g>
	<g>
		<path class="st34" d="M1345.6,119.5c-0.8-2.7-0.4-5.6,1.1-8.1c1.3-2.2,3-4.2,5-5.8c2.3-2,4.1-4,4.4-7.7c0.4-5-0.2-12-2.8-16.6
			c-2.1-3.9-8.4-4.5-12.3-1.4l-2.4,1.8c-2.8,2.1-4.4,5.5-4.4,9v2.1l0.3,16.1c-4.5-3-7.1-8.1-8.3-13.3s-1.5-17.3-1.3-22.7
			c-15.7-25.6-40-11-57.3-28.4c-3.8,7.9-22.6,22.4-30.5,22.1l0.9,3.9l7,24.9c0.9,3.3,1.1,6.8,0.4,10.2l-0.1,0.5
			c-1.5,7.3,0,15,4.1,21.3l3.1,4.7c1,1.5,1.9,3,2.8,4.6l11.3,13.8c6.1,7.5,15.6,11.2,25,10.1l0.5,10.4l4.6,19l20.3,24.1l40.6-56.6
			L1345.6,119.5z"/>
	</g>
	<g>
		<path class="st22" d="M1267.9,135.2c3.5-2.6,8.1-2.9,12-4.8c2.4-1.2,4.6-2.9,7-4.1c3.7-1.8,8.1-2.2,11.2-5
			c-0.9,4-2.3,7.8-4.5,10.9c-2.8,4.1-7.1,6.7-11.7,7.2C1277.3,139.9,1271.7,138.6,1267.9,135.2z"/>
	</g>
	<g>
		<path class="st35" d="M1397.4,83.8c-3-7.8-9.5-7.1-5.5-17.9c2.1-5.7-0.4-12.5-5.2-16.2c-2.6-2-3.9-5.1-4-8.3
			c-0.2-3.8-2.4-7.7-5.7-9.7c-5.1-3.1-17.2,0.4-17.2,0.4c-3.2,0.7-5.3,1.5-5.3,1.5c-26.3-39.8-68.1-17.3-68.1-17.3
			c-34-17.7-57.8,39-57.8,39c-4.7,26.1,13.6,30,13.6,30l-4.1-14.8l-0.9-3.9c7.9,0.3,26.7-14.2,30.5-22.1
			c17.3,17.5,41.6,2.8,57.3,28.4c-0.2,5.4,0.2,17.4,1.3,22.7s3.8,10.3,8.3,13.3l-0.3-16.1v-2.1c0-3.5,1.6-6.8,4.4-9l2.4-1.8
			c3.8-3.1,10.1-2.5,12.3,1.4c2.6,4.7,3.2,11.6,2.8,16.6c-0.3,3.6-2.1,5.7-4.4,7.7c-2,1.7-3.6,3.6-5,5.8c-1.5,2.4-1.9,5.3-1.1,8.1
			l0.9,2.9c3.3,0.9,6.3,0.9,8.9,0.4c0,0,2.9-0.6,4.5-1.2c1.6-0.6,3.3-0.9,5-0.8c9.4,0.4,26.1,3.2,22.2-19c-0.2-1.1-0.4-2.2,0.2-3.1
			C1387.9,97.7,1401.6,94.8,1397.4,83.8z"/>
	</g>
	<g>
		<path class="st36" d="M337.1,232.9c2.5,19.7,2.1,40.3-5.6,58.7c-2.1,5-5,10-9.7,12.5c-5.9,3.2-15.9,2-19.8-3.4
			c-7.5,1.5-15.2,2.6-22.8,1.4s-15-5-19.1-11.4c-1.4-2.2-2.4-4.7-3.1-7.3c-0.9-3.6-1.2-7.3-0.8-11c-21.6-14.2,9.5-44.2,15.1-54.4
			c-19.6-8.7-20.7-28.6-9.5-39.2c18.4-17.4,29.7-48.3,33.4-56.6c1.2-2.9,2.5-5.8,4.6-8.1c3.5-4.1,8.8-6.2,13.9-7.7
			c11.8-3.6,26.7-6.6,36.7,0.8c0,0,39-24.4,73.7-10.6c25.1,10.1,4.3,18.9,20.5,28c18.6,10.3,39.7,8.3,41.5,31.5
			c0.6,7.5-2.5,15.3-8.2,20.4c5.5,5.2,11.3,11.8,16.9,17c2.9,2.7,5.8,5.5,7.8,8.8c3.9,6.4,4.2,14.5,2.2,21.6
			c-2,7.2-6.1,13.6-10.7,19.5c4.1,46-29.6,58-44.6,49c-10.4,16.2-32.5,20.9-41,15.8l-12.7-5.4l-8.1-32.4"/>
	</g>
	<g>
		<path class="st33" d="M440.3,170.4l5-0.2c-20.4-0.7-31-23.1-31-23.1c-25,23.4-60.3,11.3-60.4,11.3c-0.2,8.2-8,18.6-17.4,25.2
			c-3.9,2.7,18.2,2.7,3.5,42.9l-2.8,7.4c0,0,1.1,9.9,1,25.7c0,0-1.8,45.8-23.3,46.1c0,0,5.6,23.8,51.7,28.3
			c26.4,2.5,50.4-12.9,66.1-26.6c0,0-15,7.8-36.3-4.9l-6.2-32.4c10.2,1.1,17.2-8.8,18.3-10.1l11.3-13.8c0.9-1.6,1.8-3.1,2.8-4.6
			l3.1-4.7c4.1-6.3,5.6-13.9,4.1-21.3l-0.1-0.5c-0.7-3.4-0.6-6.9,0.4-10.2L440.3,170.4z"/>
	</g>
	<g>
		<path class="st22" d="M409.3,238.7c-4.2-1.4-8.6-0.2-12.9-0.8c-2.7-0.3-5.2-1.3-7.9-1.7c-4.1-0.5-8.4,0.5-12.2-1.3
			c2.1,3.5,4.6,6.6,7.7,9c3.9,3,8.8,4.1,13.3,3.2S406.7,243.1,409.3,238.7z"/>
	</g>
	<g>
		<path class="st36" d="M1330.6,772.6c-2.2-12.1-13.8-41.9-28.4-44.2c-6.7-1-4.2,1.1-13.8-3.6c-17.7-8.8-38.9-4.2-57.8,1.6
			c-8.7,2.7-18.1,6.2-22.3,14.2c-1.9,3.6-2.6,7.7-5,11c-1.2,1.6-2.7,2.9-3.7,4.6c-4.1,6.9-4.1,30.3,1.5,46.2l1.8-10.4l5.8-16.9
			l3.1-0.9c6.3-1.8,13-1.8,19.4,0l7.1,2l16.3-3.1c5.5-1,11.2-0.8,16.6,0.8l2.7,0.8c3.9,1.1,7.2,3.7,9.3,7.2l0,0
			c2.3,3.8,2.8,8.4,1.6,12.7l-1.2,3.9l5,5.8l12,10.7c0,0,7.6-11.8,17.5-8.4c0,0,12.7,3,2.1,28.9l0,0c3.7-0.6,6.5-3.6,6.7-7.3
			L1330.6,772.6z"/>
	</g>
	<g>
		<path class="st34" d="M1323.6,812c3.1,30-16.6,34.2-16.6,34.2c-6.1,3.1-4.2,6.3-4.2,6.3l10.1,45.4l-20.4,24.6
			c-25,24.5-47.9,16.7-47.9,16.7c-6.1-1.1-12.5-7.3-12.5-7.3l0.8-33.6l-10-11.3l-15.3-23.5L1203,849c-1.9-6.2-2.9-12.6-2.9-19.1
			v-22.2v-9.9l8.5-22.6c0,0,12.1-5.4,29.5,1.1c0,0,25.1-8.7,40.8,1.1c0,0,11.2,6.5,4.4,21.2l17,16.6c0,0,4.6-8.9,16.5-8.5
			C1316.8,806.6,1323,806.6,1323.6,812z"/>
	</g>
	<g>
		<path class="st22" d="M1232,817.9c0,11.1-8.5,20-18.9,20s-18.9-9-18.9-20C1194.1,799.8,1232,799.8,1232,817.9z"/>
	</g>
	<g>
		<path class="st22" d="M1281.1,817.9c0,11.1-8.5,20-18.9,20c-10.5,0-18.9-9-18.9-20C1243.3,799.8,1281.1,799.8,1281.1,817.9z"/>
	</g>
	<g>
		<path class="st11" d="M655.2,546.3c-1.2-4.7,4.1-9.7,9.6-9.7l3.3-0.1c3.9-0.1,7.6,1.6,10,4.7l1.4,1.8l3.4,2.9h1.2
			c3.2,0,5.9-2.6,5.9-5.9v-5v-17.7l-9.1-15.1c-4.5-7.6-1.6-17.4,6.3-21.3l1.7-0.8c10.4-5.1,21.9-7.7,33.5-7.5l15,0.2
			c5.9,0.1,11.1,3.6,13.4,9l2.8,6.5l3.1-9.5c6.1-13.6-2-30.2-17.6-33.1c-18.1-3.4-50.5-4.5-79,20.5c-18.2,0.6-32.2,16.5-30.4,34.7
			c2.2,22.4,8.5,49.4,25.2,59.8l6.5,1.1C659.5,558.3,656.9,553.2,655.2,546.3z"/>
	</g>
	<g>
		<path class="st37" d="M777.5,554.4c-0.3-2-0.1-16.5-0.2-18.4l-0.6-6.2c-0.8-8.3-4.8-15.9-11.2-21.2l-0.4-0.3
			c-2.9-2.4-5.3-5.5-6.7-9.1l-7.5-17.5c-2.3-5.4-7.6-8.9-13.4-9l-15-0.2c-11.6-0.1-23.1,2.5-33.5,7.5l-1.7,0.8
			c-7.9,3.9-10.9,13.7-6.3,21.3l9,15.1V535v4.6c0,3.5-2.8,6.3-6.3,6.3h-0.8l-3.4-2.9l-1.4-1.8c-2.4-3-6.1-4.8-10-4.7l-3.3,0.1
			c-5.5-0.1-10.8,4.9-9.6,9.7c3.4,13.7,10.1,20.2,10.1,20.2c3.3,3.1,7.4,5.2,11.9,5.8l6.1,0.9c4.7,0.9,5,15.8,5.1,19.3L690,624
			l13.4,13.2l49.5,14.4l12.9-26.2l-6.9-19.1l1.1-16.8c3.8-1.6,7.8-3.5,11.4-5.9C781.3,577.2,783.8,564.1,777.5,554.4z"/>
	</g>
	<g>
		<path class="st33" d="M328.2,829.8l-4.2,1.9l1.4,21.6c0.6,9.5-4.8,18.4-13.5,22.2l-9.7,4.2c-4.8,2.1-10.2,2.6-15.2,1.3l-3.1-0.7
			l-5.1,27.2c-2.2,11.8-0.6,14.5,27.9,29.7l-92-24.9l3.9-3.6c5.8-5.3,9.4-12.8,9.8-20.7l-0.2-3.5c-0.6-11.6-6.8-22.2-16.7-28.3
			c-13.7-8.3-23.8-21.9-27.6-37.9c-1.1-4.5-1.6-9.1-1.6-13.9c0-27.2,17.7-50.2,42.3-57.9c5.6-1.7,11.5-2.7,17.7-2.8
			c17.6-0.2,34.8,6.2,46,18l10.8,11.6l4.1,13.5c1.7,5.8,5.2,11,9.9,14.8l18.3,14.8c1,0.8,1.7,2,2,3.4l0,0
			C334.1,824,332,828.1,328.2,829.8z"/>
	</g>
	<g>
		<path class="st36" d="M223.5,746.2c-0.8-4.1,2.4-9.3,0.9-13.1c-1.6-3.8-7.6-5.3-9.9-8.6c-2.3-3.4-1.3-9.5-4.2-12.4
			c-2.9-2.9-9-1.9-12.4-4.2c-3.4-2.3-4.8-8.3-8.6-9.9c-3.7-1.6-9,1.7-13.1,0.9c-4-0.8-7.6-5.8-11.8-5.8c-4.2,0-7.8,5-11.8,5.8
			c-4.1,0.8-9.3-2.4-13.1-0.9c-3.8,1.6-5.3,7.6-8.6,9.9c-3.4,2.3-9.5,1.3-12.4,4.2c-2.9,2.9-1.9,9-4.2,12.4
			c-2.3,3.4-8.3,4.8-9.9,8.6c-1.6,3.7,1.7,9,0.9,13.1c-0.8,4-5.8,7.6-5.8,11.8c0,4.2,5,7.8,5.8,11.8c0.8,4.1-2.4,9.3-0.9,13.1
			c1.6,3.8,7.6,5.3,9.9,8.6c2.3,3.4,1.3,9.5,4.2,12.4c2.9,2.9,9,1.9,12.4,4.2c3.4,2.3,4.8,8.3,8.6,9.9c3.7,1.6,9-1.7,13.1-0.9
			c4,0.8,7.6,5.8,11.8,5.8c4.2,0,7.8-5,11.8-5.8c2.3-0.5,5,0.4,7.6,0.9"/>
	</g>
	<g>
		<path class="st36" d="M284.4,765.5l-14.4,4.5l-11.6,17.4l4,20.9l1.8,4.1l-11,8.4l-8.3-6.3c0,0-3.9-4.4-9.6-1.9
			c0,0-12.9,1.5-10.5,15.1c0,0,1.8,8.1,8.3,10.4l-4.4,6.9l-3,10.4c0,0-4.1,8.3-9.2,4.5l0,0c-1.5-1.4-3.2-2.6-5-3.7
			c-13.7-8.3-23.8-21.9-27.6-37.9c-1.1-4.5-1.6-9.1-1.6-13.9c0-27.2,17.7-50.2,42.3-57.9c5.6-1.7,11.5-2.7,17.7-2.8
			c17.1-0.1,33.8,5.9,45,17.1L284.4,765.5z"/>
	</g>
	<g>
		<path class="st14" d="M605.4,532.6h-14.2v-69.4h14.2V532.6z M593.2,530.6h10.2v-65.4h-10.2V530.6z"/>
	</g>
	<g>
		<polygon class="st14" points="625.2,532.6 611,532.6 611,498.3 621.7,498.3 621.7,500.3 613,500.3 613,530.6 623.2,530.6 
			623.2,515.5 625.2,515.5 		"/>
	</g>
	<g>
		<polygon class="st14" points="584.5,532.6 571.3,532.6 571.3,530.6 582.5,530.6 582.5,492.1 571.3,492.1 571.3,490.1 584.5,490.1 
					"/>
	</g>
	<g class="st25">
		<path class="st36" d="M1271.1,862l1.6,3.8l11-6.2l7.8-31.9c1-4.1,4.8-6.8,9-6.5l0,0l-2.6,32.3c-0.6,7.9-4,15.4-9.6,21.1l-11.6,12
			c0,0-18.7,21.8-45.7,10.5c0,0-13.8-13.5-24.9-37l-2.1-6.5l15.2,21l2.4-6.7c1.9-5.1,6.3-8.9,11.7-9.8l23.3-4.1
			C1262.6,852.9,1268.7,856.2,1271.1,862z"/>
	</g>
	<g>
		<path class="st22" d="M763,549.3c-6.6,0.1-18.9,3-26.7,6.2c-2.8,1.2-3.1,5.1-0.5,6.6c2,1.2,4.1,2.1,6.3,2.8
			c5.2,1.6,10.7,0.9,15-1.9c3.5-2.2,6.7-5.9,8.3-10.1C766.1,551.1,764.9,549.2,763,549.3z"/>
	</g>
	<g>
		<polygon class="st21" points="158.9,149.9 156.9,149.9 156.9,108.4 274.8,108.4 274.8,110.4 158.9,110.4 		"/>
	</g>
	<g>
		<path class="st21" d="M526.6,450.5H156.9V247.4h2v201.1h367.7c55.9,0,101.3-45.4,101.3-101.3V110.4H464v-2h165.8v238.8
			C629.9,404.2,583.6,450.5,526.6,450.5z"/>
	</g>
	<g>
		<rect x="649.1" y="333.8" class="st21" width="425.3" height="2"/>
	</g>
	<g>
		<path class="st21" d="M1079.9,815.4H570.2V458.2h2v355.2h507.7c55.9,0,101.3-45.4,101.3-101.3V383.5h2v328.7
			C1183.2,769.1,1136.9,815.4,1079.9,815.4z"/>
	</g>
	<g>
		<polygon class="st21" points="158.9,687.1 156.9,687.1 156.9,607.1 497.5,607.1 497.5,651.5 495.5,651.5 495.5,609.1 158.9,609.1 
					"/>
	</g>
	<g>
		<path class="st21" d="M394.2,1077.5H156.9V833.3h2v242.2h235.3c55.9,0,101.3-45.4,101.3-101.3v-115h2v115
			C497.5,1031.2,451.2,1077.5,394.2,1077.5z"/>
	</g>
	<g>
		<polygon class="st21" points="1165.2,280.7 1019.4,280.7 1019.4,98.3 1205,98.3 1205,100.3 1021.4,100.3 1021.4,278.7 
			1165.2,278.7 		"/>
	</g>
	<g>
		<path class="st21" d="M1339.3,342.1v-61.4h-59.6v-2h61.6v58.6l57.9-58.6h84.2c55.9,0,101.3-45.4,101.3-101.3v-77.1h-177.9v-2
			h179.9v79.1c0,57-46.3,103.3-103.3,103.3H1400L1339.3,342.1z"/>
	</g>
	<g>
		<path class="st21" d="M1385.9,1077.5h-329.7V829.7h2v245.8h327.7c55.9,0,101.3-45.4,101.3-101.3V733h-156.6v-2h158.6v243.3
			C1489.2,1031.2,1442.8,1077.5,1385.9,1077.5z"/>
	</g>
	<g>
		<path class="st14" d="M998.9,1119.9H570.2V896.3h428.7V1119.9z M572.2,1117.9h424.7V898.3H572.2V1117.9z"/>
	</g>
	<g>
		<rect x="650.3" y="897.2" class="st14" width="2" height="221.6"/>
	</g>
	<g>
		<g>
			<path class="st14" d="M61.3,567.9c-0.4-1.8-0.7-3.6-1-5.4l2-0.4c0.3,1.8,0.7,3.6,1,5.4L61.3,567.9z"/>
		</g>
		<g>
			<path class="st14" d="M105.8,682.1c-1.8-2.9-3.5-5.9-5.2-8.8l1.7-1c1.7,2.9,3.4,5.9,5.2,8.8L105.8,682.1z M95.6,664.2
				c-1.6-3-3.2-6.1-4.7-9.1l1.8-0.9c1.5,3,3.1,6.1,4.7,9.1L95.6,664.2z M86.5,645.9c-1.4-3.1-2.8-6.3-4.2-9.4l1.8-0.8
				c1.3,3.1,2.7,6.3,4.1,9.3L86.5,645.9z M78.5,627c-1.2-3.2-2.5-6.4-3.6-9.6l1.9-0.7c1.1,3.2,2.3,6.4,3.6,9.6L78.5,627z
				 M71.6,607.6c-1.1-3.2-2.1-6.5-3-9.8l1.9-0.6c0.9,3.2,2,6.5,3,9.8L71.6,607.6z M65.8,587.9c-0.9-3.3-1.7-6.7-2.4-10l1.9-0.4
				c0.8,3.3,1.6,6.6,2.4,9.9L65.8,587.9z"/>
		</g>
		<g>
			<path class="st14" d="M114.4,695.3c-1-1.5-2-3.1-3-4.6l1.7-1.1c1,1.5,2,3.1,3,4.6L114.4,695.3z"/>
		</g>
	</g>
	<g>
		<g>
			<path class="st14" d="M132.2,287.5l-1.6-1.2c1.1-1.4,2.3-2.9,3.5-4.3l1.5,1.3C134.5,284.7,133.3,286.1,132.2,287.5z"/>
		</g>
		<g>
			<path class="st14" d="M65.7,424.9l-1.9-0.5c0.8-3.6,1.7-7.2,2.7-10.7l1.9,0.5C67.4,417.7,66.5,421.3,65.7,424.9z M71.3,403.7
				l-1.9-0.6c1.1-3.5,2.2-7,3.4-10.5l1.9,0.6C73.5,396.6,72.4,400.2,71.3,403.7z M78.4,382.8l-1.9-0.7c1.3-3.4,2.6-6.9,4-10.3
				l1.9,0.8C81,376,79.6,379.4,78.4,382.8z M86.7,362.5l-1.8-0.8c1.5-3.3,3.1-6.7,4.7-10l1.8,0.9C89.7,355.8,88.2,359.1,86.7,362.5z
				 M96.3,342.7l-1.8-0.9c1.7-3.2,3.5-6.5,5.3-9.7l1.7,1C99.7,336.2,97.9,339.5,96.3,342.7z M107.1,323.6l-1.7-1
				c1.9-3.1,3.9-6.3,5.9-9.4l1.7,1.1C110.9,317.3,109,320.5,107.1,323.6z M119.1,305.1l-1.6-1.1c2.1-3,4.3-6,6.5-9l1.6,1.2
				C123.3,299.2,121.2,302.2,119.1,305.1z"/>
		</g>
		<g>
			<path class="st14" d="M62.3,441l-2-0.4c0.3-1.8,0.7-3.6,1-5.4l2,0.4C63,437.5,62.6,439.2,62.3,441z"/>
		</g>
	</g>
	<g>
		<path class="st14" d="M1542.2,502.2h-295.4v-93.1h295.4V502.2z M1248.8,500.2h291.4v-89.1h-291.4V500.2z"/>
	</g>
	<g>
		<polygon class="st21" points="1497.6,264.9 1437.7,186.8 1373.2,165.5 1373.9,163.6 1438.9,185.1 1439.1,185.4 1499.2,263.7 		"/>
	</g>
	<g>
		
			<rect x="1293.7" y="148.4" transform="matrix(0.8359 -0.5489 0.5489 0.8359 133.2867 744.5208)" class="st21" width="35.9" height="2"/>
	</g>
	<g>
		<polygon class="st21" points="1317,215.4 1295.7,190.2 1295.6,190 1290.1,167.1 1292.1,166.6 1297.5,189.3 1316.9,212.2 
			1356.7,156.6 1358.3,157.8 		"/>
	</g>
	<g>
		<polygon class="st21" points="1273.5,125.3 1263,125.3 1258.6,120.2 1266.2,96.7 1266.2,90.6 1268.2,90.6 1268.2,97.2 
			1260.8,119.7 1263.9,123.3 1273.5,123.3 		"/>
	</g>
	<g>
		
			<rect x="1289.5" y="80.7" transform="matrix(0.9325 -0.3611 0.3611 0.9325 56.3434 471.7518)" class="st21" width="2" height="8.7"/>
	</g>
	<g>
		
			<rect x="1252.4" y="91.4" transform="matrix(0.9326 -0.361 0.361 0.9326 49.9446 458.9523)" class="st21" width="2" height="8.7"/>
	</g>
	<g>
		<path class="st21" d="M1280,140.5c-4.8,0-9.5-1.7-12.8-4.6l-0.9-0.8l1-0.7c2.3-1.7,4.9-2.5,7.4-3.2c1.7-0.5,3.3-1,4.8-1.7
			c1.1-0.6,2.2-1.2,3.4-2c1.1-0.7,2.3-1.5,3.6-2.1c1.4-0.7,2.9-1.1,4.3-1.6c2.5-0.8,4.8-1.6,6.7-3.2l2.4-2.1l-0.7,3.1
			c-1,4.5-2.6,8.2-4.6,11.3c-3,4.3-7.5,7.1-12.4,7.6C1281.3,140.5,1280.7,140.5,1280,140.5z M1269.6,135.3c3.3,2.4,7.9,3.6,12.2,3.2
			c4.3-0.4,8.3-2.9,11-6.7c1.5-2.2,2.7-4.9,3.7-8c-1.6,0.9-3.4,1.5-5.1,2c-1.4,0.5-2.8,0.9-4,1.5c-1.2,0.6-2.2,1.2-3.4,2
			c-1.1,0.7-2.3,1.5-3.6,2.1c-1.6,0.8-3.4,1.3-5.1,1.8C1273.2,133.7,1271.3,134.3,1269.6,135.3z"/>
	</g>
	<g>
		<polygon class="st21" points="1272.5,132.9 1274.4,135 1274.4,138 1267.9,135.2 		"/>
	</g>
	<g>
		<polygon class="st21" points="1294,123.8 1293.7,130.4 1296.9,125.5 1297.2,122.1 		"/>
	</g>
	<g>
		<path class="st21" d="M1361.5,78.1l-2-0.4c3.3-15.6,1.6-30.2-5-42.1l1.7-1C1363.2,47,1365,62.1,1361.5,78.1z"/>
	</g>
	<g>
		<path class="st21" d="M1297.5,68.2c-5.3-1.3-10.7-1.8-16.1-1.3c-0.7,0.1-1.4,0.1-1.9,0.4l-0.9-1.8c0.8-0.4,1.7-0.5,2.6-0.6
			c5.6-0.5,11.3-0.1,16.7,1.3L1297.5,68.2z"/>
	</g>
	<g>
		<path class="st21" d="M1242.2,84.1l-1.8-0.9c2-3.7,4.8-7,8.1-9.5l1.2,1.6C1246.6,77.6,1244,80.6,1242.2,84.1z"/>
	</g>
	<g>
		<path class="st21" d="M1331.9,36.5c-6.5-6.4-15.1-10.3-24.2-11.2l0.2-2c9.5,0.9,18.5,5.1,25.4,11.8L1331.9,36.5z"/>
	</g>
	<g>
		<path class="st21" d="M1336.5,70.6c-3-9.6-10.9-16.7-19-23l1.2-1.6c8.4,6.5,16.6,13.9,19.7,24L1336.5,70.6z"/>
	</g>
	<g>
		<polygon class="st21" points="1215.7,324.6 1170.9,279.6 1171.4,278.9 1225,204 1276.6,179.9 1277.4,181.7 1226.3,205.6 
			1173.5,279.3 1217.1,323.2 		"/>
	</g>
	<g>
		<path class="st21" d="M1225.7,333.3l-1.4-1.4c4.6-4.6,9.1-9.4,13.2-14.4l34.2-37.6l1.5,1.3l-34.2,37.5
			C1234.9,323.8,1230.4,328.7,1225.7,333.3z"/>
	</g>
	<g>
		
			<rect x="1424.8" y="255" transform="matrix(0.9055 -0.4243 0.4243 0.9055 21.077 630.2984)" class="st21" width="2" height="25.7"/>
	</g>
	<g>
		<polygon class="st21" points="1340.9,240 1329.1,218.9 1321.7,227.1 1320.2,225.8 1329.5,215.5 1341.7,237.3 1348.3,233.6 
			1375.8,176.5 1369.6,153.9 1359.8,151.5 1360.3,149.5 1371.2,152.2 1377.9,176.7 1349.8,235.1 		"/>
	</g>
	<g>
		<path class="st21" d="M1343.4,99.9c-0.4-2.6,0.7-5.4,2.9-6.9c0.1-0.1,0.3-0.2,0.4-0.3c0.3-0.2,0.7-0.4,0.8-0.7
			c0.6-0.8-0.4-2.9-0.9-3.3c-0.4-0.2-2.5,0.1-3.7,1.7l-1.6-1.2c1.8-2.3,5.1-2.9,6.4-2.1c0.7,0.4,1.6,2,1.8,3.3
			c0.2,1.1,0.1,2.1-0.4,2.8c-0.4,0.5-0.9,0.9-1.4,1.2c-0.1,0.1-0.2,0.1-0.3,0.2c-1.5,1.1-2.4,3.1-2.1,5L1343.4,99.9z"/>
	</g>
	<g>
		<path class="st21" d="M1353.1,152.5l-8.5-32.8c-0.8-3-0.4-6.2,1.2-8.8c1.4-2.3,3.2-4.4,5.2-6.1c2.3-2,3.8-3.8,4.1-7
			c0.4-4.6-0.1-11.5-2.6-16.1c-0.8-1.4-2.3-2.4-4.1-2.7c-2.3-0.4-4.9,0.2-6.6,1.6l-2.4,1.8c-2.5,1.9-4,5-4,8.2v2.1h-2v-2.1
			c0-3.8,1.8-7.5,4.8-9.8l2.4-1.8c2.2-1.8,5.3-2.6,8.2-2c2.4,0.5,4.4,1.8,5.5,3.7c2.8,4.9,3.3,12.1,2.9,17.2
			c-0.3,3.8-2.1,6.1-4.8,8.4c-1.8,1.5-3.4,3.4-4.8,5.6c-1.3,2.2-1.7,4.8-1,7.3l8.5,32.8L1353.1,152.5z"/>
	</g>
	<g>
		<polygon class="st21" points="1315.4,279.8 1313.4,279.6 1318.2,243.1 1306.8,221.1 1295,233.3 1286.8,232.1 1276,192.9 
			1278.7,173.7 1280.7,173.9 1278,192.8 1288.4,230.3 1294.3,231.2 1307.3,217.7 1320.3,242.8 		"/>
	</g>
	<g>
		<polygon class="st21" points="1032.4,571.7 902.9,484.5 963.3,394.7 1001.6,420.4 1000.5,422.1 963.9,397.4 905.6,484 
			1031.9,568.9 1090.1,482.4 1027.4,440.2 1028.5,438.5 1092.9,481.8 1092.3,482.7 		"/>
	</g>
	<g>
		
			<rect x="1016.4" y="529" transform="matrix(0.5591 -0.8291 0.8291 0.5591 17.6778 1093.2325)" class="st14" width="40.7" height="2"/>
	</g>
	<g>
		
			<rect x="996.5" y="507.2" transform="matrix(0.5591 -0.8291 0.8291 0.5591 34.5292 1081.4117)" class="st14" width="75" height="2"/>
	</g>
	<g>
		<rect x="984.7" y="499" transform="matrix(0.5591 -0.8291 0.8291 0.5591 36.103 1067.9863)" class="st14" width="75" height="2"/>
	</g>
	<g>
		<path class="st21" d="M991,526l-13.9-9.4l5.6-8.3l13.9,9.4L991,526z M979.8,516l10.6,7.2l3.4-5l-10.6-7.2L979.8,516z"/>
	</g>
	<g>
		<path class="st21" d="M1000,512.6l-9.1-6.1l5.6-8.3l9.1,6.1L1000,512.6z M993.7,505.9l5.8,3.9l3.4-5l-5.8-3.9L993.7,505.9z"/>
	</g>
	<g>
		<path class="st21" d="M1008.7,499.5l-16.2-11l5.6-8.3l16.2,11L1008.7,499.5z M995.3,488l12.9,8.7l3.4-5l-12.9-8.7L995.3,488z"/>
	</g>
	<g>
		<rect x="984.7" y="499" transform="matrix(0.5591 -0.8291 0.8291 0.5591 36.103 1067.9863)" class="st14" width="75" height="2"/>
	</g>
	<g>
		
			<rect x="966.6" y="430.2" transform="matrix(0.5591 -0.8291 0.8291 0.5591 72.8475 999.2999)" class="st14" width="18.8" height="2"/>
	</g>
	<g>
		
			<rect x="981" y="431.7" transform="matrix(0.5591 -0.8291 0.8291 0.5591 75.9935 1008.3857)" class="st14" width="10.1" height="2"/>
	</g>
	<g>
		<path class="st21" d="M757.3,542.5l-1.3-1.6l5.5-4.4l0-0.4c0.1-3-1.3-5.8-3.8-7.5l-18.2-12l-3.2-9.5c-0.7-2-0.5-4.3,0.5-6.2
			l2.7-5.3l1.8,0.9l-2.7,5.3c-0.7,1.4-0.9,3.2-0.4,4.7l2.9,8.9l17.7,11.6c3.1,2,4.9,5.6,4.7,9.2l-0.1,1.4L757.3,542.5z"/>
	</g>
	<g>
		
			<rect x="711.2" y="517.1" transform="matrix(0.9534 -0.3018 0.3018 0.9534 -124.3072 239.2426)" class="st21" width="2" height="9.7"/>
	</g>
	<g>
		
			<rect x="750.6" y="500.6" transform="matrix(0.9534 -0.3018 0.3018 0.9534 -117.5024 250.37)" class="st21" width="2" height="9.7"/>
	</g>
	<g>
		<path class="st21" d="M747.6,566.7c-1.9,0-3.9-0.3-5.8-0.9c-2.1-0.6-4.3-1.6-6.5-2.9c-1.5-0.9-2.4-2.5-2.3-4.3
			c0.1-1.8,1.2-3.4,2.9-4.1c8-3.3,20.4-6.2,27.1-6.3l0,0c1.2,0,2.3,0.5,3,1.5c0.7,1,0.8,2.3,0.4,3.4c-1.6,4.2-4.8,8.1-8.7,10.6
			C754.7,565.7,751.2,566.7,747.6,566.7z M763,550.3L763,550.3c-6.5,0.1-18.5,2.9-26.3,6.2c-1,0.4-1.6,1.3-1.7,2.3
			c-0.1,1,0.4,2,1.3,2.5c2,1.2,4.1,2.1,6.1,2.7c5,1.5,10.1,0.8,14.2-1.8c3.5-2.3,6.4-5.9,7.9-9.7c0.2-0.5,0.1-1.1-0.2-1.5
			C764,550.5,763.6,550.3,763,550.3z"/>
	</g>
	<g>
		<polygon class="st21" points="761.2,549.6 760.5,553.9 762.6,556.5 764.6,553.9 765.4,550.3 		"/>
	</g>
	<g>
		<polygon class="st21" points="736,556.2 740.7,563.3 734.6,561.3 734,558.9 		"/>
	</g>
	<g>
		<path class="st21" d="M752.6,487.4c-4-1.7-7.8-2.4-12.2-2.3l-0.1-2c4.6-0.2,8.8,0.6,13,2.4L752.6,487.4z"/>
	</g>
	<g>
		<path class="st21" d="M675.3,561.5c-0.5-3.9-3.3-4.4-5.9-4.6c-0.5,0-0.9-0.1-1.3-0.2c-0.8-0.3-2-1.1-3.3-5.3
			c-0.5-1.8,0-3.8,1.3-5.1c1.3-1.3,3.1-1.8,4.9-1.3l0.1,0l-0.6,1.9l0.3-1l-0.4,0.9c-1-0.3-2.1,0-2.9,0.8c-0.8,0.8-1.1,2-0.8,3.1
			c1.1,3.7,1.9,4,2,4c0.1,0,0.5,0,0.7,0.1c2.1,0.1,7,0.5,7.8,6.3L675.3,561.5z"/>
	</g>
	<g>
		
			<rect x="757.7" y="593.9" transform="matrix(0.997 -7.776678e-02 7.776678e-02 0.997 -44.4408 60.8205)" class="st21" width="2" height="14.1"/>
	</g>
	<g>
		<path class="st21" d="M654.2,546.5c-0.5-2.2,0.1-4.5,1.7-6.6c2.1-2.7,5.5-4.3,8.8-4.3c0,0,0.1,0,0.1,0l3.3-0.1
			c4.2-0.1,8.2,1.8,10.8,5.1l1.4,1.8l-1.6,1.3l-1.4-1.8c-2.2-2.8-5.7-4.4-9.2-4.3l-3.3,0.1c-2.7,0-5.6,1.4-7.3,3.6
			c-1.2,1.6-1.7,3.3-1.3,4.9L654.2,546.5z"/>
	</g>
	<g>
		<path class="st21" d="M710.8,468.5l-1.9-0.6c1.9-6.3,1.5-13.3-1.1-19.3l1.8-0.8C712.4,454.3,712.9,461.8,710.8,468.5z"/>
	</g>
	<g>
		<path class="st21" d="M732.2,458.3l-2-0.3c0.4-2.8-0.3-5.9-2.1-8.1l1.6-1.2C731.9,451.4,732.8,454.9,732.2,458.3z"/>
	</g>
	<g>
		<path class="st21" d="M646.8,518.2c-1.3-9.6-0.2-19.6,3.3-28.6l1.9,0.7c-3.4,8.8-4.5,18.3-3.2,27.7L646.8,518.2z"/>
	</g>
	<g>
		<path class="st21" d="M661.3,519.9c-0.8-4-0.7-8.1,0.1-12.1l2,0.4c-0.8,3.7-0.8,7.6-0.1,11.3L661.3,519.9z"/>
	</g>
	<g>
		<path class="st21" d="M690.1,504.3l-1.6-1.2c4.8-6.7,12.2-11.6,20.3-13.4l0.4,1.9C701.6,493.4,694.6,498,690.1,504.3z"/>
	</g>
	<g>
		<path class="st21" d="M988.9,754.3h-93.1c-6,0-11.7-2.6-15.8-7c-4-4.5-5.9-10.5-5.3-16.4l18.4-167.2c1.2-10.7,10.2-18.8,21-18.8
			h68.1v2h-68.1c-9.8,0-18,7.3-19,17.1l-18.4,167.2c-0.6,5.4,1.1,10.8,4.8,14.9c3.6,4.1,8.8,6.4,14.3,6.4h93.1V754.3z"/>
	</g>
	<g>
		<rect x="1102" y="752.3" class="st21" width="70.2" height="2"/>
	</g>
	<g>
		<rect x="1059.3" y="544.9" class="st21" width="116.4" height="2"/>
	</g>
	<g>
		
			<rect x="803.8" y="648.6" transform="matrix(0.1096 -0.994 0.994 0.1096 162.9111 1481.051)" class="st21" width="208.7" height="2"/>
	</g>
	<g>
		<polygon class="st21" points="972.3,809.9 970.3,809.9 970.3,803.5 1005.6,795 1019.4,665.1 1021.4,665.3 1007.5,796.7 
			972.3,805.1 		"/>
	</g>
	<g>
		<polygon class="st21" points="1030.7,806.9 1028.7,806.9 1028.7,655.4 1103,655.4 1103,797.1 1101,797.1 1101,657.4 1030.7,657.4 
					"/>
	</g>
	<g>
		<polygon class="st21" points="753.6,652.7 703,638 678.2,614.4 679.5,613 704,636.3 752.5,650.3 765.2,624.6 758.3,608.5 
			760.2,607.7 767.4,624.6 		"/>
	</g>
	<g>
		<polygon class="st21" points="578.8,753.7 577,752.9 617.8,657.7 655,638.7 685.1,650.6 729.2,658.8 728.8,660.7 684.4,652.5 
			655.1,640.9 619.3,659.2 		"/>
	</g>
	<g>
		<path class="st21" d="M640.3,648.2l-1.8-0.8l8.5-18.5c4.7-10.3,13.1-18.5,23.4-23l18-7.9l0.8,1.8l-18,7.9
			c-9.9,4.3-17.9,12.1-22.4,22L640.3,648.2z"/>
	</g>
	<g>
		<polygon class="st21" points="773.1,649.9 771.2,649.3 777,629.7 774.1,608.7 762.9,601.9 763.9,600.2 776,607.5 779,629.9 		"/>
	</g>
	<g>
		
			<rect x="764.4" y="664.9" transform="matrix(0.9949 -0.1006 0.1006 0.9949 -69.7189 80.7349)" class="st21" width="2" height="133.1"/>
	</g>
	<g>
		<polygon class="st21" points="650,807 646.2,772.9 670.1,713.5 671.9,714.3 648.2,773.2 652,806.8 		"/>
	</g>
	<g>
		
			<rect x="827.2" y="684.5" transform="matrix(0.9782 -0.2075 0.2075 0.9782 -136.8646 188.1269)" class="st21" width="2" height="123.7"/>
	</g>
	<g>
		<polygon class="st21" points="872.3,792.1 865.8,706.1 827.6,635.5 785.2,625 785.7,623 828.9,633.8 867.7,705.5 874.3,792 		"/>
	</g>
	<g>
		<polygon class="st21" points="1224.9,1076.9 1181.7,947.5 1065.9,947.5 1065.9,945.5 1183.2,945.5 1183.4,946.2 1226.8,1076.2 		
			"/>
	</g>
	<g>
		<path class="st21" d="M1244.5,900.8c-3,0-6.1-0.3-9.5-0.9l-0.1,0l-2.4-0.8l0.6-1.9l2.4,0.8c25.6,4.5,39.3-10.2,50.3-22
			c0.9-1,1.8-1.9,2.7-2.9l1.4,1.4c-0.9,0.9-1.8,1.9-2.7,2.8C1277.8,887.5,1265.3,900.8,1244.5,900.8z"/>
	</g>
	<g>
		
			<rect x="1162.5" y="923.6" transform="matrix(0.8765 -0.4815 0.4815 0.8765 -298.1019 687.3004)" class="st21" width="55.7" height="2"/>
	</g>
	<g>
		<polygon class="st21" points="1411,1062.8 1409.2,1062.1 1428.3,1011.6 1402.9,949.2 1332.8,904.2 1333.9,902.5 1404.5,947.9 
			1430.4,1011.5 		"/>
	</g>
	<g>
		<path class="st21" d="M1232.9,857.4l-5.2-1.9c-1.9-0.7-3.3-2.2-4-4c-0.7-1.9-0.4-3.9,0.6-5.6l11.9-19.9l-1.1-17.3
			c-0.2-1.6-1-3.1-2.3-4.1l-4.7-3.7l1.2-1.6l4.7,3.7c1.7,1.3,2.8,3.3,3.1,5.5l1.1,18l-12.3,20.4c-0.7,1.2-0.9,2.6-0.4,3.9
			c0.5,1.3,1.5,2.3,2.8,2.8l5.2,1.9L1232.9,857.4z"/>
	</g>
	<g>
		
			<rect x="1259.2" y="818.4" transform="matrix(0.992 -0.1264 0.1264 0.992 -93.9516 165.8838)" class="st21" width="2" height="9.7"/>
	</g>
	<g>
		
			<rect x="1215.5" y="818.4" transform="matrix(0.992 -0.1264 0.1264 0.992 -94.302 160.3622)" class="st21" width="2" height="9.7"/>
	</g>
	<g>
		<path class="st21" d="M1242.9,871.7l-0.2-2c5.3-0.6,15.2-5.7,18.8-9.6l1.5,1.3C1259,865.8,1248.7,871.1,1242.9,871.7z"/>
	</g>
	<g>
		<path class="st21" d="M1242.8,818.8c-5.7-2.8-10.2-0.2-10.3,0l-1.1-1.7c0.2-0.1,5.5-3.4,12.3-0.1L1242.8,818.8z"/>
	</g>
	<g>
		<path class="st21" d="M1240.9,761.2l-1.8-0.9c2.3-4.8,4.6-9.8,8.2-14c4.1-4.8,9.1-7.6,14.2-8l0.2,2c-4.6,0.4-9.1,3-12.8,7.3
			C1245.4,751.7,1243.1,756.5,1240.9,761.2z"/>
	</g>
	<g>
		<path class="st21" d="M1266.3,764.2l-1.7-1.1c3.6-5.4,9.7-9.3,16.1-10.4l0.3,2C1275.1,755.7,1269.6,759.2,1266.3,764.2z"/>
	</g>
	<g>
		<path class="st21" d="M1311.6,832.8c-1.5-0.1-2.9-1-3.6-2.6c-0.7-1.5-0.6-3.2,0.3-4.4c0.7-0.9,1.7-1.5,2.6-1.9
			c0.9-0.5,1.7-1,2.1-1.7c0.4-0.8,0.1-1.8-0.7-2.4c-0.9-0.8-2.7-1.2-4.7,0.3l-1.2-1.6c2.9-2.1,5.7-1.4,7.2-0.2
			c1.5,1.2,2,3.1,1.2,4.8c-0.6,1.3-1.8,2-2.9,2.6c-0.8,0.4-1.5,0.8-1.9,1.4c-0.5,0.7-0.4,1.7-0.1,2.4c0.3,0.7,1,1.4,1.9,1.4
			L1311.6,832.8z"/>
	</g>
	<g>
		<polygon class="st21" points="1269,1049.1 1259.5,969.8 1273.1,956.2 1296.3,975.7 1309.6,939.8 1332.1,897.7 1317.7,884.8 
			1319,883.3 1334.6,897.2 1311.4,940.7 1297.2,979 1273.2,958.9 1261.6,970.5 1270.9,1048.8 		"/>
	</g>
	<g>
		
			<rect x="1254.9" y="938.1" transform="matrix(0.6384 -0.7697 0.7697 0.6384 -260.3432 1324.0811)" class="st21" width="48" height="2"/>
	</g>
	<g>
		<polygon class="st21" points="1226.8,1049 1224.8,1048.9 1230.9,953.1 1204.7,965.7 1209.1,928.8 1218,903 1219.9,903.6 
			1211,929.3 1207.1,962.3 1233.1,949.9 		"/>
	</g>
	<g>
		<path class="st21" d="M1320.9,836.1l-1.7-1c0-0.1,4.4-8.2,3.7-21.8c-0.1-1.6-1-3.2-2.7-4.3c-2.3-1.6-5.4-2.1-8-1.3l-3.2,0.9
			c-3.4,1-6.3,3.5-7.6,6.8l-0.2,0.6l-20.1,1.1l-0.1-2l18.8-1c1.7-3.6,4.9-6.3,8.7-7.4l3.2-0.9c3.2-1,6.9-0.4,9.7,1.6
			c2.2,1.5,3.4,3.6,3.5,5.9C1325.5,827.5,1321,835.8,1320.9,836.1z"/>
	</g>
	<g>
		<polygon class="st21" points="1265.9,1077.4 1265,1075.6 1342.3,1038.3 1358.7,992.6 1360.6,993.3 1343.9,1039.7 		"/>
	</g>
	<g>
		<polygon class="st21" points="409.2,448.2 407.3,447.5 450.9,316.8 619.9,316.8 619.9,318.8 452.3,318.8 		"/>
	</g>
	<g>
		<path class="st21" d="M324.8,190.5l-0.5-1.9c13.4-3.6,28.4-19.4,28.6-30.2l0-1.3l1.2,0.3c1.5,0.5,35.6,11.3,59.5-11l1-0.9l0.6,1.2
			c0,0.1,2.7,5.6,7.7,11.1c4.6,5,12.2,11.1,22.4,11.5l-0.1,2c-8.6-0.3-16.9-4.5-23.9-12.1c-3.9-4.2-6.3-8.4-7.4-10.4
			c-22.4,20-52.7,12.8-59.2,11C353.6,171.3,338.7,186.7,324.8,190.5z"/>
	</g>
	<g>
		<path class="st21" d="M231,450l-5.9-6.6c-9.5-10.5-13.5-25.1-10.7-39l19.4-95.2c2.3-11.5,8.8-21.7,18.1-28.9l1.2,1.6
			c-8.9,6.8-15.1,16.6-17.3,27.7l-19.4,95.2c-2.7,13.3,1.1,27.2,10.2,37.3l5.9,6.6L231,450z"/>
	</g>
	<g>
		<rect x="375" y="196.6" transform="matrix(0.1264 -0.992 0.992 0.1264 135.8708 549.4005)" class="st21" width="9.7" height="2"/>
	</g>
	<g>
		
			<rect x="414.7" y="196.6" transform="matrix(0.1264 -0.992 0.992 0.1264 170.5378 588.7665)" class="st21" width="9.7" height="2"/>
	</g>
	<g>
		<path class="st21" d="M370.6,335.1c-4.4,0-8.8-0.3-13.3-1c-17.7-2.7-32.5-10.6-39.7-21.2l1.7-1.1c6.8,10.1,21.2,17.7,38.3,20.3
			c22.3,3.4,44.5-2.1,61-15.1l1.2,1.6C406.2,329.4,388.8,335.1,370.6,335.1z"/>
	</g>
	<g>
		<polygon class="st21" points="368.2,448.8 286.7,415.4 294,339.6 296,339.8 288.8,414.1 369,446.9 		"/>
	</g>
	<g>
		<path class="st21" d="M320.2,848.5c-5.7,0-11.3-0.8-16.7-2.4l0.6-1.9c6.9,2,14,2.7,21.2,2.1l0.2,2
			C323.7,848.5,321.9,848.5,320.2,848.5z"/>
	</g>
	<g>
		
			<rect x="274.4" y="795" transform="matrix(0.8454 -0.5341 0.5341 0.8454 -381.2013 275.0014)" class="st21" width="20.2" height="2"/>
	</g>
	<g>
		<path class="st21" d="M183.1,818.7c-1.1-4.6-1.6-9.4-1.6-14.2c0-3.6,0.3-7.1,0.9-10.6l2,0.3c-0.6,3.4-0.9,6.8-0.9,10.2
			c0,4.6,0.5,9.2,1.6,13.7L183.1,818.7z"/>
	</g>
	<g>
		<path class="st21" d="M189,779.3l-1.8-0.8c7.3-15.7,20.9-27.6,37.3-32.7l0.6,1.9C209.2,752.6,196,764.1,189,779.3z"/>
	</g>
	<g>
		<path class="st21" d="M335,1076.8l-10.7-50.5l0.2-0.3c6.6-12.5,7.4-27.2,2.1-40.3l-3.2-7.9c-1.9-4.8-4.6-9.2-7.9-13.1l-9.5-11.2
			l1.5-1.3l9.5,11.2c3.5,4.1,6.2,8.7,8.3,13.6l3.2,7.9c5.5,13.6,4.7,28.7-2,41.7l10.6,49.7L335,1076.8z"/>
	</g>
	<g>
		<path class="st21" d="M250.3,844.3h-3.7c-3.2,0-6.3-0.8-9.1-2.4c-7.4-4.1-13.7-7.6-13.7-16.1v-0.2c0-3.9,1.6-7.6,4.5-10.3
			c4.3-4,10.7-4.8,15.9-2.1l4,2.1l-0.9,1.8l-4-2.1c-4.5-2.3-9.9-1.6-13.6,1.8c-2.5,2.3-3.9,5.5-3.9,8.8v0.2
			c0,7.4,5.3,10.3,12.6,14.3c2.6,1.4,5.4,2.2,8.2,2.2h3.7V844.3z"/>
	</g>
	<g>
		<path class="st21" d="M164.5,1014.9l-1.9-0.5l8.7-34.8c2-10.5,5.7-20.7,11-30c6.8-11.9,15.3-22.7,25.4-31.9l6.7-6.4l62.9,17
			l-0.5,1.9l-61.8-16.7l-5.9,5.7c-10,9.1-18.4,19.7-25,31.4c-5.2,9.2-8.8,19.1-10.8,29.5L164.5,1014.9z"/>
	</g>
	<g>
		
			<rect x="294" y="804.4" transform="matrix(0.8651 -0.5016 0.5016 0.8651 -365.705 257.0193)" class="st21" width="2" height="8.1"/>
	</g>
	<g>
		<path class="st21" d="M212.6,760.5l-0.6-1.9c31.7-10.6,50.3-0.4,51,0.1l-1,1.7C261.8,760.3,243.3,750.2,212.6,760.5z"/>
	</g>
	<g>
		
			<rect x="223.9" y="761.7" transform="matrix(0.4661 -0.8847 0.8847 0.4661 -574.6299 618.2175)" class="st21" width="2" height="47.1"/>
	</g>
	<g>
		
			<rect x="207" y="782.4" transform="matrix(0.7447 -0.6674 0.6674 0.7447 -476.3677 341.3438)" class="st21" width="2" height="21.7"/>
	</g>
	<g>
		<path class="st21" d="M246.2,835.5l-1.5-1.3c0.3-0.7-0.3-4.5-0.9-5.1c-1.2-0.8-3.7-0.5-6-0.2c-3,0.4-6.2,0.7-7.2-1.5
			c-0.6-1.2-0.2-3,1-4.8c1.6-2.4,5-5.2,9.5-5l-0.1,2c-3.6-0.1-6.4,2.1-7.7,4.1c-0.9,1.3-1,2.4-0.8,2.8c0.5,1,3,0.7,5.2,0.4
			c2.7-0.3,5.5-0.7,7.4,0.6c1.1,0.8,1.6,3.5,1.7,4.3C246.9,833.6,246.8,834.8,246.2,835.5z"/>
	</g>
	<g>
		<path class="st21" d="M182.1,1076.6l-2-0.1l2-59.3c0.6-19,4.7-37.5,11.9-55l0.7-1.6l1.8,0.8l-0.7,1.6
			c-7.2,17.3-11.2,35.6-11.8,54.3L182.1,1076.6z"/>
	</g>
	<g>
		<path class="st21" d="M257.8,1076.6l-6.2-75.2c-0.9-11-2.9-21.9-5.9-32.5l-1.7-6.2l1.9-0.5l1.7,6.2c3,10.7,5,21.8,6,32.9l6.2,75.2
			L257.8,1076.6z"/>
	</g>
	<g>
		<path class="st21" d="M401,900.4l-4.8-10.4l85.6-42.7l12.5,1.5l-7.7,8.9l-0.2,0.1L401,900.4z M398.8,890.9l3.1,6.7l83.4-41.6
			l5-5.8l-8.2-1L398.8,890.9z"/>
	</g>
	<g>
		<path class="st21" d="M361.2,1037.6c-11.7,0-22.9-4.3-32.6-12.6l-2.1-1.8l1.3-1.5l2.1,1.8c12.2,10.5,27,14.3,41.9,10.9
			c17.7-4.1,33.1-18,41.2-37l17.5-44.2l-35.6-26l-31.2,44.5l-71.3-41l1-1.7l69.7,40.1l31.3-44.7l38.5,28.1l-18.1,45.7
			c-8.4,19.7-24.3,34-42.6,38.2C368.6,1037.2,364.9,1037.6,361.2,1037.6z"/>
	</g>
	<g>
		<polygon class="st21" points="413.8,850.5 411.8,850.5 411.8,773.2 531.8,773.2 531.8,850.4 500.2,850.4 500.2,848.4 529.8,848.4 
			529.8,775.2 413.8,775.2 		"/>
	</g>
	<g>
		<path class="st21" d="M458.1,764.6h-46.3V663.1h46.3V764.6z M413.8,762.6h42.3v-97.5h-42.3V762.6z"/>
	</g>
	<g>
		<path class="st21" d="M531.8,764.6h-63.1v-66h63.1V764.6z M470.7,762.6h59.1v-62h-59.1V762.6z"/>
	</g>
	<g>
		<path class="st21" d="M531.8,690.8h-63.1v-27.7h63.1V690.8z M470.7,688.8h59.1v-23.7h-59.1V688.8z"/>
	</g>
	<g>
		<path class="st21" d="M394,248.4c-3.8,0-7.5-1.3-10.7-3.7c-2.9-2.2-5.5-5.3-7.9-9.3l-1.6-2.7l2.9,1.3c2.3,1,4.7,1,7.4,1
			c1.5,0,3,0,4.6,0.2c1.4,0.2,2.8,0.5,4.1,0.9c1.3,0.3,2.6,0.7,3.8,0.8c1.7,0.2,3.3,0.2,5.1,0.1c2.6-0.1,5.4-0.2,8,0.7l1.2,0.4
			l-0.6,1.1c-2.5,4.3-7.4,7.7-12.7,8.9C396.3,248.3,395.2,248.4,394,248.4z M378.6,236.7c1.8,2.7,3.8,4.8,6,6.4
			c3.7,2.8,8.3,3.9,12.5,3c4.2-0.9,8.3-3.5,10.6-6.8c-1.9-0.4-4-0.4-6.1-0.3c-1.8,0.1-3.6,0.1-5.4-0.1c-1.4-0.2-2.7-0.5-4.1-0.9
			c-1.3-0.3-2.6-0.7-3.8-0.8c-1.4-0.2-2.8-0.2-4.3-0.2C382.2,237,380.4,237,378.6,236.7z"/>
	</g>
	<g>
		<polygon class="st21" points="404.2,238 403,240.5 403.9,243.4 409.3,238.7 		"/>
	</g>
	<g>
		<polygon class="st21" points="380.9,236 383.3,242.2 378.7,238.5 377.4,235.4 		"/>
	</g>
	<g>
		<path class="st21" d="M399.6,226.2l-0.3-2l7.2-0.9c1.2-0.2,2.5-1.3,3.1-2.8c0.3-0.7,0.8-2.4-0.2-3.8c-6.6-8.7-6.1-19.7-2.2-26.1
			l1.7,1c-3.5,5.8-4,15.9,2.1,23.9c1.2,1.5,1.3,3.7,0.5,5.8c-0.9,2.2-2.8,3.8-4.7,4L399.6,226.2z"/>
	</g>
	<g>
		<path class="st21" d="M435.7,184.5c-7.5-2.5-18.7-2.2-18.8-2.2l0-2c0.5,0,11.6-0.3,19.4,2.3L435.7,184.5z"/>
	</g>
	<g>
		<path class="st21" d="M354.5,183l-0.7-1.9l4.4-1.7c5.7-2.2,11.8-2.9,17.8-2.2l13.5,1.6l-0.2,2l-13.5-1.6
			c-5.7-0.7-11.5,0.1-16.9,2.1L354.5,183z"/>
	</g>
	<g>
		<path class="st21" d="M387,271.4c-2.9,0-5.9-0.4-8.8-1.4l-0.2-0.1l-30-19.7l1.1-1.7l29.9,19.7c10.6,3.3,21.9-0.1,28.9-8.7
			l11.2-13.8c0.9-1.5,1.8-3.1,2.8-4.6l3.1-4.7c4-6,5.4-13.5,3.9-20.5l-0.1-0.5c-0.7-3.5-0.6-7.2,0.4-10.7l10.2-34.6l1.9,0.6
			l-10.2,34.6c-0.9,3.1-1,6.5-0.3,9.7l0.1,0.5c1.6,7.6,0,15.6-4.2,22l-3.1,4.7c-1,1.5-1.9,3-2.8,4.5l-0.1,0.1l-11.3,13.8
			C403.7,267.6,395.5,271.4,387,271.4z"/>
	</g>
	<g>
		<path class="st21" d="M478.4,225.1c-12.5-3.9-21.8-15.7-22.6-28.8l2-0.1c0.8,12.2,9.6,23.3,21.2,27L478.4,225.1z"/>
	</g>
	<g>
		<path class="st21" d="M364.9,122l-1-1.7c11.6-6.8,25.6-6.6,37.8-5.5l-0.2,2C389.7,115.7,376,115.5,364.9,122z"/>
	</g>
	<g>
		<path class="st21" d="M417.8,134c-4-1-8.2-1.3-12.3-0.8l-0.2-2c4.3-0.5,8.8-0.2,13.1,0.9L417.8,134z"/>
	</g>
	<g>
		<path class="st21" d="M298,175.7l-1.4-1.5c7.1-6.6,12.1-15.5,14.1-25l2,0.4C310.6,159.6,305.4,168.8,298,175.7z"/>
	</g>
	<g>
		<path class="st14" d="M1452.9,908h-25.6l-2.2-17c-4-1.1-7.8-2.7-11.5-4.8l-13.6,10.5l-18.1-18.1l10.5-13.6
			c-2-3.7-3.6-7.5-4.8-11.5l-17-2.2v-25.6l17-2.2c1.1-4,2.7-7.8,4.8-11.5l-10.5-13.6l18.1-18.1l13.6,10.5c3.6-2,7.5-3.6,11.4-4.8
			l2.2-17h25.6l2.2,17c4,1.1,7.8,2.7,11.4,4.8l12.9-9.9l1.2,1.6l-14,10.8l-0.6-0.3c-3.9-2.2-8-3.9-12.2-5.1l-0.6-0.2l-2.2-16.6
			h-22.1l-2.2,16.6l-0.6,0.2c-4.2,1.2-8.3,2.9-12.2,5.1l-0.6,0.3l-13.3-10.2l-15.6,15.6l10.2,13.3l-0.3,0.6c-2.2,3.9-3.9,8-5.1,12.2
			l-0.2,0.6l-16.6,2.2v22.1l16.6,2.2l0.2,0.6c1.2,4.2,2.9,8.4,5.1,12.3l0.3,0.6l-10.2,13.3l15.6,15.6l13.3-10.2l0.6,0.3
			c3.9,2.2,8,3.9,12.3,5.1l0.6,0.2l2.2,16.6h22.1l2.2-16.6l0.6-0.2c4.2-1.2,8.4-2.9,12.2-5.1l0.6-0.3l14,10.8l-1.2,1.6l-12.9-10
			c-3.7,2-7.5,3.6-11.5,4.8L1452.9,908z M1440.1,863.3c-6.6,0-12.9-2.6-17.6-7.3c-4.7-4.7-7.3-10.9-7.3-17.6
			c0-6.6,2.6-12.9,7.3-17.6c9.7-9.7,25.4-9.7,35.1,0c9.7,9.7,9.7,25.4,0,35.1l0,0C1453,860.7,1446.8,863.3,1440.1,863.3z
			 M1440.1,815.6c-5.8,0-11.7,2.2-16.1,6.7c-4.3,4.3-6.7,10-6.7,16.1c0,6.1,2.4,11.8,6.7,16.1s10,6.7,16.1,6.7
			c6.1,0,11.8-2.4,16.1-6.7l0,0c8.9-8.9,8.9-23.4,0-32.3C1451.8,817.9,1446,815.6,1440.1,815.6z"/>
	</g>
	<g>
		<g>
			<path class="st21" d="M77.8,534.8H12v-53.7c0-6.7,5.4-12.1,12.1-12.1h45.3v2H24.1c-5.6,0-10.1,4.5-10.1,10.1v51.7h61.8v-22.4
				l21.3,17.6v-52.2l-21.3,17.6V469h2v20.1l21.3-17.6v60.6l-21.3-17.6V534.8z"/>
		</g>
		<g>
			<path class="st21" d="M44.9,523.2c-8.1,0-15.3-4.5-19-11.6l1.8-0.9c3.3,6.5,9.9,10.6,17.2,10.6c10.7,0,19.3-8.7,19.3-19.3
				s-8.7-19.3-19.3-19.3c-10.7,0-19.3,8.7-19.3,19.3h-2c0-11.8,9.6-21.3,21.3-21.3s21.3,9.6,21.3,21.3S56.7,523.2,44.9,523.2z"/>
		</g>
	</g>
	<g>
		<polygon class="st14" points="315.5,681.8 249.3,681.8 249.3,645.8 306.2,675.4 305.3,677.1 251.3,649.1 251.3,679.8 313.5,679.8 
			313.5,648.5 257.9,648.5 257.9,646.5 315.5,646.5 		"/>
	</g>
	<g>
		<rect x="328.2" y="650.5" class="st14" width="51.3" height="2"/>
	</g>
	<g>
		<rect x="328.2" y="663.2" class="st14" width="51.3" height="2"/>
	</g>
	<g>
		<rect x="328.2" y="675.8" class="st14" width="34.6" height="2"/>
	</g>
	<g>
		
			<rect x="246.2" y="663.1" transform="matrix(0.8874 -0.4609 0.4609 0.8874 -274.3346 204.9386)" class="st14" width="72.4" height="2"/>
	</g>
	<g>
		
			<rect x="346" y="692.1" transform="matrix(0.5574 -0.8302 0.8302 0.5574 -448.0046 608.801)" class="st14" width="2" height="64.9"/>
	</g>
	<g>
		<path class="st14" d="M313.5,748.3v-46.5h66.9v45.6h-56.2v-2h54.2v-40.7L313.5,748.3z M315.5,703.8v40.7l60.7-40.7H315.5z"/>
	</g>
	<g>
		<path class="st14" d="M372.8,786.2h-45.3c-4.2,0-7.6-3.4-7.6-7.6s3.4-7.6,7.6-7.6h45.3c4.2,0,7.6,3.4,7.6,7.6
			S377,786.2,372.8,786.2z M327.5,772.9c-3.1,0-5.6,2.5-5.6,5.6s2.5,5.6,5.6,5.6h45.3c3.1,0,5.6-2.5,5.6-5.6s-2.5-5.6-5.6-5.6H327.5
			z"/>
	</g>
	<g>
		<path class="st14" d="M391.8,808.9h-31.4c-4.2,0-7.6-3.4-7.6-7.6c0-4.2,3.4-7.6,7.6-7.6h31.4c4.2,0,7.6,3.4,7.6,7.6
			C399.5,805.5,396,808.9,391.8,808.9z M360.5,795.7c-3.1,0-5.6,2.5-5.6,5.6c0,3.1,2.5,5.6,5.6,5.6h31.4c3.1,0,5.6-2.5,5.6-5.6
			c0-3.1-2.5-5.6-5.6-5.6H360.5z"/>
	</g>
	<g>
		<path class="st14" d="M224.7,660.4h-46.8c-3.8,0-6.9-3.1-6.9-6.9s3.1-6.9,6.9-6.9h46.8c3.8,0,6.9,3.1,6.9,6.9
			S228.5,660.4,224.7,660.4z M177.8,648.6c-2.7,0-4.9,2.2-4.9,4.9s2.2,4.9,4.9,4.9h46.8c2.7,0,4.9-2.2,4.9-4.9s-2.2-4.9-4.9-4.9
			H177.8z"/>
	</g>
	<g>
		<path class="st14" d="M202.3,681.8h-24.5c-3.8,0-6.9-3.1-6.9-6.9s3.1-6.9,6.9-6.9h24.5c3.8,0,6.9,3.1,6.9,6.9
			S206.1,681.8,202.3,681.8z M177.8,670.1c-2.7,0-4.9,2.2-4.9,4.9s2.2,4.9,4.9,4.9h24.5c2.7,0,4.9-2.2,4.9-4.9s-2.2-4.9-4.9-4.9
			H177.8z"/>
	</g>
	<g>
		<g>
			<g>
				<path class="st21" d="M561.5,223.3h-2v-22.9h-8.8v-1c0-5.4,4.4-9.8,9.8-9.8h1v8.8h6.8v-8.8h1c5.4,0,9.8,4.4,9.8,9.8v1h-8.8V223
					h-2v-22.5h-6.8V223.3z M570.3,198.4h6.8c-0.5-3.5-3.2-6.3-6.8-6.8V198.4z M552.7,198.4h6.8v-6.8
					C556,192.1,553.2,194.9,552.7,198.4z"/>
			</g>
			<g>
				<path class="st21" d="M568.6,237.2h-17.2v-7.6h2v5.6h15.2c4.3,0,7.8-3.5,7.8-7.8v-2.7h-25v-1.4c0-2.5-1.2-4.8-3.2-6.3
					c-7.6-5.6-11.8-14.5-11.5-23.9c0.6-14.7,12.6-26.5,27.3-27c7.7-0.2,15,2.6,20.5,8c5.5,5.4,8.6,12.5,8.6,20.2
					c0,8.9-4.3,17.5-11.5,22.8c-2,1.4-3.2,3.8-3.2,6.4v3.9C578.4,232.8,574,237.2,568.6,237.2z M553.4,222.7h23
					c0.2-2.9,1.7-5.6,3.9-7.3c6.7-4.9,10.7-12.8,10.7-21.1c0-7.1-2.8-13.8-8-18.8c-5.1-5-11.9-7.6-19-7.4
					c-13.7,0.4-24.8,11.4-25.4,25.1c-0.4,8.7,3.6,17,10.6,22.2C551.7,217.1,553.2,219.8,553.4,222.7z"/>
			</g>
		</g>
		<g>
			<rect x="604.3" y="191.1" class="st14" width="10.1" height="2"/>
		</g>
		<g>
			<rect x="515.4" y="191.1" class="st14" width="10.1" height="2"/>
		</g>
		<g>
			<rect x="563.9" y="142.6" class="st14" width="2" height="10.1"/>
		</g>
		<g>
			
				<rect x="591.3" y="159.7" transform="matrix(0.7071 -0.7071 0.7071 0.7071 61.0519 468.7093)" class="st14" width="10.1" height="2"/>
		</g>
		<g>
			
				<rect x="532.5" y="155.6" transform="matrix(0.7071 -0.7071 0.7071 0.7071 42.6496 424.2824)" class="st14" width="2" height="10.1"/>
		</g>
	</g>
	<g>
		<path class="st14" d="M233.1,232H131.4v-45.5h101.8V232z M133.4,230h97.8v-41.5h-97.8V230z"/>
	</g>
	<g>
		<path class="st14" d="M160.8,216.2h-14.1v-14.1h14.1V216.2z M148.7,214.2h10.1v-10.1h-10.1V214.2z"/>
	</g>
	<g>
		<rect x="174" y="203" class="st14" width="32.2" height="2"/>
	</g>
	<g>
		<rect x="174" y="210.9" class="st14" width="25.3" height="2"/>
	</g>
	<g>
		<polygon class="st14" points="216.6,332.9 173.9,332.9 173.9,287.3 224.9,287.3 224.9,289.3 175.9,289.3 175.9,330.9 216.6,330.9 
					"/>
	</g>
	<g>
		<path class="st14" d="M203.4,317.1h-14.1v-14.1h14.1V317.1z M191.3,315.1h10.1v-10.1h-10.1V315.1z"/>
	</g>
	<g>
		<rect x="216.6" y="303.9" class="st14" width="10.3" height="2"/>
	</g>
	<g>
		<rect x="216.6" y="311.8" class="st14" width="6.3" height="2"/>
	</g>
	<g>
		<polygon class="st14" points="126.1,213.4 96.4,213.4 96.4,167.9 198.2,167.9 198.2,181.2 196.2,181.2 196.2,169.9 98.4,169.9 
			98.4,211.4 126.1,211.4 		"/>
	</g>
	<g>
		<path class="st14" d="M125.8,197.7h-14.1v-14.1h14.1V197.7z M113.8,195.7h10.1v-10.1h-10.1V195.7z"/>
	</g>
	<g>
		<rect x="191.7" y="240.7" class="st14" width="2" height="38.8"/>
	</g>
	<g>
		<polygon class="st14" points="215.5,173.8 213.5,173.8 213.5,146.5 262.5,146.5 262.5,148.5 215.5,148.5 		"/>
	</g>
	<g>
		<g>
			<path class="st21" d="M959.7,486.5c-6.2,0-11.2-5-11.2-11.2s5-11.2,11.2-11.2c6.2,0,11.2,5,11.2,11.2S965.8,486.5,959.7,486.5z
				 M959.7,466.2c-5.1,0-9.2,4.1-9.2,9.2s4.1,9.2,9.2,9.2s9.2-4.1,9.2-9.2S964.7,466.2,959.7,466.2z"/>
		</g>
		<g>
			<path class="st21" d="M959.7,501.9c-14.6,0-26.5-11.9-26.5-26.5c0-1.5,0.3-15.1,10.6-21.2c4.6-3.5,10.1-5.3,15.9-5.3
				c14.6,0,26.5,11.9,26.5,26.5S974.3,501.9,959.7,501.9z M945.1,455.6L945.1,455.6l-0.3,0.2c-1,0.6-9.7,6.1-9.7,19.5
				c0,13.5,11,24.5,24.5,24.5s24.5-11,24.5-24.5s-11-24.5-24.5-24.5C954.4,450.8,949.3,452.5,945.1,455.6z"/>
		</g>
		<g>
			
				<rect x="958.1" y="457.6" transform="matrix(0.343 -0.9393 0.9393 0.343 203.7942 1208.4828)" class="st21" width="15.3" height="2"/>
		</g>
		<g>
			
				<rect x="969.1" y="482.1" transform="matrix(0.8111 -0.5849 0.5849 0.8111 -103.2496 659.9108)" class="st21" width="2" height="15.4"/>
		</g>
		<g>
			
				<rect x="947.1" y="491.5" transform="matrix(0.2713 -0.9625 0.9625 0.2713 221.7511 1277.9249)" class="st21" width="15.4" height="2"/>
		</g>
	</g>
	<g>
		<path class="st14" d="M731.5,397.9c-3.3,0-5.9-2.6-5.9-5.9s2.6-5.9,5.9-5.9s5.9,2.6,5.9,5.9S734.8,397.9,731.5,397.9z
			 M731.5,388.1c-2.1,0-3.9,1.7-3.9,3.9s1.7,3.9,3.9,3.9s3.9-1.7,3.9-3.9S733.7,388.1,731.5,388.1z"/>
	</g>
	<g>
		<path class="st14" d="M677.2,422.8c-3.3,0-5.9-2.6-5.9-5.9s2.6-5.9,5.9-5.9c3.3,0,5.9,2.6,5.9,5.9S680.4,422.8,677.2,422.8z
			 M677.2,413c-2.1,0-3.9,1.7-3.9,3.9s1.7,3.9,3.9,3.9s3.9-1.7,3.9-3.9S679.3,413,677.2,413z"/>
	</g>
	<g>
		<path class="st14" d="M767.9,432.9c-3.3,0-5.9-2.6-5.9-5.9s2.6-5.9,5.9-5.9c3.3,0,5.9,2.6,5.9,5.9S771.1,432.9,767.9,432.9z
			 M767.9,423.1c-2.1,0-3.9,1.7-3.9,3.9s1.7,3.9,3.9,3.9s3.9-1.7,3.9-3.9S770,423.1,767.9,423.1z"/>
	</g>
	<g>
		<path class="st14" d="M807.1,402.3c-3.3,0-5.9-2.6-5.9-5.9s2.6-5.9,5.9-5.9c3.3,0,5.9,2.6,5.9,5.9S810.4,402.3,807.1,402.3z
			 M807.1,392.5c-2.1,0-3.9,1.7-3.9,3.9s1.7,3.9,3.9,3.9s3.9-1.7,3.9-3.9S809.3,392.5,807.1,392.5z"/>
	</g>
	<g>
		<path class="st14" d="M844.4,425.6c-3.3,0-5.9-2.6-5.9-5.9s2.6-5.9,5.9-5.9c3.3,0,5.9,2.6,5.9,5.9S847.7,425.6,844.4,425.6z
			 M844.4,415.8c-2.1,0-3.9,1.7-3.9,3.9s1.7,3.9,3.9,3.9s3.9-1.7,3.9-3.9S846.6,415.8,844.4,415.8z"/>
	</g>
	<g>
		<path class="st14" d="M928.8,366.7c-3.3,0-5.9-2.6-5.9-5.9s2.6-5.9,5.9-5.9c3.3,0,5.9,2.6,5.9,5.9S932,366.7,928.8,366.7z
			 M928.8,356.9c-2.1,0-3.9,1.7-3.9,3.9s1.7,3.9,3.9,3.9s3.9-1.7,3.9-3.9S930.9,356.9,928.8,356.9z"/>
	</g>
	<g>
		
			<rect x="940.5" y="361.8" transform="matrix(0.826 -0.5637 0.5637 0.826 -50.062 596.7284)" class="st14" width="2" height="35.3"/>
	</g>
	<g>
		
			<rect x="840" y="389.3" transform="matrix(0.8198 -0.5727 0.5727 0.8198 -63.7118 578.1036)" class="st14" width="93.1" height="2"/>
	</g>
	<g>
		
			<rect x="824.8" y="390.9" transform="matrix(0.531 -0.8474 0.8474 0.531 41.5327 891.1299)" class="st14" width="2" height="34.2"/>
	</g>
	<g>
		
			<rect x="767.5" y="410.7" transform="matrix(0.7884 -0.6151 0.6151 0.7884 -86.6074 571.5089)" class="st14" width="40" height="2"/>
	</g>
	<g>
		
			<rect x="748.6" y="389.2" transform="matrix(0.6931 -0.7208 0.7208 0.6931 -65.0466 665.92)" class="st14" width="2" height="40.3"/>
	</g>
	<g>
		
			<rect x="679.8" y="403.4" transform="matrix(0.9091 -0.4165 0.4165 0.9091 -104.3896 330.192)" class="st14" width="49.5" height="2"/>
	</g>
	<g>
		
			<rect x="650.2" y="375.2" transform="matrix(0.5319 -0.8468 0.8468 0.5319 -34.4096 738.9715)" class="st14" width="2" height="50.8"/>
	</g>
	<g>
		<path class="st14" d="M898.1,471.4H786.4v-15.2h111.8V471.4z M788.4,469.4h107.8v-11.2H788.4V469.4z"/>
	</g>
	<g>
		<path class="st14" d="M890.7,502H786.4v-15.2h104.3V502z M788.4,500h100.3v-11.2H788.4V500z"/>
	</g>
	<g>
		<path class="st14" d="M918.3,532.6H786.4v-15.2h131.9V532.6z M788.4,530.6h127.9v-11.2H788.4V530.6z"/>
	</g>
	<g>
		<rect x="869.8" y="457.1" class="st14" width="2" height="13.2"/>
	</g>
	<g>
		<rect x="812.9" y="457.1" class="st14" width="2" height="13.2"/>
	</g>
	<g>
		<rect x="859.5" y="487.8" class="st14" width="2" height="13.2"/>
	</g>
	<g>
		<rect x="896.1" y="518.4" class="st14" width="2" height="13.2"/>
	</g>
	<g>
		<rect x="834.9" y="518.4" class="st14" width="2" height="13.2"/>
	</g>
	<g>
		<g>
			<rect x="1102" y="434.7" class="st14" width="66.6" height="2"/>
		</g>
		<g>
			<rect x="1102" y="445.1" class="st14" width="66.6" height="2"/>
		</g>
		<g>
			<rect x="1102" y="424.3" class="st14" width="66.6" height="2"/>
		</g>
		<g>
			<rect x="1102" y="455.4" class="st14" width="25.1" height="2"/>
		</g>
	</g>
	<g>
		<g>
			<rect x="586.8" y="587.1" class="st14" width="62.3" height="2"/>
		</g>
		<g>
			<rect x="586.8" y="596.8" class="st14" width="62.3" height="2"/>
		</g>
		<g>
			<rect x="586.8" y="577.4" class="st14" width="62.3" height="2"/>
		</g>
		<g>
			<rect x="586.8" y="606.5" class="st14" width="23.5" height="2"/>
		</g>
	</g>
	<g>
		<g>
			<rect x="805.6" y="944.1" class="st14" width="101.2" height="2"/>
		</g>
		<g>
			<rect x="682.6" y="944.1" class="st14" width="104" height="2"/>
		</g>
		<g>
			<rect x="862.7" y="971.1" class="st14" width="103.1" height="2"/>
		</g>
		<g>
			<rect x="682.6" y="971" class="st14" width="162.2" height="2"/>
		</g>
		<g>
			<rect x="682.6" y="997.9" class="st14" width="78.9" height="2"/>
		</g>
		<g>
			<rect x="779.4" y="997.9" class="st14" width="100.2" height="2"/>
		</g>
		<g>
			<rect x="805.6" y="1078.8" class="st14" width="65.7" height="2"/>
		</g>
		<g>
			<rect x="682.6" y="1078.7" class="st14" width="104" height="2"/>
		</g>
		<g>
			<rect x="682.6" y="1024.9" class="st14" width="146.3" height="2"/>
		</g>
		<g>
			<rect x="847.8" y="1024.9" class="st14" width="118" height="2"/>
		</g>
		<g>
			<rect x="682.6" y="1051.8" class="st14" width="50.8" height="2"/>
		</g>
		<g>
			<rect x="752.3" y="1051.8" class="st14" width="154.5" height="2"/>
		</g>
	</g>
	<g>
		<path class="st14" d="M585.1,914.9c-2.5,0-4.5-2-4.5-4.5s2-4.5,4.5-4.5s4.5,2,4.5,4.5S587.6,914.9,585.1,914.9z M585.1,907.9
			c-1.4,0-2.5,1.1-2.5,2.5s1.1,2.5,2.5,2.5s2.5-1.1,2.5-2.5S586.4,907.9,585.1,907.9z"/>
	</g>
	<g>
		<path class="st14" d="M599,914.9c-2.5,0-4.5-2-4.5-4.5s2-4.5,4.5-4.5s4.5,2,4.5,4.5S601.5,914.9,599,914.9z M599,907.9
			c-1.4,0-2.5,1.1-2.5,2.5s1.1,2.5,2.5,2.5c1.4,0,2.5-1.1,2.5-2.5S600.4,907.9,599,907.9z"/>
	</g>
	<g>
		<path class="st14" d="M612.9,914.9c-2.5,0-4.5-2-4.5-4.5s2-4.5,4.5-4.5s4.5,2,4.5,4.5S615.4,914.9,612.9,914.9z M612.9,907.9
			c-1.4,0-2.5,1.1-2.5,2.5s1.1,2.5,2.5,2.5s2.5-1.1,2.5-2.5S614.3,907.9,612.9,907.9z"/>
	</g>
	<g>
		<rect x="581.5" y="927.3" class="st14" width="44.3" height="2"/>
	</g>
	<g>
		<rect x="581.5" y="939.8" class="st14" width="25" height="2"/>
	</g>
	<g>
		<rect x="581.5" y="952.3" class="st14" width="38.4" height="2"/>
	</g>
	<g>
		<rect x="581.5" y="964.9" class="st14" width="34.9" height="2"/>
	</g>
	<g>
		<rect x="581.5" y="977.4" class="st14" width="38.9" height="2"/>
	</g>
	<g>
		<rect x="596.9" y="991.2" class="st14" width="34.9" height="2"/>
	</g>
	<g>
		<rect x="596.9" y="1003.8" class="st14" width="23" height="2"/>
	</g>
	<g>
		<rect x="596.9" y="1016.3" class="st14" width="26.5" height="2"/>
	</g>
	<g>
		<rect x="596.9" y="1028.8" class="st14" width="38.9" height="2"/>
	</g>
	<g>
		<rect x="596.9" y="1041.3" class="st14" width="18.3" height="2"/>
	</g>
	<g>
		<path class="st21" d="M1293.7,479.8c-6.4,0-12.5-2.5-17.1-7.1l1.4-1.4c4.2,4.2,9.7,6.5,15.6,6.5s11.5-2.3,15.6-6.5
			c4.2-4.2,6.5-9.7,6.5-15.6s-2.3-11.5-6.5-15.6l1.4-1.4c4.6,4.6,7.1,10.6,7.1,17.1s-2.5,12.5-7.1,17.1S1300.1,479.8,1293.7,479.8z"
			/>
	</g>
	<g>
		<polygon class="st21" points="1289.8,463.6 1283.8,457.5 1285.2,456.1 1289.8,460.8 1302.1,448.4 1303.6,449.8 		"/>
	</g>
	<g>
		<rect x="1423.9" y="431.7" class="st14" width="94.6" height="2"/>
	</g>
	<g>
		<rect x="1340.3" y="431.7" class="st14" width="65.3" height="2"/>
	</g>
	<g>
		<rect x="1340.3" y="447.4" class="st14" width="134.9" height="2"/>
	</g>
	<g>
		<path class="st14" d="M1382.1,479.6h-35.7c-3.9,0-7.1-3.2-7.1-7.1s3.2-7.1,7.1-7.1h35.7c3.9,0,7.1,3.2,7.1,7.1
			S1386,479.6,1382.1,479.6z M1346.4,467.4c-2.8,0-5.1,2.3-5.1,5.1s2.3,5.1,5.1,5.1h35.7c2.8,0,5.1-2.3,5.1-5.1s-2.3-5.1-5.1-5.1
			H1346.4z"/>
	</g>
	<g>
		<path class="st14" d="M1427.6,479.6h-17.9c-3.9,0-7.1-3.2-7.1-7.1s3.2-7.1,7.1-7.1h17.9c3.9,0,7.1,3.2,7.1,7.1
			S1431.5,479.6,1427.6,479.6z M1409.7,467.4c-2.8,0-5.1,2.3-5.1,5.1s2.3,5.1,5.1,5.1h17.9c2.8,0,5.1-2.3,5.1-5.1s-2.3-5.1-5.1-5.1
			H1409.7z"/>
	</g>
	<g>
		<path class="st14" d="M1542.2,635.9h-295.4v-93.1h295.4V635.9z M1248.8,633.9h291.4v-89.1h-291.4V633.9z"/>
	</g>
	<g>
		<path class="st21" d="M1293.7,613.5c-6.4,0-12.5-2.5-17.1-7.1l1.4-1.4c4.2,4.2,9.7,6.5,15.6,6.5s11.5-2.3,15.6-6.5
			c4.2-4.2,6.5-9.7,6.5-15.6s-2.3-11.5-6.5-15.6l1.4-1.4c4.6,4.6,7.1,10.6,7.1,17.1s-2.5,12.5-7.1,17.1S1300.1,613.5,1293.7,613.5z"
			/>
	</g>
	<g>
		<polygon class="st21" points="1289.8,597.3 1283.8,591.3 1285.2,589.8 1289.8,594.5 1302.1,582.1 1303.6,583.6 		"/>
	</g>
	<g>
		<rect x="1394.7" y="565.4" class="st14" width="45.4" height="2"/>
	</g>
	<g>
		<rect x="1340.3" y="565.4" class="st14" width="41.3" height="2"/>
	</g>
	<g>
		<rect x="1440.1" y="581.1" class="st14" width="59.7" height="2"/>
	</g>
	<g>
		<rect x="1340.3" y="581.1" class="st14" width="83.6" height="2"/>
	</g>
	<g>
		<path class="st14" d="M1364.2,613.3h-17.9c-3.9,0-7.1-3.2-7.1-7.1s3.2-7.1,7.1-7.1h17.9c3.9,0,7.1,3.2,7.1,7.1
			S1368.1,613.3,1364.2,613.3z M1346.4,601.1c-2.8,0-5.1,2.3-5.1,5.1s2.3,5.1,5.1,5.1h17.9c2.8,0,5.1-2.3,5.1-5.1s-2.3-5.1-5.1-5.1
			H1346.4z"/>
	</g>
	<g>
		<path class="st14" d="M1427.6,613.3h-35.7c-3.9,0-7.1-3.2-7.1-7.1s3.2-7.1,7.1-7.1h35.7c3.9,0,7.1,3.2,7.1,7.1
			S1431.5,613.3,1427.6,613.3z M1391.9,601.1c-2.8,0-5.1,2.3-5.1,5.1s2.3,5.1,5.1,5.1h35.7c2.8,0,5.1-2.3,5.1-5.1s-2.3-5.1-5.1-5.1
			H1391.9z"/>
	</g>
	<g>
		<g>
			<path class="st14" d="M823.8,606.2h-14.8v-33.7h14.8V606.2z M810.9,604.2h10.8v-29.7h-10.8V604.2z"/>
		</g>
		<g>
			<path class="st14" d="M847.8,606.2h-14.8v-33.7h14.8V606.2z M834.9,604.2h10.8v-29.7h-10.8V604.2z"/>
		</g>
		<g>
			<path class="st14" d="M871.8,606.2h-14.8v-33.7h14.8V606.2z M858.9,604.2h10.8v-29.7h-10.8V604.2z"/>
		</g>
		<g>
			<rect x="805.2" y="583.3" class="st14" width="22.3" height="2"/>
		</g>
		<g>
			<rect x="829.2" y="594.2" class="st14" width="22.3" height="2"/>
		</g>
		<g>
			<rect x="853.2" y="579.9" class="st14" width="22.3" height="2"/>
		</g>
		<g>
			<rect x="803.7" y="604.2" class="st14" width="73.2" height="2"/>
		</g>
	</g>
	<g>
		<g>
			<path class="st14" d="M925.1,228.3H695.5v-180h260.6v149C956.1,214.4,942.2,228.3,925.1,228.3z M697.5,226.3h227.6
				c16,0,29-13,29-29v-147H697.5V226.3z"/>
		</g>
		<g>
			<rect x="772.7" y="77.3" class="st14" width="2" height="128.9"/>
		</g>
		<g>
			<rect x="824.3" y="77.3" class="st14" width="2" height="128.9"/>
		</g>
		<g>
			<rect x="875.9" y="77.3" class="st14" width="2" height="128.9"/>
		</g>
		<g>
			<path class="st14" d="M774.7,99.8h-55.1V82.5h55.1V99.8z M721.6,97.8h51.1V84.5h-51.1V97.8z"/>
		</g>
		<g>
			<path class="st14" d="M826.3,125.1h-53.6v-17.3h53.6V125.1z M774.7,123.1h49.6v-13.3h-49.6V123.1z"/>
		</g>
		<g>
			<path class="st14" d="M864.1,150.4h-51.9v-17.3h51.9V150.4z M814.2,148.4h47.9v-13.3h-47.9V148.4z"/>
		</g>
		<g>
			<path class="st14" d="M893.8,175.7h-52.2v-17.3h52.2V175.7z M843.6,173.7h48.2v-13.3h-48.2V173.7z"/>
		</g>
		<g>
			<path class="st14" d="M931,200.9h-55.1v-17.3H931V200.9z M877.9,198.9H929v-13.3h-51.1V198.9z"/>
		</g>
		<g>
			<path class="st14" d="M925.1,228.3H695.5v-180h260.6v149C956.1,214.4,942.2,228.3,925.1,228.3z M697.5,226.3h227.6
				c16,0,29-13,29-29v-147H697.5V226.3z"/>
		</g>
	</g>
	<g>
		<path class="st14" d="M1565.2,766.3h-11v-2h11V766.3z M1543.2,766.3h-11v-2h11V766.3z M1521.2,766.3h-11v-2h11V766.3z
			 M1499.2,766.3h-11v-2h11V766.3z M1574.4,762.4h-2v-11h2V762.4z M1574.4,740.4h-2v-11h2V740.4z M1574.4,718.4h-2v-11h2V718.4z
			 M1574.4,696.4h-2v-11h2V696.4z M1574.4,674.4h-2v-11h2V674.4z M1574.4,652.4h-2v-11h2V652.4z M1574.4,630.4h-2v-11h2V630.4z
			 M1574.4,608.4h-2v-11h2V608.4z M1574.4,586.4h-2v-1.1h-7.9v-2h9.9V586.4z M1553.5,585.3h-11v-2h11V585.3z"/>
	</g>
	<g>
		<path class="st14" d="M1395.7,543.8h-2v-11h2V543.8z M1395.7,521.8h-2v-11h2V521.8z"/>
	</g>
	<g>
		<path class="st14" d="M1481.2,409.4h-2v-11h2V409.4z M1481.2,387.4h-2v-11h2V387.4z M1481.2,365.4h-2v-11h2V365.4z M1481.2,343.4
			h-2v-11h2V343.4z M1481.2,321.4h-2v-11h2V321.4z M1481.2,299.4h-2v-11h2V299.4z"/>
	</g>
	<g>
		<g>
			<polygon class="st21" points="1093,236.4 1067.7,236.4 1067.7,234.4 1091,234.4 1091,211 1093,211 			"/>
		</g>
		<g>
			<g>
				<polygon class="st21" points="1093.8,162.5 1066.9,162.5 1066.9,160.5 1091.8,160.5 1091.8,135.6 1093.8,135.6 				"/>
			</g>
			<g>
				<polygon class="st21" points="1077.4,154.8 1071.9,149.3 1073.3,147.9 1077.4,152 1086.4,143 1087.8,144.4 				"/>
			</g>
		</g>
		<g>
			<g>
				<polygon class="st21" points="1093.8,200.2 1066.9,200.2 1066.9,198.2 1091.8,198.2 1091.8,173.3 1093.8,173.3 				"/>
			</g>
			<g>
				<polygon class="st21" points="1077.4,192.5 1071.9,186.9 1073.3,185.5 1077.4,189.7 1086.4,180.7 1087.8,182.1 				"/>
			</g>
		</g>
		<g>
			<rect x="1110.3" y="141.9" class="st14" width="57.8" height="2"/>
		</g>
		<g>
			<rect x="1110.3" y="153.2" class="st14" width="29.1" height="2"/>
		</g>
		<g>
			<rect x="1110.3" y="216.6" class="st14" width="57.8" height="2"/>
		</g>
		<g>
			<rect x="1110.3" y="227.8" class="st14" width="29.1" height="2"/>
		</g>
		<g>
			<rect x="1110.3" y="185.2" class="st14" width="57.8" height="2"/>
		</g>
	</g>
	<g>
		<path class="st14" d="M1520.4,153.3H1422c-6.8,0-12.3-5.5-12.3-12.3c0-6.8,5.5-12.3,12.3-12.3h98.3c6.8,0,12.3,5.5,12.3,12.3
			C1532.7,147.8,1527.2,153.3,1520.4,153.3z M1422,130.6c-5.7,0-10.3,4.6-10.3,10.3s4.6,10.3,10.3,10.3h98.3
			c5.7,0,10.3-4.6,10.3-10.3s-4.6-10.3-10.3-10.3H1422z"/>
	</g>
	<g>
		<path class="st14" d="M1553.8,195.9h-70.5c-6.8,0-12.3-5.5-12.3-12.3s5.5-12.3,12.3-12.3h70.5c6.8,0,12.3,5.5,12.3,12.3
			S1560.6,195.9,1553.8,195.9z M1483.3,173.3c-5.7,0-10.3,4.6-10.3,10.3s4.6,10.3,10.3,10.3h70.5c5.7,0,10.3-4.6,10.3-10.3
			s-4.6-10.3-10.3-10.3H1483.3z"/>
	</g>
</g>
</svg>
