<?xml version="1.0" encoding="UTF-8"?>
<svg id="Layer_1" data-name="Layer 1" xmlns="http://www.w3.org/2000/svg" viewBox="0 0 130 130">
  <defs>
    <style>
      .cls-1 {
        fill: #fff;
      }

      .cls-2 {
        fill: #171321;
        font-size: 70px;
      }

      .cls-3 {
        fill: none;
        stroke: #171321;
        stroke-miterlimit: 10;
        stroke-width: 1.82px;
      }

      .cls-4 {
        letter-spacing: 0em;
      }

      .cls-5 {
        letter-spacing: 0em;
      }

      .cls-6 {
        letter-spacing: .03em;
      }

      .cls-7 {
        font-family: Inter-Regular, Inter;
      }

      .cls-8 {
        letter-spacing: .01em;
      }

      .cls-9 {
        letter-spacing: -.02em;
      }
    </style>
  </defs>
  <path class="cls-1" d="M37.86,0h92.14V92.14c0,20.9-16.97,37.86-37.86,37.86H0V37.86C0,16.97,16.97,0,37.86,0Z"/>
  <text class="cls-2" transform="translate(15.43 -95.96)"><tspan class="cls-6" x="0" y="0">G</tspan><tspan x="55.23" y="0">i</tspan><tspan class="cls-8" x="73.48" y="0">t</tspan><tspan class="cls-4" x="100.87" y="0">Lab</tspan><tspan class="cls-7"><tspan x="0" y="78.4">El</tspan><tspan class="cls-9" x="58.47" y="78.4">ev</tspan><tspan x="135.82" y="78.4">a</tspan><tspan class="cls-5" x="175.3" y="78.4">t</tspan><tspan x="200.35" y="78.4">e</tspan></tspan></text>
  <g>
    <polyline class="cls-3" points="44.32 106.96 44.32 81.45 49.78 81.45 37.03 68.52 24.27 81.45 29.74 81.45 29.74 106.05 37.03 106.05"/>
    <polyline class="cls-3" points="57.98 65.96 57.98 106.05 72.56 106.05 72.56 58.67 78.03 58.67 65.27 45.74 52.52 58.67 58.9 58.67"/>
    <path class="cls-3" d="M89.87,106.05h-3.64V35.9h-5.47l12.76-12.93,12.76,12.93h-5.47v59.22c0,6.04-4.89,10.93-10.93,10.93Z"/>
  </g>
</svg>