<?xml version="1.0" encoding="UTF-8"?>
<svg id="Layer_1" data-name="Layer 1" xmlns="http://www.w3.org/2000/svg" viewBox="0 0 92 90">
  <defs>
    <style>
      .cls-1 {
        fill: none;
        stroke: #fff;
        stroke-miterlimit: 10;
        stroke-width: 1.82px;
      }
    </style>
  </defs>
  <polyline class="cls-1" points="25.04 87 25.04 61.49 30.51 61.49 17.76 48.55 5 61.49 10.47 61.49 10.47 86.09 17.76 86.09"/>
  <polyline class="cls-1" points="38.71 46 38.71 86.09 53.29 86.09 53.29 38.71 58.76 38.71 46 25.78 33.24 38.71 39.62 38.71"/>
  <path class="cls-1" d="M70.6,86.09h-3.64V15.93h-5.47l12.76-12.93,12.76,12.93h-5.47v59.22c0,6.04-4.89,10.93-10.93,10.93Z"/>
</svg>