<?xml version="1.0" encoding="utf-8"?>
<!-- Generator: Adobe Illustrator 24.2.1, SVG Export Plug-In . SVG Version: 6.00 Build 0)  -->
<svg version="1.1" xmlns="http://www.w3.org/2000/svg" xmlns:xlink="http://www.w3.org/1999/xlink" x="0px" y="0px"
	 viewBox="0 0 1266 559" style="enable-background:new 0 0 1266 559;" xml:space="preserve">
<style type="text/css">
	.st0{fill:#FAFAFA;}
	.st1{fill:#F0F0F0;}
	.st2{fill:#FFFFFF;}
	.st3{fill:#E24329;}
	.st4{fill:#FCA326;}
	.st5{fill:#FC6D26;}
	.st6{fill:#8C929D;}
	.st7{fill:#2E2E2E;}
	.st8{fill:none;stroke:#FCA326;stroke-width:16;stroke-linecap:round;stroke-linejoin:round;stroke-miterlimit:10;}
	.st9{fill:none;stroke:#FC6D26;stroke-width:16;stroke-linecap:round;stroke-linejoin:round;stroke-miterlimit:10;}
	.st10{fill:none;stroke:#E24329;stroke-width:16;stroke-linecap:round;stroke-linejoin:round;stroke-miterlimit:10;}
	.st11{fill:none;stroke:#F0F0F0;stroke-miterlimit:10;}
	.st12{fill:#231F20;}
	.st13{fill:none;stroke:#231F20;stroke-width:16;stroke-linecap:round;stroke-linejoin:round;stroke-miterlimit:10;}
	.st14{display:none;}
	.st15{display:inline;opacity:0.1;fill:#E828E3;}
	.st16{display:inline;}
	.st17{font-family:'SourceSansPro-Semibold';}
	.st18{font-size:24px;}
	.st19{opacity:0.1;fill:#E828E3;}
	.st20{display:inline;fill:#DB3B21;}
	.st21{display:inline;fill:#FC6D26;}
	.st22{display:inline;fill:#2E2E2E;}
	.st23{display:inline;fill:#6E49CB;}
	.st24{display:inline;fill:#380D75;}
	.st25{display:inline;fill:#FCA121;}
	.st26{opacity:0.6;fill:none;stroke:#231F20;stroke-width:2;stroke-miterlimit:10;stroke-dasharray:12,6;}
	.st27{fill:none;stroke:#444444;stroke-width:1.5339;stroke-miterlimit:10;}
</style>
<g id="logo_art">
	<g>
		<g>
			<path id="path14_27_" class="st2" d="M839.7,198.192h-21.8l0.1,162.5h88.3v-20.1h-66.5L839.7,198.192L839.7,198.192z"/>
			<g id="g24_27_" transform="translate(977.327440, 143.284396)">
				<path id="path26_27_" class="st2" d="M13,188.892c-5.5,5.7-14.6,11.4-27,11.4c-16.6,0-23.3-8.2-23.3-18.9
					c0-16.1,11.2-23.8,35-23.8c4.5,0,11.7,0.5,15.4,1.2v30.1H13z M-9.6,90.392c-17.6,0-33.8,6.2-46.4,16.7l7.7,13.4
					c8.9-5.2,19.8-10.4,35.5-10.4c17.9,0,25.8,9.2,25.8,24.6v7.9c-3.5-0.7-10.7-1.2-15.1-1.2c-38.2,0-57.6,13.4-57.6,41.4
					c0,25.1,15.4,37.7,38.7,37.7c15.7,0,30.8-7.2,36-18.9l4,15.9h15.4v-83.2C34.3,107.992,22.9,90.392-9.6,90.392L-9.6,90.392z"/>
			</g>
			<g id="g28_27_" transform="translate(1099.766904, 143.128930)">
				<path id="path30_27_" class="st2" d="M-17.7,201.192c-8.2,0-15.4-1-20.8-3.5v-67.3v-7.8c7.4-6.2,16.6-10.7,28.3-10.7
					c21.1,0,29.2,14.9,29.2,39C19,185.092,5.9,201.192-17.7,201.192 M-8.5,90.592c-19.5,0-30,13.3-30,13.3v-21l-0.1-27.8h-9.8h-11.5
					l0.1,158.5c10.7,4.5,25.3,6.9,41.2,6.9c40.7,0,60.3-26,60.3-70.9C41.6,114.092,23.5,90.592-8.5,90.592"/>
			</g>
			<g id="g32_27_" transform="translate(584.042117, 143.630796)">
				<path id="path34_27_" class="st2" d="M18.3,72.192c19.3,0,31.8,6.4,39.9,12.9l9.4-16.3c-12.7-11.2-29.9-17.2-48.3-17.2
					c-46.4,0-78.9,28.3-78.9,85.4c0,59.8,35.1,83.1,75.2,83.1c20.1,0,37.2-4.7,48.4-9.4l-0.5-63.9v-7.5v-12.6H4v20.1h38l0.5,48.5
					c-5,2.5-13.6,4.5-25.3,4.5c-32.2,0-53.8-20.3-53.8-63C-36.7,93.292-14.4,72.192,18.3,72.192"/>
			</g>
			<g id="g36_27_" transform="translate(793.569045, 142.577463)">
				<path id="path38_27_" class="st2" d="M-37.7,55.592H-59l0.1,27.3v11.2v6.5v11.4v65v0.2c0,26.3,11.4,43.9,43.9,43.9
					c4.5,0,8.9-0.4,13.1-1.2v-19.1c-3.1,0.5-6.4,0.7-9.9,0.7c-17.9,0-25.8-9.2-25.8-24.6v-65h35.7v-17.8h-35.7L-37.7,55.592
					L-37.7,55.592z"/>
			</g>
			<path id="path40_105_" class="st2" d="M680.4,360.692h21.3v-124h-21.3V360.692L680.4,360.692z"/>
			<path id="path42_27_" class="st2" d="M680.4,219.592h21.3v-21.3h-21.3V219.592L680.4,219.592z"/>
		</g>
		<g>
			<g>
				<path class="st4" d="M295.914,435.936c0.124-0.049,0.246-0.103,0.367-0.158c-0.069,0.031-0.139,0.057-0.209,0.086
					C296.02,435.886,295.968,435.915,295.914,435.936z"/>
				<path class="st4" d="M294.358,436.373c0.101-0.018,0.201-0.035,0.301-0.056c-0.075,0.016-0.152,0.025-0.228,0.039
					C294.406,436.36,294.383,436.369,294.358,436.373z"/>
				<polygon class="st4" points="142.362,242.688 142.367,242.674 142.366,242.677 142.359,242.697 142.362,242.691 				"/>
				<path class="st4" d="M291.721,436.399c0.046,0.007,0.092,0.009,0.138,0.015c-0.012-0.002-0.025-0.005-0.037-0.007
					C291.789,436.402,291.754,436.404,291.721,436.399z"/>
				<polygon class="st4" points="166.358,253.156 166.358,253.156 271.338,387.748 				"/>
				<path class="st4" d="M293.061,436.496c0.253-0.003,0.506-0.016,0.757-0.043c-0.235,0.025-0.471,0.036-0.708,0.04
					C293.094,436.493,293.078,436.496,293.061,436.496z"/>
				<path class="st4" d="M297.406,435.16c0.068-0.046,0.134-0.095,0.202-0.143c-0.005,0.003-0.011,0.006-0.016,0.01
					C297.53,435.071,297.47,435.118,297.406,435.16z"/>
				<path class="st4" d="M289.349,435.628c0.028,0.014,0.057,0.026,0.085,0.04c-0.011-0.006-0.022-0.013-0.034-0.019
					C289.384,435.641,289.366,435.636,289.349,435.628z"/>
				<path class="st4" d="M290.746,436.169c-0.033-0.01-0.067-0.019-0.1-0.029c-0.036-0.011-0.073-0.015-0.109-0.026
					c-0.011-0.004-0.022-0.005-0.033-0.008c0.027,0.009,0.054,0.017,0.082,0.026c0.102,0.032,0.205,0.056,0.308,0.084
					c-0.046-0.013-0.091-0.03-0.137-0.043C290.754,436.171,290.75,436.17,290.746,436.169z"/>
				<path class="st4" d="M292.138,436.453c0.252,0.027,0.505,0.04,0.758,0.043c-0.016,0-0.031-0.003-0.047-0.003
					C292.612,436.489,292.374,436.478,292.138,436.453z"/>
				<path class="st4" d="M289.676,435.778c0.121,0.055,0.242,0.109,0.366,0.157c-0.054-0.021-0.105-0.05-0.158-0.072
					C289.814,435.835,289.744,435.809,289.676,435.778z"/>
				<path class="st4" d="M294.098,436.414c0.045-0.006,0.091-0.007,0.136-0.015c-0.033,0.005-0.068,0.003-0.101,0.008
					C294.121,436.409,294.109,436.412,294.098,436.414z"/>
				<polygon class="st4" points="443.684,242.696 443.681,242.687 443.682,242.692 				"/>
				<path class="st4" d="M296.522,435.668c0.027-0.014,0.055-0.025,0.083-0.039c-0.017,0.009-0.035,0.013-0.052,0.022
					C296.543,435.656,296.533,435.663,296.522,435.668z"/>
				<path class="st4" d="M291.297,436.316c0.1,0.021,0.201,0.039,0.301,0.057c-0.025-0.004-0.049-0.013-0.074-0.018
					C291.449,436.341,291.373,436.333,291.297,436.316z"/>
				<path class="st4" d="M461.766,298.388l-18.08-55.685c0.008,0.025,0.011,0.051,0.019,0.076c0.095,0.306,0.171,0.615,0.229,0.926
					c0.021,0.114,0.031,0.228,0.047,0.342c0.032,0.23,0.059,0.459,0.071,0.69c0.007,0.129,0.006,0.258,0.007,0.387
					c0.001,0.218-0.006,0.435-0.023,0.651c-0.01,0.131-0.022,0.261-0.039,0.392c-0.028,0.219-0.068,0.437-0.114,0.653
					c-0.026,0.121-0.048,0.243-0.079,0.363c-0.065,0.249-0.147,0.493-0.237,0.735c-0.03,0.082-0.052,0.165-0.085,0.246
					c-0.129,0.318-0.28,0.629-0.45,0.93c-0.044,0.079-0.099,0.152-0.147,0.229c-0.11,0.18-0.216,0.361-0.341,0.533
					c-0.03,0.042-0.066,0.077-0.097,0.118c-0.025,0.033-0.043,0.069-0.068,0.101L299.285,433.422
					c-0.008,0.01-0.018,0.019-0.026,0.03c-0.019,0.024-0.04,0.044-0.059,0.067c-0.032,0.04-0.064,0.08-0.097,0.119
					c-0.092,0.109-0.186,0.217-0.284,0.322c-0.022,0.024-0.045,0.046-0.068,0.069c-0.019,0.02-0.036,0.043-0.056,0.063
					s-0.038,0.04-0.058,0.06c-0.021,0.021-0.043,0.039-0.064,0.059c-0.106,0.104-0.216,0.203-0.329,0.302
					c-0.059,0.052-0.118,0.104-0.179,0.154c-0.007,0.006-0.014,0.013-0.021,0.019c-0.031,0.025-0.06,0.052-0.091,0.077
					c-0.067,0.053-0.138,0.101-0.207,0.152c-0.023,0.018-0.043,0.04-0.067,0.057l156.715-113.85
					C461.534,315.931,464.496,306.795,461.766,298.388z M444.988,308.181l-110.751,80.458l98.876-126.689l13.436,41.379
					C447.132,305.127,446.504,307.078,444.988,308.181z"/>
				<path class="st4" d="M295.305,436.142c-0.031,0.01-0.062,0.018-0.094,0.027c-0.004,0.001-0.007,0.002-0.011,0.003
					c-0.046,0.013-0.092,0.031-0.138,0.043c0.103-0.028,0.207-0.052,0.309-0.084c0.027-0.009,0.053-0.016,0.08-0.025
					c-0.011,0.004-0.023,0.005-0.034,0.008C295.38,436.126,295.341,436.131,295.305,436.142z"/>
				<path class="st4" d="M288.36,435.023c-0.004-0.003-0.009-0.005-0.013-0.008c-0.046-0.033-0.092-0.066-0.137-0.1
					c-0.069-0.052-0.142-0.1-0.209-0.154c-0.031-0.025-0.061-0.052-0.091-0.078c-0.006-0.005-0.012-0.012-0.019-0.017
					c-0.06-0.05-0.119-0.102-0.177-0.153c-0.114-0.1-0.226-0.201-0.334-0.306c-0.02-0.019-0.041-0.036-0.06-0.056
					c-0.021-0.021-0.041-0.042-0.061-0.063c-0.02-0.02-0.037-0.043-0.056-0.064c-0.021-0.022-0.043-0.044-0.064-0.066
					c-0.099-0.105-0.193-0.214-0.286-0.324c-0.032-0.038-0.062-0.076-0.093-0.114c-0.019-0.024-0.041-0.044-0.06-0.068
					c-0.009-0.011-0.019-0.021-0.028-0.032l-34.91-44.757l-110.768-80.48c-1.519-1.105-2.147-3.056-1.566-4.846l13.49-41.398
					l-9.253-11.863c-0.025-0.032-0.043-0.069-0.068-0.102c-0.03-0.04-0.065-0.074-0.094-0.115c-0.126-0.174-0.234-0.357-0.344-0.538
					c-0.046-0.076-0.1-0.148-0.144-0.226c-0.171-0.302-0.321-0.613-0.45-0.931c-0.033-0.082-0.056-0.166-0.086-0.248
					c-0.089-0.242-0.171-0.485-0.236-0.734c-0.031-0.12-0.054-0.241-0.079-0.362c-0.046-0.217-0.086-0.434-0.114-0.653
					c-0.017-0.131-0.029-0.261-0.039-0.393c-0.017-0.216-0.024-0.432-0.023-0.649c0-0.13,0-0.26,0.007-0.391
					c0.012-0.229,0.039-0.457,0.071-0.686c0.016-0.115,0.026-0.23,0.047-0.345c0.058-0.312,0.134-0.622,0.23-0.929
					c0.008-0.025,0.011-0.051,0.019-0.076l-18.147,55.689c-2.729,8.407,0.232,17.543,7.373,22.737l156.691,113.847
					c0.023,0.017,0.049,0.027,0.072,0.044c0.067,0.048,0.132,0.097,0.2,0.142c-0.064-0.043-0.124-0.09-0.187-0.134
					C288.361,435.024,288.36,435.023,288.36,435.023z"/>
			</g>
			<g>
				<path class="st5" d="M289.178,435.526c-0.261-0.141-0.514-0.297-0.757-0.466c-0.009-0.006-0.019-0.011-0.028-0.017
					c-0.011-0.007-0.022-0.013-0.033-0.02c0,0,0.001,0.001,0.001,0.001c0.063,0.044,0.123,0.092,0.187,0.134
					c0.038,0.025,0.077,0.051,0.116,0.075c0.076,0.048,0.156,0.092,0.234,0.138c0.017,0.01,0.034,0.021,0.052,0.031
					c0.087,0.051,0.171,0.106,0.261,0.154c0.005,0.003,0.009,0.006,0.014,0.008c0.02,0.01,0.04,0.017,0.06,0.027
					c-0.001,0-0.001-0.001-0.002-0.001C289.246,435.572,289.214,435.546,289.178,435.526z"/>
				<path class="st5" d="M443.684,242.696c0-0.001-0.001-0.003-0.002-0.004c0.009,0.029,0.014,0.058,0.023,0.087
					c-0.008-0.025-0.011-0.052-0.019-0.076L443.684,242.696z"/>
				<path class="st5" d="M436.071,253.156H419.68l-12.541,16.069L314.642,387.74l43.754-134.584h0l-43.754,134.585l-14.053,43.227
					c-0.001,0.003-0.003,0.006-0.004,0.01c-0.008,0.023-0.021,0.045-0.029,0.069c-0.12,0.358-0.265,0.704-0.43,1.035
					c-0.01,0.02-0.016,0.042-0.026,0.062c-0.009,0.017-0.019,0.033-0.028,0.05c0,0,0,0.001-0.001,0.001
					c-0.172,0.331-0.369,0.644-0.583,0.943c-0.008,0.011-0.014,0.024-0.022,0.036c-0.017,0.024-0.032,0.05-0.05,0.073
					c-0.015,0.021-0.035,0.038-0.05,0.059c-0.211,0.28-0.438,0.545-0.682,0.793c-0.008,0.008-0.014,0.018-0.022,0.026
					c-0.009,0.009-0.016,0.02-0.024,0.028c0.02-0.02,0.039-0.04,0.058-0.06s0.036-0.043,0.056-0.063
					c0.022-0.023,0.046-0.046,0.068-0.069c0.098-0.105,0.192-0.213,0.284-0.322c0.033-0.039,0.065-0.079,0.097-0.119
					c0.019-0.023,0.04-0.044,0.059-0.067c0.008-0.01,0.018-0.019,0.026-0.03l143.093-183.344c0.025-0.032,0.043-0.068,0.068-0.101
					C440.936,251.973,438.581,253.156,436.071,253.156z"/>
				<path class="st5" d="M296.421,435.706c-0.126,0.061-0.259,0.108-0.388,0.162c-0.139,0.058-0.273,0.124-0.416,0.174
					c-0.006,0.002-0.011,0.005-0.016,0.007c-0.022,0.008-0.042,0.019-0.064,0.027c0.061-0.021,0.122-0.043,0.182-0.065
					c0.066-0.024,0.131-0.049,0.196-0.074c0.054-0.021,0.105-0.05,0.159-0.072c0.069-0.029,0.14-0.055,0.209-0.086
					c0.081-0.036,0.161-0.071,0.241-0.11c0.01-0.005,0.02-0.012,0.031-0.017c-0.012,0.006-0.026,0.01-0.038,0.016
					C296.485,435.682,296.451,435.691,296.421,435.706z"/>
				<path class="st5" d="M142.359,242.699c-0.008,0.025-0.011,0.051-0.019,0.076c0.009-0.028,0.013-0.056,0.022-0.084
					c-0.001,0.002-0.002,0.004-0.002,0.006L142.359,242.699z"/>
				<path class="st5" d="M290.339,436.042c-0.135-0.047-0.261-0.11-0.393-0.164c-0.14-0.058-0.283-0.11-0.42-0.176
					c-0.029-0.014-0.061-0.023-0.09-0.038c-0.012-0.006-0.025-0.01-0.037-0.015c0.011,0.006,0.022,0.013,0.034,0.019
					c0.08,0.039,0.161,0.074,0.241,0.111c0.068,0.031,0.138,0.057,0.208,0.085c0.053,0.022,0.105,0.051,0.158,0.072
					c0.065,0.026,0.13,0.05,0.195,0.074c0.062,0.022,0.122,0.045,0.184,0.066c-0.022-0.008-0.042-0.019-0.065-0.027
					C290.35,436.047,290.345,436.044,290.339,436.042z"/>
				<path class="st5" d="M287.272,434.098c-0.244-0.249-0.472-0.514-0.683-0.794c-0.016-0.021-0.036-0.039-0.051-0.06
					c-0.018-0.024-0.033-0.049-0.05-0.073c-0.008-0.011-0.014-0.025-0.022-0.036c-0.213-0.299-0.409-0.611-0.581-0.941l0,0
					c0-0.001-0.001-0.001-0.001-0.002c-0.009-0.018-0.02-0.034-0.029-0.051c-0.01-0.02-0.016-0.043-0.026-0.063
					c-0.165-0.331-0.309-0.675-0.429-1.033c-0.008-0.025-0.021-0.047-0.03-0.071c-0.001-0.002-0.001-0.004-0.002-0.005
					l-14.03-43.219l-43.692-134.593h0l43.692,134.592l-104.98-134.592h-16.386c-2.51,0-4.866-1.183-6.376-3.181
					c0.025,0.033,0.043,0.069,0.068,0.102l9.253,11.863l98.844,126.725l34.91,44.757c0.009,0.011,0.019,0.021,0.028,0.032
					c0.019,0.024,0.041,0.044,0.06,0.068c0.031,0.038,0.062,0.076,0.093,0.114c0.092,0.11,0.187,0.219,0.286,0.324
					c0.021,0.022,0.043,0.044,0.064,0.066c0.019,0.02,0.036,0.044,0.056,0.064c0.02,0.021,0.04,0.042,0.061,0.063
					c-0.009-0.009-0.016-0.02-0.026-0.03C287.286,434.115,287.28,434.106,287.272,434.098z"/>
				<path class="st5" d="M294.111,436.409c-0.371,0.053-0.746,0.09-1.128,0.09c-0.001,0-0.002,0-0.004,0c0,0-0.001,0-0.001,0
					c0,0-0.001,0-0.002,0c0,0,0,0,0,0c-0.003,0-0.005,0-0.007,0c-0.381,0-0.756-0.038-1.125-0.091c-0.002,0-0.003,0-0.005,0
					c-0.005-0.001-0.011-0.001-0.017-0.001c0.012,0.002,0.025,0.005,0.037,0.007c0.067,0.009,0.133,0.024,0.2,0.031
					c0.026,0.003,0.053,0.005,0.079,0.008c0.236,0.025,0.473,0.036,0.711,0.04c0.016,0,0.031,0.003,0.047,0.003
					c0.026,0,0.052,0.005,0.078,0.005c0.001,0,0.003,0,0.004,0s0.003,0,0.004,0c0.026,0,0.052-0.004,0.078-0.005
					c0.016,0,0.033-0.003,0.049-0.003c0.237-0.004,0.473-0.015,0.708-0.04c0.026-0.003,0.052-0.004,0.078-0.007
					c0.067-0.008,0.134-0.022,0.201-0.032c0.012-0.002,0.024-0.005,0.036-0.006c-0.006,0.001-0.012,0-0.017,0.001
					C294.114,436.409,294.113,436.409,294.111,436.409z"/>
				<path class="st5" d="M288.167,434.879c-0.253-0.191-0.494-0.396-0.723-0.616c-0.012-0.011-0.025-0.02-0.037-0.031
					c-0.009-0.009-0.019-0.015-0.028-0.023c0.108,0.105,0.22,0.207,0.334,0.306c0.059,0.051,0.117,0.103,0.177,0.153
					c0.006,0.005,0.012,0.011,0.019,0.017c0.031,0.025,0.06,0.053,0.091,0.078c0.067,0.054,0.14,0.102,0.209,0.154
					c-0.012-0.009-0.022-0.021-0.034-0.03C288.172,434.884,288.17,434.881,288.167,434.879z"/>
				<path class="st5" d="M296.781,435.525c-0.037,0.02-0.07,0.047-0.107,0.066c0,0,0,0-0.001,0.001
					c0.019-0.01,0.039-0.016,0.058-0.026c0.004-0.002,0.008-0.005,0.013-0.008c0.095-0.051,0.183-0.109,0.276-0.162
					c0.013-0.008,0.025-0.015,0.038-0.022c0.078-0.046,0.158-0.09,0.234-0.138c0.039-0.025,0.077-0.05,0.115-0.075
					c0.064-0.042,0.123-0.089,0.186-0.133c-0.019,0.014-0.041,0.024-0.061,0.037C297.29,435.231,297.04,435.385,296.781,435.525z"/>
				<path class="st5" d="M291.266,436.292c-0.194-0.043-0.389-0.084-0.578-0.141c-0.014-0.004-0.028-0.006-0.042-0.01
					c0.033,0.01,0.066,0.019,0.1,0.029c0.004,0.001,0.008,0.002,0.012,0.003c0.046,0.013,0.091,0.03,0.137,0.043
					c0.083,0.022,0.166,0.048,0.25,0.068c0.051,0.012,0.102,0.022,0.154,0.033c0.075,0.016,0.152,0.025,0.228,0.039
					c-0.011-0.002-0.022-0.006-0.033-0.008C291.415,436.333,291.342,436.309,291.266,436.292z"/>
				<path class="st5" d="M298.51,434.266c-0.228,0.219-0.469,0.424-0.72,0.614c-0.002,0.002-0.004,0.004-0.007,0.006
					c-0.012,0.009-0.022,0.02-0.035,0.029c0.069-0.051,0.14-0.099,0.207-0.152c0.031-0.025,0.06-0.052,0.091-0.077
					c0.007-0.006,0.014-0.013,0.021-0.019c0.061-0.05,0.12-0.103,0.179-0.154c0.112-0.098,0.223-0.198,0.329-0.302
					c-0.011,0.011-0.024,0.02-0.036,0.031C298.529,434.25,298.519,434.257,298.51,434.266z"/>
				<path class="st5" d="M294.695,436.291c-0.078,0.017-0.153,0.042-0.231,0.056c-0.011,0.002-0.021,0.006-0.032,0.008
					c0.076-0.014,0.153-0.022,0.228-0.039c0.051-0.011,0.102-0.021,0.154-0.033c0.084-0.02,0.166-0.046,0.25-0.068
					c0.046-0.012,0.092-0.03,0.138-0.043c0.004-0.001,0.007-0.002,0.011-0.003c0.031-0.009,0.063-0.017,0.094-0.027
					c-0.013,0.004-0.026,0.006-0.039,0.009C295.079,436.208,294.887,436.249,294.695,436.291z"/>
			</g>
			<path class="st3" d="M444.052,244.737c-0.012-0.23-0.039-0.46-0.071-0.69c-0.016-0.114-0.026-0.229-0.047-0.342
				c-0.057-0.311-0.134-0.62-0.229-0.926c-0.009-0.029-0.013-0.058-0.023-0.087c0-0.002-0.001-0.003-0.001-0.005
				c0-0.001,0-0.002-0.001-0.002l-35.893-110.504c-1.963-5.822-7.366-9.729-13.56-9.68c-6.211,0.032-11.466,3.863-13.388,9.765
				l-34.069,104.89H239.27L205.136,132.26c-1.92-5.896-7.174-9.727-13.386-9.759c-0.025,0-0.05,0-0.075,0
				c-6.116,0-11.529,3.883-13.514,9.77l-35.795,110.405l-0.005,0.014c0,0.001,0,0.002-0.001,0.003
				c-0.009,0.028-0.013,0.056-0.022,0.084c-0.096,0.306-0.172,0.617-0.23,0.929c-0.021,0.115-0.031,0.23-0.047,0.345
				c-0.032,0.228-0.059,0.457-0.071,0.686c-0.007,0.13-0.007,0.26-0.007,0.391c-0.001,0.217,0.006,0.433,0.023,0.649
				c0.01,0.131,0.022,0.262,0.039,0.393c0.028,0.219,0.068,0.437,0.114,0.653c0.026,0.121,0.048,0.242,0.079,0.362
				c0.065,0.248,0.147,0.492,0.236,0.734c0.03,0.082,0.053,0.167,0.086,0.248c0.129,0.318,0.279,0.629,0.45,0.931
				c0.044,0.077,0.098,0.15,0.144,0.226c0.111,0.181,0.218,0.365,0.344,0.538c0.029,0.041,0.064,0.075,0.094,0.115
				c1.51,1.998,3.866,3.181,6.376,3.181h16.386h0h61.288h0l43.692,134.593l14.03,43.219l0.001,0.003
				c0.008,0.026,0.022,0.048,0.031,0.074c0.12,0.358,0.264,0.702,0.429,1.033c0.01,0.02,0.016,0.043,0.026,0.063
				c0.009,0.017,0.02,0.034,0.029,0.051c0,0,0.001,0.001,0.001,0.001c0.172,0.33,0.368,0.643,0.581,0.942
				c0.008,0.011,0.014,0.025,0.022,0.036c0.017,0.024,0.032,0.049,0.05,0.073c0.016,0.021,0.035,0.039,0.051,0.06
				c0.211,0.28,0.439,0.546,0.683,0.794c0.008,0.008,0.013,0.017,0.021,0.024c0.009,0.009,0.016,0.021,0.026,0.03
				c0.019,0.02,0.041,0.037,0.06,0.056c0.009,0.008,0.019,0.015,0.028,0.023c0.012,0.011,0.025,0.02,0.037,0.031
				c0.229,0.22,0.47,0.426,0.723,0.616c0.003,0.002,0.005,0.005,0.008,0.007c0.012,0.009,0.022,0.02,0.034,0.03
				c0.045,0.034,0.091,0.067,0.137,0.1c0.004,0.003,0.009,0.005,0.013,0.008c0.01,0.008,0.022,0.013,0.033,0.02
				c0.009,0.006,0.018,0.01,0.027,0.016c0.001,0.001,0.003,0.002,0.004,0.003c0.242,0.168,0.494,0.323,0.754,0.464
				c0.036,0.02,0.069,0.045,0.105,0.064c0.001,0,0.001,0.001,0.002,0.001c0.022,0.011,0.043,0.025,0.065,0.036
				c0.016,0.008,0.035,0.013,0.051,0.021c0.012,0.006,0.025,0.01,0.037,0.015c0.029,0.014,0.061,0.023,0.09,0.038
				c0.136,0.065,0.28,0.118,0.42,0.176c0.131,0.054,0.258,0.117,0.393,0.164c0.006,0.002,0.011,0.005,0.017,0.007
				c0.022,0.008,0.042,0.02,0.065,0.027c0.028,0.01,0.055,0.021,0.084,0.03c0.011,0.003,0.022,0.005,0.033,0.008
				c0.035,0.011,0.073,0.016,0.109,0.026c0.013,0.004,0.028,0.006,0.042,0.01c0.189,0.057,0.384,0.098,0.578,0.141
				c0.076,0.017,0.15,0.041,0.226,0.055c0.011,0.002,0.022,0.006,0.033,0.008c0.025,0.005,0.049,0.014,0.074,0.018
				c0.042,0.007,0.081,0.02,0.123,0.026c0.033,0.005,0.068,0.003,0.101,0.008c0.005,0.001,0.011,0,0.017,0.001
				c0.002,0,0.003,0,0.005,0c0.37,0.053,0.744,0.09,1.125,0.091c0.003,0,0.005,0,0.007,0c0,0,0,0,0,0c0.001,0,0.001,0,0.002,0
				c0,0,0.001,0,0.001,0c0.001,0,0.002,0,0.004,0c0.382,0,0.758-0.037,1.128-0.09c0.001,0,0.003,0,0.004,0
				c0.006-0.001,0.012,0,0.017-0.001c0.033-0.005,0.068-0.003,0.101-0.008c0.042-0.007,0.082-0.019,0.124-0.026
				c0.025-0.004,0.048-0.013,0.073-0.018c0.011-0.002,0.021-0.006,0.032-0.008c0.078-0.015,0.154-0.039,0.231-0.056
				c0.192-0.042,0.384-0.083,0.571-0.139c0.013-0.004,0.026-0.006,0.039-0.009c0.037-0.011,0.076-0.016,0.112-0.027
				c0.011-0.004,0.023-0.005,0.034-0.008c0.029-0.009,0.057-0.021,0.086-0.031c0.022-0.008,0.042-0.019,0.064-0.027
				c0.006-0.002,0.011-0.005,0.016-0.007c0.142-0.05,0.277-0.116,0.416-0.174c0.13-0.054,0.262-0.102,0.388-0.162
				c0.031-0.015,0.064-0.024,0.094-0.039c0.012-0.006,0.026-0.01,0.038-0.016c0.017-0.009,0.035-0.013,0.052-0.022
				c0.023-0.012,0.045-0.026,0.068-0.037c0,0,0.001,0,0.001-0.001c0.037-0.019,0.07-0.046,0.107-0.066
				c0.259-0.14,0.509-0.294,0.75-0.461c0.02-0.013,0.041-0.023,0.061-0.037c0.005-0.004,0.011-0.006,0.016-0.01
				c0.023-0.017,0.05-0.028,0.073-0.045c0.024-0.017,0.044-0.04,0.067-0.057c0.012-0.009,0.022-0.021,0.035-0.029
				c0.002-0.002,0.004-0.004,0.007-0.006c0.252-0.19,0.492-0.395,0.72-0.614c0.009-0.009,0.02-0.016,0.029-0.024
				c0.011-0.011,0.025-0.02,0.036-0.031c0.021-0.02,0.043-0.039,0.064-0.059c0.009-0.009,0.016-0.02,0.024-0.028
				c0.008-0.008,0.014-0.018,0.022-0.026c0.244-0.248,0.471-0.513,0.682-0.793c0.016-0.021,0.035-0.038,0.05-0.059
				c0.018-0.024,0.033-0.049,0.05-0.073c0.008-0.011,0.014-0.024,0.022-0.036c0.213-0.299,0.41-0.613,0.583-0.943
				c0,0,0-0.001,0.001-0.001c0.009-0.017,0.02-0.033,0.028-0.05c0.01-0.02,0.016-0.042,0.026-0.062
				c0.166-0.331,0.31-0.676,0.43-1.035c0.009-0.025,0.022-0.048,0.031-0.073l0.002-0.005l14.053-43.227l43.754-134.585h0h61.284
				h16.392c2.509,0,4.865-1.182,6.375-3.179c0.031-0.041,0.067-0.077,0.097-0.118c0.125-0.172,0.231-0.354,0.341-0.533
				c0.047-0.077,0.102-0.151,0.147-0.229c0.171-0.302,0.321-0.613,0.45-0.93c0.033-0.081,0.055-0.164,0.085-0.246
				c0.089-0.242,0.172-0.487,0.237-0.735c0.031-0.12,0.054-0.242,0.079-0.363c0.046-0.217,0.086-0.434,0.114-0.653
				c0.017-0.13,0.029-0.261,0.039-0.392c0.017-0.217,0.024-0.434,0.023-0.651C444.058,244.995,444.058,244.866,444.052,244.737z
				 M341.571,253.156l-48.587,149.452l-25.71-79.198l-22.806-70.254H341.571z M160.976,237.156l30.678-94.623l30.791,94.623H160.976
				z M363.594,237.156l30.734-94.622l30.734,94.622H363.594z"/>
		</g>
	</g>
</g>
<g id="spacing_guides" xmlns:sketch="http://www.bohemiancoding.com/sketch/ns" class="st14">
	<path id="path40_145_" sketch:type="MSShapeGroup" class="st15" d="M-1,0v124h1268V0H-1L-1,0z"/>
	<path id="path40_144_" sketch:type="MSShapeGroup" class="st15" d="M-1,435v124h1268V435H-1L-1,435z"/>
	<path id="path40_143_" sketch:type="MSShapeGroup" class="st15" d="M261.69,434.551h62v-310h-62V434.551L261.69,434.551z"/>
	<path id="path40_142_" sketch:type="MSShapeGroup" class="st15" d="M462.2,560h62V-1h-62V560L462.2,560z"/>
	<text transform="matrix(1 0 0 1 256.2529 195.0001)" class="st16 st17 st18">H: 2.5 x</text>
	<text transform="matrix(1 0 0 1 468.4727 282.8322)" class="st16 st17 st18">1/2 x</text>
	<text transform="matrix(1 0 0 1 621.2881 500.4977)" class="st16 st17 st18">1x</text>
	<text transform="matrix(1 0 0 1 621.2881 65.4988)" class="st16 st17 st18">1x</text>
	<path id="path40_141_" sketch:type="MSShapeGroup" class="st15" d="M0,560h124V-1H0V560L0,560z"/>
	<text transform="matrix(1 0 0 1 51.2881 282.8322)" class="st16 st17 st18">1x</text>
	<path id="path40_140_" sketch:type="MSShapeGroup" class="st15" d="M1142,560h124V-1h-124V560L1142,560z"/>
	<text transform="matrix(1 0 0 1 1191.2881 282.8322)" class="st16 st17 st18">1x</text>
</g>
</svg>
