<?xml version="1.0" encoding="utf-8"?>
<!-- Generator: Adobe Illustrator 24.2.1, SVG Export Plug-In . SVG Version: 6.00 Build 0)  -->
<svg version="1.1" xmlns="http://www.w3.org/2000/svg" xmlns:xlink="http://www.w3.org/1999/xlink" x="0px" y="0px"
	 viewBox="0 0 865 784" style="enable-background:new 0 0 865 784;" xml:space="preserve">
<style type="text/css">
	.st0{fill:#FAFAFA;}
	.st1{fill:#F0F0F0;}
	.st2{fill:#FFFFFF;}
	.st3{fill:#E24329;}
	.st4{fill:#FCA326;}
	.st5{fill:#FC6D26;}
	.st6{fill:#8C929D;}
	.st7{fill:#2E2E2E;}
	.st8{fill:none;stroke:#FCA326;stroke-width:16;stroke-linecap:round;stroke-linejoin:round;stroke-miterlimit:10;}
	.st9{fill:none;stroke:#FC6D26;stroke-width:16;stroke-linecap:round;stroke-linejoin:round;stroke-miterlimit:10;}
	.st10{fill:none;stroke:#E24329;stroke-width:16;stroke-linecap:round;stroke-linejoin:round;stroke-miterlimit:10;}
	.st11{fill:none;stroke:#F0F0F0;stroke-miterlimit:10;}
	.st12{fill:#231F20;}
	.st13{fill:none;stroke:#231F20;stroke-width:16;stroke-linecap:round;stroke-linejoin:round;stroke-miterlimit:10;}
	.st14{display:none;}
	.st15{display:inline;opacity:0.1;fill:#E828E3;}
	.st16{display:inline;}
	.st17{opacity:0.1;fill:#E828E3;}
	.st18{font-family:'SourceSansPro-Semibold';}
	.st19{font-size:24px;}
	.st20{display:inline;fill:#DB3B21;}
	.st21{display:inline;fill:#FC6D26;}
	.st22{display:inline;fill:#2E2E2E;}
	.st23{display:inline;fill:#6E49CB;}
	.st24{display:inline;fill:#380D75;}
	.st25{display:inline;fill:#FCA121;}
	.st26{opacity:0.6;fill:none;stroke:#231F20;stroke-width:2;stroke-miterlimit:10;stroke-dasharray:12,6;}
	.st27{fill:none;stroke:#444444;stroke-width:1.5339;stroke-miterlimit:10;}
</style>
<g id="logo_art">
	<g>
		<g>
			<path id="path14_10_" class="st2" d="M439.246,496.833h-21.8l0.1,162.5h88.3v-20.1h-66.5L439.246,496.833L439.246,496.833z"/>
			<g id="g24_10_" transform="translate(977.327440, 143.284396)">
				<path id="path26_10_" class="st2" d="M-387.454,487.533c-5.5,5.7-14.6,11.4-27,11.4c-16.6,0-23.3-8.2-23.3-18.9
					c0-16.1,11.2-23.8,35-23.8c4.5,0,11.7,0.5,15.4,1.2v30.1H-387.454z M-410.054,389.033c-17.6,0-33.8,6.2-46.4,16.7l7.7,13.4
					c8.9-5.2,19.8-10.4,35.5-10.4c17.9,0,25.8,9.2,25.8,24.6v7.9c-3.5-0.7-10.7-1.2-15.1-1.2c-38.2,0-57.6,13.4-57.6,41.4
					c0,25.1,15.4,37.7,38.7,37.7c15.7,0,30.8-7.2,36-18.9l4,15.9h15.4v-83.2C-366.154,406.633-377.554,389.033-410.054,389.033
					L-410.054,389.033z"/>
			</g>
			<g id="g28_10_" transform="translate(1099.766904, 143.128930)">
				<path id="path30_10_" class="st2" d="M-418.154,499.833c-8.2,0-15.4-1-20.8-3.5v-67.3v-7.8c7.4-6.2,16.6-10.7,28.3-10.7
					c21.1,0,29.2,14.9,29.2,39C-381.454,483.733-394.554,499.833-418.154,499.833 M-408.954,389.233c-19.5,0-30,13.3-30,13.3v-21
					l-0.1-27.8h-9.8h-11.5l0.1,158.5c10.7,4.5,25.3,6.9,41.2,6.9c40.7,0,60.3-26,60.3-70.9
					C-358.854,412.733-376.954,389.233-408.954,389.233"/>
			</g>
			<g id="g32_10_" transform="translate(584.042117, 143.630796)">
				<path id="path34_10_" class="st2" d="M-382.154,370.833c19.3,0,31.8,6.4,39.9,12.9l9.4-16.3c-12.7-11.2-29.9-17.2-48.3-17.2
					c-46.4,0-78.9,28.3-78.9,85.4c0,59.8,35.1,83.1,75.2,83.1c20.1,0,37.2-4.7,48.4-9.4l-0.5-63.9v-7.5v-12.6h-59.5v20.1h38
					l0.5,48.5c-5,2.5-13.6,4.5-25.3,4.5c-32.2,0-53.8-20.3-53.8-63C-437.154,391.933-414.854,370.833-382.154,370.833"/>
			</g>
			<g id="g36_10_" transform="translate(793.569045, 142.577463)">
				<path id="path38_10_" class="st2" d="M-438.154,354.233h-21.3l0.1,27.3v11.2v6.5v11.4v65v0.2c0,26.3,11.4,43.9,43.9,43.9
					c4.5,0,8.9-0.4,13.1-1.2v-19.1c-3.1,0.5-6.4,0.7-9.9,0.7c-17.9,0-25.8-9.2-25.8-24.6v-65h35.7v-17.8h-35.7L-438.154,354.233
					L-438.154,354.233z"/>
			</g>
			<path id="path40_119_" class="st2" d="M279.946,659.333h21.3v-124h-21.3V659.333L279.946,659.333z"/>
			<path id="path42_10_" class="st2" d="M279.946,518.233h21.3v-21.3h-21.3V518.233L279.946,518.233z"/>
		</g>
		<g>
			<g>
				<path class="st4" d="M435.42,435.154c0.124-0.049,0.245-0.103,0.367-0.158c-0.068,0.031-0.139,0.057-0.208,0.086
					C435.525,435.105,435.474,435.133,435.42,435.154z"/>
				<path class="st4" d="M433.866,435.591c0.101-0.018,0.201-0.035,0.301-0.056c-0.075,0.016-0.152,0.025-0.228,0.038
					C433.914,435.577,433.891,435.586,433.866,435.591z"/>
				<polygon class="st4" points="282.138,242.246 282.143,242.232 282.141,242.235 282.135,242.255 282.137,242.249 				"/>
				<path class="st4" d="M431.235,435.617c0.046,0.007,0.092,0.009,0.138,0.015c-0.012-0.002-0.025-0.005-0.037-0.007
					C431.302,435.62,431.268,435.622,431.235,435.617z"/>
				<polygon class="st4" points="306.092,252.695 306.091,252.695 410.887,387.051 				"/>
				<path class="st4" d="M432.572,435.713c0.253-0.003,0.505-0.016,0.756-0.043c-0.234,0.025-0.47,0.036-0.707,0.039
					C432.605,435.71,432.589,435.713,432.572,435.713z"/>
				<path class="st4" d="M436.909,434.38c0.068-0.046,0.134-0.095,0.201-0.143c-0.005,0.003-0.011,0.006-0.016,0.01
					C437.033,434.291,436.973,434.337,436.909,434.38z"/>
				<path class="st4" d="M428.867,434.846c0.028,0.014,0.057,0.026,0.085,0.04c-0.011-0.006-0.022-0.013-0.034-0.019
					C428.901,434.859,428.883,434.855,428.867,434.846z"/>
				<path class="st4" d="M430.261,435.387c-0.033-0.009-0.067-0.019-0.099-0.029c-0.035-0.011-0.073-0.015-0.108-0.026
					c-0.011-0.004-0.022-0.005-0.033-0.008c0.027,0.009,0.054,0.017,0.082,0.026c0.102,0.032,0.205,0.056,0.307,0.084
					c-0.046-0.013-0.091-0.029-0.136-0.043C430.268,435.389,430.265,435.388,430.261,435.387z"/>
				<path class="st4" d="M431.651,435.671c0.251,0.027,0.504,0.04,0.757,0.043c-0.016,0-0.031-0.003-0.047-0.003
					C432.123,435.706,431.886,435.695,431.651,435.671z"/>
				<path class="st4" d="M429.192,434.997c0.121,0.055,0.242,0.108,0.365,0.157c-0.053-0.021-0.105-0.049-0.158-0.072
					C429.331,435.053,429.261,435.028,429.192,434.997z"/>
				<path class="st4" d="M433.607,435.632c0.045-0.006,0.091-0.007,0.136-0.015c-0.033,0.005-0.068,0.003-0.101,0.008
					C433.63,435.627,433.618,435.63,433.607,435.632z"/>
				<polygon class="st4" points="582.93,242.254 582.927,242.245 582.928,242.25 				"/>
				<path class="st4" d="M436.027,434.886c0.027-0.014,0.055-0.025,0.082-0.039c-0.017,0.009-0.035,0.013-0.052,0.022
					C436.048,434.875,436.038,434.881,436.027,434.886z"/>
				<path class="st4" d="M430.811,435.534c0.1,0.021,0.2,0.039,0.301,0.057c-0.025-0.004-0.048-0.013-0.073-0.018
					C430.963,435.559,430.886,435.55,430.811,435.534z"/>
				<path class="st4" d="M600.981,297.848l-18.049-55.587c0.008,0.025,0.011,0.051,0.019,0.076c0.095,0.305,0.171,0.614,0.228,0.924
					c0.021,0.114,0.031,0.227,0.047,0.341c0.032,0.229,0.059,0.459,0.071,0.689c0.007,0.129,0.006,0.258,0.007,0.387
					c0.001,0.218-0.006,0.434-0.023,0.65c-0.01,0.131-0.022,0.261-0.039,0.392c-0.028,0.219-0.068,0.436-0.114,0.652
					c-0.026,0.121-0.048,0.242-0.079,0.362c-0.065,0.249-0.147,0.492-0.236,0.734c-0.03,0.081-0.052,0.165-0.085,0.245
					c-0.129,0.318-0.279,0.628-0.45,0.929c-0.044,0.078-0.099,0.152-0.146,0.229c-0.11,0.179-0.216,0.361-0.34,0.532
					c-0.03,0.041-0.066,0.077-0.097,0.118c-0.025,0.033-0.043,0.069-0.068,0.101L438.785,432.645
					c-0.008,0.01-0.018,0.019-0.026,0.03c-0.019,0.024-0.04,0.044-0.059,0.067c-0.032,0.04-0.064,0.079-0.097,0.119
					c-0.091,0.109-0.185,0.216-0.283,0.321c-0.022,0.024-0.045,0.046-0.067,0.069c-0.019,0.02-0.036,0.043-0.056,0.063
					s-0.038,0.04-0.058,0.06c-0.021,0.02-0.043,0.039-0.064,0.059c-0.106,0.104-0.216,0.203-0.328,0.301
					c-0.059,0.052-0.118,0.104-0.179,0.154c-0.007,0.006-0.014,0.013-0.021,0.019c-0.031,0.025-0.059,0.052-0.09,0.077
					c-0.067,0.053-0.138,0.101-0.206,0.152c-0.023,0.018-0.043,0.04-0.067,0.057l156.44-113.65
					C600.748,315.36,603.705,306.24,600.981,297.848z M584.232,307.623L473.675,387.94l98.702-126.467l13.412,41.307
					C586.372,304.576,585.745,306.523,584.232,307.623z"/>
				<path class="st4" d="M434.812,435.36c-0.031,0.009-0.062,0.018-0.094,0.027c-0.004,0.001-0.007,0.002-0.011,0.003
					c-0.046,0.013-0.092,0.03-0.138,0.043c0.103-0.028,0.206-0.052,0.308-0.084c0.027-0.009,0.053-0.016,0.08-0.025
					c-0.011,0.004-0.023,0.005-0.034,0.008C434.887,435.344,434.848,435.349,434.812,435.36z"/>
				<path class="st4" d="M427.879,434.243c-0.004-0.003-0.009-0.005-0.013-0.008c-0.046-0.033-0.091-0.066-0.137-0.099
					c-0.069-0.052-0.141-0.1-0.209-0.154c-0.031-0.025-0.06-0.052-0.091-0.078c-0.006-0.005-0.012-0.012-0.019-0.017
					c-0.06-0.05-0.118-0.101-0.177-0.153c-0.114-0.099-0.226-0.2-0.333-0.306c-0.02-0.019-0.041-0.036-0.06-0.056
					c-0.02-0.02-0.04-0.042-0.061-0.063c-0.02-0.02-0.037-0.043-0.056-0.064c-0.021-0.022-0.043-0.044-0.064-0.066
					c-0.099-0.105-0.193-0.213-0.285-0.324c-0.032-0.038-0.062-0.076-0.093-0.114c-0.019-0.024-0.041-0.044-0.06-0.068
					c-0.009-0.011-0.019-0.021-0.028-0.032l-34.848-44.678l-110.573-80.339c-1.516-1.103-2.144-3.05-1.563-4.838l13.466-41.325
					l-9.237-11.842c-0.025-0.032-0.043-0.068-0.068-0.101c-0.03-0.039-0.065-0.074-0.094-0.115
					c-0.126-0.173-0.233-0.356-0.344-0.537c-0.046-0.076-0.1-0.148-0.144-0.225c-0.171-0.301-0.32-0.611-0.45-0.929
					c-0.033-0.081-0.055-0.165-0.086-0.248c-0.089-0.242-0.17-0.484-0.235-0.732c-0.031-0.12-0.054-0.241-0.079-0.361
					c-0.046-0.216-0.086-0.433-0.114-0.652c-0.017-0.131-0.029-0.261-0.039-0.392c-0.017-0.216-0.024-0.431-0.023-0.648
					c0-0.13,0-0.26,0.007-0.39c0.012-0.229,0.039-0.456,0.071-0.685c0.016-0.115,0.026-0.23,0.047-0.344
					c0.057-0.312,0.134-0.621,0.229-0.928c0.008-0.025,0.011-0.051,0.019-0.076l-18.115,55.591
					c-2.725,8.392,0.232,17.512,7.36,22.697l156.416,113.647c0.023,0.017,0.049,0.027,0.072,0.044
					c0.067,0.048,0.132,0.097,0.2,0.142c-0.064-0.043-0.124-0.09-0.187-0.134C427.88,434.244,427.879,434.243,427.879,434.243z"/>
			</g>
			<g>
				<path class="st5" d="M428.695,434.745c-0.261-0.141-0.513-0.296-0.756-0.465c-0.009-0.006-0.019-0.011-0.028-0.017
					c-0.011-0.007-0.022-0.013-0.033-0.02c0,0,0.001,0.001,0.001,0.001c0.063,0.044,0.123,0.091,0.187,0.134
					c0.038,0.025,0.077,0.05,0.116,0.075c0.076,0.048,0.156,0.092,0.233,0.138c0.017,0.01,0.034,0.02,0.051,0.03
					c0.087,0.051,0.171,0.106,0.26,0.154c0.005,0.003,0.009,0.006,0.014,0.008c0.02,0.01,0.04,0.017,0.06,0.027
					c-0.001,0-0.001-0.001-0.002-0.001C428.764,434.791,428.732,434.765,428.695,434.745z"/>
				<path class="st5" d="M582.93,242.254c0-0.001-0.001-0.003-0.002-0.004c0.009,0.029,0.014,0.058,0.023,0.087
					c-0.008-0.025-0.011-0.051-0.019-0.076L582.93,242.254z"/>
				<path class="st5" d="M575.331,252.695h-16.363l-12.519,16.041l-92.335,118.307l43.677-134.348h0l-43.677,134.349l-14.029,43.151
					c-0.001,0.003-0.003,0.006-0.004,0.009c-0.008,0.023-0.02,0.045-0.029,0.068c-0.12,0.358-0.264,0.702-0.43,1.033
					c-0.01,0.02-0.016,0.042-0.026,0.062c-0.009,0.017-0.019,0.033-0.028,0.05c0,0,0,0.001-0.001,0.001
					c-0.172,0.33-0.368,0.643-0.582,0.941c-0.008,0.011-0.014,0.024-0.022,0.036c-0.017,0.024-0.032,0.049-0.05,0.073
					c-0.015,0.021-0.035,0.038-0.05,0.059c-0.21,0.279-0.437,0.544-0.68,0.792c-0.008,0.008-0.014,0.018-0.022,0.026
					c-0.009,0.009-0.015,0.02-0.024,0.028c0.02-0.02,0.039-0.04,0.058-0.06s0.036-0.043,0.056-0.063
					c0.022-0.023,0.045-0.046,0.067-0.069c0.098-0.105,0.192-0.212,0.283-0.321c0.033-0.039,0.065-0.079,0.097-0.119
					c0.019-0.023,0.04-0.044,0.059-0.067c0.008-0.01,0.018-0.019,0.026-0.03l142.841-183.022c0.025-0.032,0.043-0.068,0.068-0.101
					C580.187,251.515,577.836,252.695,575.331,252.695z"/>
				<path class="st5" d="M435.926,434.925c-0.126,0.06-0.258,0.108-0.388,0.162c-0.139,0.058-0.273,0.124-0.415,0.174
					c-0.006,0.002-0.011,0.005-0.016,0.007c-0.022,0.008-0.042,0.019-0.064,0.027c0.061-0.021,0.121-0.043,0.182-0.065
					c0.066-0.024,0.131-0.048,0.196-0.074c0.054-0.021,0.105-0.049,0.159-0.072c0.069-0.029,0.14-0.055,0.208-0.086
					c0.08-0.036,0.161-0.071,0.24-0.11c0.01-0.005,0.02-0.012,0.031-0.017c-0.012,0.006-0.026,0.01-0.038,0.016
					C435.989,434.901,435.956,434.91,435.926,434.925z"/>
				<path class="st5" d="M282.134,242.257c-0.008,0.025-0.011,0.051-0.019,0.076c0.009-0.028,0.013-0.056,0.022-0.084
					c-0.001,0.002-0.002,0.004-0.002,0.006L282.134,242.257z"/>
				<path class="st5" d="M429.855,435.26c-0.134-0.047-0.261-0.11-0.392-0.164c-0.14-0.058-0.283-0.11-0.419-0.175
					c-0.029-0.014-0.061-0.023-0.09-0.038c-0.012-0.006-0.025-0.009-0.037-0.015c0.011,0.006,0.022,0.013,0.034,0.019
					c0.079,0.039,0.16,0.074,0.241,0.11c0.068,0.031,0.138,0.057,0.207,0.085c0.053,0.022,0.105,0.051,0.158,0.072
					c0.065,0.026,0.13,0.05,0.195,0.074c0.061,0.022,0.122,0.045,0.184,0.066c-0.022-0.008-0.042-0.019-0.065-0.027
					C429.866,435.265,429.86,435.262,429.855,435.26z"/>
				<path class="st5" d="M426.793,433.32c-0.244-0.248-0.471-0.513-0.681-0.793c-0.016-0.021-0.035-0.039-0.051-0.059
					c-0.018-0.024-0.033-0.049-0.05-0.073c-0.008-0.011-0.014-0.025-0.022-0.036c-0.212-0.298-0.408-0.61-0.58-0.939l0,0
					c0-0.001-0.001-0.001-0.001-0.002c-0.009-0.018-0.02-0.034-0.029-0.051c-0.01-0.02-0.016-0.043-0.026-0.063
					c-0.165-0.33-0.309-0.674-0.428-1.031c-0.008-0.025-0.021-0.047-0.029-0.071c-0.001-0.002-0.001-0.004-0.002-0.005
					l-14.005-43.143l-43.616-134.356h0l43.616,134.356L306.091,252.695h-16.357c-2.506,0-4.857-1.181-6.365-3.176
					c0.025,0.033,0.043,0.069,0.068,0.101l9.237,11.842l98.67,126.502l34.848,44.678c0.009,0.011,0.019,0.021,0.028,0.032
					c0.019,0.024,0.041,0.044,0.06,0.068c0.031,0.038,0.062,0.076,0.093,0.114c0.092,0.11,0.187,0.218,0.285,0.324
					c0.021,0.022,0.043,0.044,0.064,0.066c0.019,0.02,0.036,0.044,0.056,0.064c0.02,0.021,0.04,0.042,0.061,0.063
					c-0.009-0.009-0.016-0.02-0.026-0.029C426.807,433.336,426.801,433.327,426.793,433.32z"/>
				<path class="st5" d="M433.62,435.627c-0.37,0.053-0.745,0.09-1.126,0.09c-0.001,0-0.002,0-0.004,0c0,0-0.001,0-0.001,0
					c0,0-0.001,0-0.002,0c0,0,0,0,0,0c-0.003,0-0.005,0-0.007,0c-0.381,0-0.754-0.038-1.123-0.09c-0.002,0-0.003,0-0.005,0
					c-0.005-0.001-0.011-0.001-0.017-0.001c0.012,0.002,0.025,0.005,0.037,0.007c0.067,0.009,0.133,0.024,0.199,0.031
					c0.026,0.003,0.053,0.005,0.079,0.008c0.235,0.025,0.472,0.036,0.71,0.04c0.016,0,0.031,0.003,0.047,0.003
					c0.026,0,0.052,0.005,0.078,0.005c0.001,0,0.003,0,0.004,0s0.003,0,0.004,0c0.026,0,0.052-0.004,0.078-0.005
					c0.016,0,0.033-0.003,0.049-0.003c0.236-0.004,0.472-0.015,0.707-0.039c0.026-0.003,0.052-0.004,0.078-0.007
					c0.067-0.008,0.133-0.022,0.2-0.032c0.012-0.002,0.024-0.005,0.035-0.006c-0.006,0.001-0.012,0-0.017,0.001
					C433.623,435.627,433.622,435.627,433.62,435.627z"/>
				<path class="st5" d="M427.686,434.099c-0.253-0.19-0.493-0.396-0.722-0.615c-0.012-0.011-0.025-0.02-0.037-0.031
					c-0.009-0.009-0.019-0.015-0.028-0.023c0.107,0.105,0.219,0.206,0.333,0.306c0.059,0.051,0.117,0.103,0.177,0.153
					c0.006,0.005,0.012,0.011,0.019,0.017c0.031,0.025,0.06,0.053,0.091,0.078c0.067,0.054,0.139,0.102,0.209,0.154
					c-0.012-0.009-0.022-0.02-0.034-0.029C427.692,434.104,427.689,434.101,427.686,434.099z"/>
				<path class="st5" d="M436.285,434.744c-0.037,0.02-0.07,0.047-0.107,0.066c0,0,0,0-0.001,0.001
					c0.019-0.01,0.039-0.016,0.058-0.026c0.004-0.002,0.008-0.005,0.013-0.008c0.095-0.05,0.183-0.108,0.275-0.162
					c0.013-0.008,0.025-0.015,0.038-0.022c0.078-0.046,0.158-0.09,0.234-0.138c0.039-0.025,0.077-0.049,0.115-0.075
					c0.064-0.042,0.123-0.089,0.185-0.133c-0.019,0.014-0.041,0.024-0.061,0.037C436.793,434.451,436.543,434.604,436.285,434.744z"
					/>
				<path class="st5" d="M430.78,435.509c-0.194-0.043-0.388-0.084-0.577-0.141c-0.014-0.004-0.028-0.006-0.041-0.01
					c0.033,0.01,0.066,0.019,0.099,0.029c0.004,0.001,0.008,0.002,0.012,0.003c0.046,0.013,0.091,0.03,0.136,0.043
					c0.083,0.022,0.165,0.048,0.249,0.068c0.051,0.012,0.102,0.022,0.153,0.033c0.075,0.016,0.152,0.025,0.227,0.038
					c-0.011-0.002-0.022-0.006-0.033-0.008C430.929,435.55,430.856,435.526,430.78,435.509z"/>
				<path class="st5" d="M438.011,433.487c-0.228,0.218-0.468,0.423-0.719,0.613c-0.002,0.002-0.004,0.004-0.007,0.006
					c-0.012,0.009-0.022,0.02-0.034,0.029c0.068-0.051,0.14-0.099,0.206-0.152c0.031-0.025,0.06-0.052,0.09-0.077
					c0.007-0.006,0.014-0.013,0.021-0.019c0.061-0.05,0.12-0.102,0.179-0.154c0.112-0.098,0.222-0.197,0.328-0.301
					c-0.011,0.011-0.024,0.02-0.036,0.03C438.031,433.472,438.02,433.479,438.011,433.487z"/>
				<path class="st5" d="M434.203,435.509c-0.078,0.017-0.153,0.041-0.231,0.056c-0.011,0.002-0.021,0.006-0.032,0.008
					c0.076-0.014,0.152-0.022,0.228-0.038c0.051-0.011,0.102-0.021,0.153-0.033c0.084-0.02,0.166-0.046,0.249-0.068
					c0.046-0.012,0.092-0.03,0.138-0.043c0.004-0.001,0.007-0.002,0.011-0.003c0.031-0.009,0.063-0.017,0.094-0.027
					c-0.013,0.004-0.026,0.006-0.039,0.009C434.586,435.425,434.394,435.466,434.203,435.509z"/>
			</g>
			<path class="st3" d="M583.297,244.291c-0.012-0.23-0.039-0.46-0.071-0.689c-0.016-0.114-0.026-0.228-0.047-0.341
				c-0.057-0.311-0.134-0.619-0.228-0.924c-0.009-0.029-0.013-0.058-0.023-0.087c0-0.002-0.001-0.003-0.001-0.005
				c0-0.001,0-0.002-0.001-0.002l-35.83-110.31c-1.959-5.812-7.353-9.711-13.536-9.663c-6.201,0.032-11.446,3.856-13.364,9.748
				l-34.009,104.706H378.875l-34.074-104.712c-1.917-5.886-7.162-9.71-13.362-9.742c-0.025,0-0.05,0-0.075,0
				c-6.105,0-11.509,3.876-13.49,9.752l-35.732,110.211l-0.005,0.014c0,0.001,0,0.002-0.001,0.003
				c-0.009,0.028-0.013,0.056-0.022,0.084c-0.096,0.306-0.172,0.616-0.229,0.928c-0.021,0.114-0.031,0.23-0.047,0.344
				c-0.032,0.228-0.059,0.456-0.071,0.685c-0.007,0.13-0.007,0.26-0.007,0.39c-0.001,0.217,0.006,0.433,0.023,0.648
				c0.01,0.131,0.022,0.262,0.039,0.392c0.028,0.219,0.068,0.436,0.114,0.652c0.026,0.121,0.048,0.242,0.079,0.361
				c0.065,0.248,0.147,0.491,0.235,0.732c0.03,0.082,0.053,0.166,0.086,0.248c0.129,0.317,0.279,0.628,0.45,0.929
				c0.044,0.077,0.098,0.149,0.144,0.225c0.111,0.181,0.218,0.364,0.344,0.537c0.029,0.04,0.064,0.075,0.094,0.115
				c1.508,1.995,3.859,3.176,6.365,3.176h16.357h0h61.18h0l43.616,134.356l14.005,43.143l0.001,0.003
				c0.008,0.026,0.022,0.048,0.03,0.074c0.12,0.357,0.263,0.701,0.428,1.031c0.01,0.02,0.016,0.043,0.026,0.063
				c0.009,0.017,0.02,0.034,0.029,0.051c0,0,0.001,0.001,0.001,0.001c0.171,0.329,0.368,0.642,0.58,0.94
				c0.008,0.011,0.014,0.025,0.022,0.036c0.017,0.024,0.032,0.049,0.05,0.073c0.015,0.021,0.035,0.039,0.051,0.059
				c0.211,0.28,0.438,0.545,0.681,0.793c0.008,0.008,0.013,0.017,0.021,0.024c0.009,0.009,0.016,0.02,0.026,0.029
				c0.019,0.02,0.041,0.037,0.06,0.056c0.009,0.008,0.019,0.015,0.028,0.023c0.012,0.011,0.025,0.02,0.037,0.031
				c0.229,0.219,0.469,0.425,0.722,0.615c0.003,0.002,0.005,0.005,0.008,0.007c0.012,0.009,0.022,0.02,0.034,0.029
				c0.045,0.034,0.091,0.067,0.137,0.099c0.004,0.003,0.009,0.005,0.013,0.008c0.01,0.008,0.022,0.013,0.033,0.02
				c0.009,0.006,0.018,0.01,0.027,0.016c0.001,0.001,0.003,0.002,0.004,0.003c0.242,0.168,0.493,0.322,0.753,0.463
				c0.036,0.02,0.068,0.045,0.105,0.064c0.001,0,0.001,0.001,0.002,0.001c0.022,0.011,0.043,0.025,0.065,0.036
				c0.016,0.008,0.034,0.013,0.051,0.021c0.012,0.006,0.025,0.009,0.037,0.015c0.029,0.014,0.06,0.023,0.09,0.038
				c0.136,0.065,0.279,0.118,0.419,0.175c0.131,0.054,0.258,0.117,0.392,0.164c0.006,0.002,0.011,0.005,0.017,0.007
				c0.022,0.008,0.042,0.02,0.065,0.027c0.028,0.01,0.055,0.021,0.084,0.03c0.011,0.003,0.022,0.005,0.033,0.008
				c0.035,0.011,0.073,0.016,0.108,0.026c0.013,0.004,0.028,0.006,0.041,0.01c0.189,0.057,0.383,0.098,0.577,0.141
				c0.076,0.017,0.149,0.041,0.226,0.055c0.011,0.002,0.022,0.006,0.033,0.008c0.025,0.005,0.048,0.014,0.073,0.018
				c0.041,0.007,0.081,0.02,0.123,0.026c0.033,0.005,0.068,0.003,0.1,0.008c0.005,0.001,0.011,0,0.017,0.001
				c0.002,0,0.003,0,0.005,0c0.369,0.053,0.743,0.09,1.123,0.09c0.003,0,0.005,0,0.007,0c0,0,0,0,0,0c0.001,0,0.001,0,0.002,0
				c0,0,0.001,0,0.001,0c0.001,0,0.002,0,0.004,0c0.382,0,0.756-0.037,1.126-0.09c0.001,0,0.003,0,0.004,0
				c0.006-0.001,0.012,0,0.017-0.001c0.033-0.005,0.068-0.003,0.101-0.008c0.042-0.007,0.082-0.019,0.123-0.026
				c0.025-0.004,0.048-0.013,0.073-0.018c0.011-0.002,0.021-0.006,0.032-0.008c0.078-0.015,0.153-0.039,0.231-0.056
				c0.192-0.042,0.384-0.083,0.57-0.139c0.013-0.004,0.026-0.006,0.039-0.009c0.037-0.011,0.076-0.016,0.112-0.027
				c0.011-0.004,0.023-0.005,0.034-0.008c0.029-0.009,0.057-0.021,0.085-0.031c0.022-0.008,0.042-0.019,0.064-0.027
				c0.006-0.002,0.011-0.005,0.016-0.007c0.142-0.05,0.276-0.116,0.415-0.174c0.129-0.054,0.262-0.102,0.388-0.162
				c0.031-0.015,0.064-0.024,0.094-0.039c0.012-0.006,0.026-0.01,0.038-0.016c0.017-0.009,0.035-0.013,0.052-0.022
				c0.023-0.012,0.045-0.026,0.068-0.037c0,0,0.001,0,0.001-0.001c0.037-0.019,0.07-0.046,0.107-0.066
				c0.258-0.14,0.508-0.293,0.749-0.46c0.02-0.013,0.041-0.023,0.061-0.037c0.005-0.004,0.011-0.006,0.016-0.01
				c0.023-0.017,0.05-0.028,0.073-0.045c0.024-0.017,0.044-0.039,0.067-0.057c0.012-0.009,0.022-0.02,0.034-0.029
				c0.002-0.002,0.004-0.004,0.007-0.006c0.251-0.19,0.491-0.394,0.719-0.613c0.009-0.009,0.02-0.016,0.029-0.024
				c0.011-0.011,0.024-0.02,0.036-0.03c0.021-0.02,0.043-0.039,0.064-0.059c0.009-0.009,0.016-0.02,0.024-0.028
				c0.008-0.008,0.014-0.018,0.022-0.026c0.243-0.248,0.47-0.512,0.68-0.792c0.015-0.02,0.035-0.038,0.05-0.059
				c0.018-0.024,0.033-0.049,0.05-0.073c0.008-0.011,0.014-0.024,0.022-0.036c0.213-0.299,0.41-0.611,0.582-0.941
				c0,0,0-0.001,0.001-0.001c0.009-0.017,0.02-0.033,0.028-0.05c0.01-0.02,0.016-0.042,0.026-0.062
				c0.165-0.33,0.309-0.675,0.43-1.033c0.009-0.025,0.022-0.048,0.03-0.073l0.002-0.005l14.029-43.151l43.677-134.349h0h61.176
				h16.363c2.505,0,4.856-1.18,6.363-3.174c0.031-0.041,0.067-0.077,0.097-0.118c0.125-0.172,0.231-0.353,0.34-0.532
				c0.047-0.077,0.102-0.151,0.146-0.229c0.171-0.301,0.321-0.611,0.45-0.929c0.033-0.08,0.055-0.164,0.085-0.245
				c0.089-0.242,0.171-0.486,0.236-0.734c0.031-0.12,0.053-0.242,0.079-0.362c0.046-0.216,0.086-0.433,0.114-0.652
				c0.017-0.13,0.029-0.261,0.039-0.392c0.017-0.216,0.024-0.433,0.023-0.65C583.304,244.549,583.304,244.42,583.297,244.291z
				 M480.996,252.695l-48.502,149.189l-25.665-79.059l-22.766-70.13H480.996z M300.719,236.723l30.624-94.457l30.736,94.457H300.719
				z M502.981,236.723l30.68-94.456l30.68,94.456H502.981z"/>
		</g>
	</g>
</g>
<g id="spacing_guides" xmlns:sketch="http://www.bohemiancoding.com/sketch/ns" class="st14">
	<path id="path40_160_" sketch:type="MSShapeGroup" class="st15" d="M0.5,0v124h864V0H0.5L0.5,0z"/>
	<path id="path40_159_" sketch:type="MSShapeGroup" class="st15" d="M0.5,434.5v62h864v-62H0.5L0.5,434.5z"/>
	<path id="path40_158_" sketch:type="MSShapeGroup" class="st15" d="M401.5,434.551h62V124.333h-62V434.551L401.5,434.551z"/>
	<g class="st16">
		<text transform="matrix(1 0 0 1 396.7528 204.9996)" class="st18 st19">H: 2.5 x</text>
	</g>
	<g class="st16">
		<text transform="matrix(1 0 0 1 408.2225 469.9979)" class="st18 st19">1/2 x</text>
	</g>
	<path id="path40_157_" sketch:type="MSShapeGroup" class="st15" d="M0.5,659.46v124h864v-124H0.5L0.5,659.46z"/>
	<g class="st16">
		<text transform="matrix(1 0 0 1 420.788 726.4655)" class="st18 st19">1x</text>
	</g>
	<g class="st16">
		<text transform="matrix(1 0 0 1 420.788 65.4981)" class="st18 st19">1x</text>
	</g>
	<path id="path40_156_" sketch:type="MSShapeGroup" class="st15" d="M-0.015,783h124V1h-124V783L-0.015,783z"/>
	<g class="st16">
		<text transform="matrix(1 0 0 1 51.2751 395.3321)" class="st18 st19">1x</text>
	</g>
	<path id="path40_155_" sketch:type="MSShapeGroup" class="st15" d="M741.027,783h124V1h-124V783L741.027,783z"/>
	<g class="st16">
		<text transform="matrix(1 0 0 1 790.3169 395.3321)" class="st18 st19">1x</text>
	</g>
</g>
</svg>
