<?xml version="1.0" encoding="utf-8"?>
<!-- Generator: Adobe Illustrator 23.0.1, SVG Export Plug-In . SVG Version: 6.00 Build 0)  -->
<svg version="1.1" xmlns="http://www.w3.org/2000/svg" xmlns:xlink="http://www.w3.org/1999/xlink" x="0px" y="0px" width="808px"
	 height="292px" viewBox="0 0 808 292" style="enable-background:new 0 0 808 292;" xml:space="preserve">
<style type="text/css">
	.st0{display:none;}
	.st1{display:inline;opacity:0.1;fill:#FF00FF;}
	.st2{fill:none;stroke:#14125B;stroke-width:5.4;stroke-linecap:round;stroke-miterlimit:10;}
	.st3{fill:none;stroke:url(#SVGID_1_);stroke-width:5.4;stroke-linecap:round;stroke-miterlimit:10;}
	.st4{fill:#14125B;}
	.st5{fill:#FFFFFF;}
	.st6{fill:url(#SVGID_2_);}
	.st7{fill:none;stroke:url(#SVGID_3_);stroke-width:5.4;stroke-linecap:round;stroke-miterlimit:10;}
	.st8{clip-path:url(#SVGID_5_);fill:url(#SVGID_6_);}
	.st9{clip-path:url(#SVGID_8_);fill:url(#SVGID_9_);}
	.st10{clip-path:url(#SVGID_11_);fill:url(#SVGID_12_);}
	.st11{clip-path:url(#SVGID_14_);fill:url(#SVGID_15_);}
	.st12{clip-path:url(#SVGID_17_);fill:url(#SVGID_18_);}
	.st13{clip-path:url(#SVGID_20_);fill:url(#SVGID_21_);}
	.st14{fill:#844B6E;}
	.st15{opacity:0.5;}
	.st16{fill:url(#SVGID_22_);}
	.st17{fill:url(#SVGID_23_);}
	.st18{fill:none;stroke:#FFFFFF;stroke-width:2.6505;stroke-linecap:round;stroke-linejoin:round;stroke-miterlimit:10;}
	.st19{fill:#DA3B21;}
	.st20{fill:#FB6D26;}
	.st21{fill:#FBA021;}
	.st22{fill:#231F20;}
</style>
<g id="spacing" class="st0">
	
		<rect x="107.178" y="218.782" transform="matrix(-1.836970e-16 1 -1 -1.836970e-16 385.46 152.1039)" class="st1" width="19" height="100"/>
	
		<rect x="374.04" y="218.782" transform="matrix(-1.836970e-16 1 -1 -1.836970e-16 652.3218 -114.7579)" class="st1" width="19" height="100"/>
</g>
<g id="Layer_1">
	<g>
		<g>
			<path class="st4" d="M269.376,159.128L257.24,121.84c-0.055-0.325-0.154-0.643-0.281-0.954l-24.307-74.834
				c-1.226-3.638-4.492-5.981-8.327-5.981c-0.017,0-0.034,0-0.049,0c-3.836,0.02-7.081,2.385-8.267,6.029l-23.367,71.942h-74.466
				l-23.41-71.945c-1.186-3.64-4.43-6.005-8.266-6.025c-0.017,0-0.033,0-0.049,0c-3.835,0-7.101,2.343-8.344,6.031l-24.294,74.93
				c-0.025,0.066-0.057,0.128-0.079,0.195l-12.336,37.904c-1.738,5.352,0.148,11.169,4.694,14.475l106.594,77.454
				c0.804,0.584,1.742,0.869,2.674,0.869c0.688,0,1.365-0.173,1.992-0.479c0.025-0.012,0.049-0.024,0.074-0.036
				c0.019-0.009,0.038-0.017,0.056-0.026c0.03-0.016,0.058-0.037,0.088-0.053c0.056-0.03,0.113-0.06,0.167-0.093
				c0.095-0.058,0.19-0.116,0.281-0.182c0.024-0.016,0.05-0.028,0.073-0.045l106.596-77.411
				C269.23,170.3,271.115,164.484,269.376,159.128z M111.548,127.189l31.503,96.937l-75.612-96.937H111.548z M167.732,224.142
				l31.508-96.953h44.145l-59.519,76.278L167.732,224.142z M224.339,49.927l22.123,68.114h-44.247L224.339,49.927z M189.679,127.146
				l-34.271,105.458l-34.27-105.458H189.679z M86.436,49.927l22.164,68.114H64.352L86.436,49.927z M51.443,166.241
				c-1.347-0.98-1.904-2.707-1.388-4.296l9.685-29.756l72.161,92.514L51.443,166.241z M259.333,166.239l-80.464,58.434l6.015-7.709
				l66.151-84.77l9.682,29.748C261.233,163.535,260.676,165.262,259.333,166.239z"/>
		</g>
		<g>
			<path class="st4" d="M548.338,123.232c-7.819,0-14.972,2.782-19.08,9.806c-4.372-7.024-11.129-9.806-19.212-9.806
				c-14.043,0-25.172,10.07-25.172,26.63v36.039c0,4.108,3.178,7.417,7.285,7.417c4.108,0,7.288-3.31,7.288-7.417V149.73
				c0-8.744,5.035-12.983,11.261-12.983c6.229,0,11.261,4.24,11.261,12.983v36.171c0,4.108,3.18,7.417,7.288,7.417
				c3.976,0,7.288-3.31,7.288-7.417V149.73c0-8.744,4.9-12.983,11.129-12.983c6.358,0,11.264,4.24,11.264,12.983v36.171
				c0,4.108,3.178,7.417,7.285,7.417s7.285-3.31,7.285-7.417v-36.039C573.51,133.302,562.383,123.232,548.338,123.232z"/>
			<path class="st4" d="M653.501,123.232c-7.819,0-14.975,2.782-19.08,9.806c-4.375-7.024-11.129-9.806-19.212-9.806
				c-14.045,0-25.172,10.07-25.172,26.63v36.039c0,4.108,3.18,7.417,7.285,7.417c4.108,0,7.285-3.31,7.285-7.417V149.73
				c0-8.744,5.035-12.983,11.264-12.983s11.264,4.24,11.264,12.983v36.171c0,4.108,3.178,7.417,7.285,7.417
				c3.976,0,7.285-3.31,7.285-7.417V149.73c0-8.744,4.903-12.983,11.132-12.983c6.358,0,11.261,4.24,11.261,12.983v36.171
				c0,4.108,3.18,7.417,7.288,7.417c4.108,0,7.285-3.31,7.285-7.417v-36.039C678.673,133.302,667.544,123.232,653.501,123.232z"/>
			<path class="st4" d="M702.459,98.457c-4.771,0-8.612,3.841-8.612,8.612c0,4.636,3.841,8.612,8.612,8.612s8.614-3.976,8.614-8.612
				C711.073,102.298,707.229,98.457,702.459,98.457z"/>
			<path class="st4" d="M702.459,123.364c-4.108,0-7.288,3.18-7.288,7.288v55.249c0,4.108,3.18,7.417,7.288,7.417
				s7.288-3.31,7.288-7.417v-55.249C709.747,126.545,706.566,123.364,702.459,123.364z"/>
			<path class="st4" d="M760.486,179.675c-9.01,0-15.501-5.962-15.501-17.622V138.07h15.501c3.711,0,6.757-3.046,6.757-6.754
				c0-3.844-3.046-6.757-6.757-6.757h-15.501v-9.938c0-4.108-3.18-7.288-7.288-7.288s-7.288,3.18-7.288,7.288v9.938h-4.768
				c-3.711,0-6.757,2.914-6.757,6.757c0,3.709,3.046,6.754,6.757,6.754h4.768v23.983c0,19.209,12.986,31.266,30.077,31.266
				c3.711,0,6.757-3.046,6.757-6.889C767.243,182.72,764.198,179.675,760.486,179.675z"/>
			<path class="st4" d="M452.241,126.684c-12.272-5.865-26.29-4.625-38.446,3.401c-8.544,5.639-15.156,14.242-20.991,21.832
				l-0.499,0.65c-12.611,16.398-22.907,27.848-40.176,25.635c-7.566-0.96-15.549-4.817-19.867-9.603
				c-7.835-8.676-10.711-19.816-7.895-30.565c3.318-12.654,13.013-22.428,24.123-24.32c12.778-2.175,23.207,1.162,31.02,9.919
				c2.738,3.073,7.447,3.339,10.52,0.601s3.342-7.45,0.601-10.52c-11.134-12.485-26.994-17.7-44.642-14.695
				c-16.781,2.86-31.263,17.021-36.036,35.236c-4.056,15.466,0.148,32.039,11.248,44.33c6.736,7.466,17.87,12.986,29.053,14.404
				c27.088,3.439,42.578-16.657,53.866-31.333l0.501-0.655c5.121-6.663,10.924-14.215,17.385-18.476
				c5.517-3.644,14.129-7.016,23.813-2.391c4.865,2.323,8.598,5.908,10.242,9.827c3.032,7.237,2.078,14.503-2.757,21.015
				c-4.517,6.086-13.194,9.229-20.625,7.444c-4.93-1.172-9.523-4.137-11.703-7.55c-2.218-3.466-6.822-4.48-10.293-2.267
				c-3.466,2.218-4.482,6.825-2.267,10.293c4.28,6.695,12.059,11.938,20.808,14.021c2.52,0.601,5.1,0.892,7.679,0.892
				c10.921,0,21.864-5.188,28.368-13.951c8.029-10.814,9.638-23.479,4.536-35.659C466.723,136.845,460.486,130.624,452.241,126.684z
				"/>
		</g>
	</g>
</g>
</svg>
