<svg width="1920" height="510" viewBox="0 0 1920 510" fill="none" xmlns="http://www.w3.org/2000/svg">
<path fill-rule="evenodd" clip-rule="evenodd" d="M273.25 382V472H271.75V382H273.25Z" fill="#380D75"/>
<path fill-rule="evenodd" clip-rule="evenodd" d="M267.197 275.243L271.97 270.47C272.263 270.177 272.737 270.177 273.03 270.47L277.803 275.243C278.096 275.536 278.096 276.01 277.803 276.303C277.51 276.596 277.036 276.596 276.743 276.303L273.25 272.811V351H271.75V272.811L268.257 276.303C267.964 276.596 267.49 276.596 267.197 276.303C266.904 276.01 266.904 275.536 267.197 275.243Z" fill="#380D75"/>
<path fill-rule="evenodd" clip-rule="evenodd" d="M273 398.4V402H272V398.4H273ZM273 384V391.2H272V384H273ZM273 369.6V376.8H272V369.6H273ZM273 355.2V362.4H272V355.2H273ZM273 340.8V348H272V340.8H273ZM273 330V333.6H272V330H273Z" fill="#380D75"/>
<path fill-rule="evenodd" clip-rule="evenodd" d="M427.25 342V472H425.75V342H427.25Z" fill="#380D75"/>
<path fill-rule="evenodd" clip-rule="evenodd" d="M421.197 171.243L425.97 166.47C426.263 166.177 426.737 166.177 427.03 166.47L431.803 171.243C432.096 171.536 432.096 172.01 431.803 172.303C431.51 172.596 431.036 172.596 430.743 172.303L427.25 168.811V247H425.75V168.811L422.257 172.303C421.964 172.596 421.49 172.596 421.197 172.303C420.904 172.01 420.904 171.536 421.197 171.243Z" fill="#380D75"/>
<path fill-rule="evenodd" clip-rule="evenodd" d="M578.25 337V472H576.75V337H578.25Z" fill="#380D75"/>
<path fill-rule="evenodd" clip-rule="evenodd" d="M572.197 184.243L576.97 179.47C577.263 179.177 577.737 179.177 578.03 179.47L582.803 184.243C583.096 184.536 583.096 185.01 582.803 185.303C582.51 185.596 582.036 185.596 581.743 185.303L578.25 181.811V260H576.75V181.811L573.257 185.303C572.964 185.596 572.49 185.596 572.197 185.303C571.904 185.01 571.904 184.536 572.197 184.243Z" fill="#380D75"/>
<path fill-rule="evenodd" clip-rule="evenodd" d="M733.25 299V472H731.75V299H733.25Z" fill="#380D75"/>
<path fill-rule="evenodd" clip-rule="evenodd" d="M728.964 118.828L732.146 115.646C732.342 115.451 732.658 115.451 732.854 115.646L736.036 118.828C736.231 119.024 736.231 119.34 736.036 119.536C735.84 119.731 735.524 119.731 735.328 119.536L733 117.207V196H732V117.207L729.672 119.536C729.476 119.731 729.16 119.731 728.964 119.536C728.769 119.34 728.769 119.024 728.964 118.828Z" fill="#380D75"/>
<path fill-rule="evenodd" clip-rule="evenodd" d="M886.25 309V472H884.75V309H886.25Z" fill="#380D75"/>
<path fill-rule="evenodd" clip-rule="evenodd" d="M1039.25 259V472H1037.75V259H1039.25Z" fill="#380D75"/>
<path fill-rule="evenodd" clip-rule="evenodd" d="M1192.25 319V472H1190.75V319H1192.25Z" fill="#380D75"/>
<path fill-rule="evenodd" clip-rule="evenodd" d="M1345.25 355.5V472H1343.75V355.5H1345.25Z" fill="#380D75"/>
<path fill-rule="evenodd" clip-rule="evenodd" d="M1499.25 338.5V472H1497.75V338.5H1499.25Z" fill="#380D75"/>
<path fill-rule="evenodd" clip-rule="evenodd" d="M1648.25 328.5V472H1646.75V328.5H1648.25Z" fill="#380D75"/>
<path fill-rule="evenodd" clip-rule="evenodd" d="M880.197 142.243L884.97 137.47C885.263 137.177 885.737 137.177 886.03 137.47L890.803 142.243C891.096 142.536 891.096 143.01 890.803 143.303C890.51 143.596 890.036 143.596 889.743 143.303L886.25 139.811V218H884.75V139.811L881.257 143.303C880.964 143.596 880.49 143.596 880.197 143.303C879.904 143.01 879.904 142.536 880.197 142.243Z" fill="#380D75"/>
<path fill-rule="evenodd" clip-rule="evenodd" d="M1033.2 125.243L1037.97 120.47C1038.26 120.177 1038.74 120.177 1039.03 120.47L1043.8 125.243C1044.1 125.536 1044.1 126.01 1043.8 126.303C1043.51 126.596 1043.04 126.596 1042.74 126.303L1039.25 122.811V201H1037.75V122.811L1034.26 126.303C1033.96 126.596 1033.49 126.596 1033.2 126.303C1032.9 126.01 1032.9 125.536 1033.2 125.243Z" fill="#380D75"/>
<path fill-rule="evenodd" clip-rule="evenodd" d="M1186.2 88.2426L1190.97 83.4697C1191.26 83.1768 1191.74 83.1768 1192.03 83.4697L1196.8 88.2426C1197.1 88.5355 1197.1 89.0104 1196.8 89.3033C1196.51 89.5962 1196.04 89.5962 1195.74 89.3033L1192.25 85.8107V164H1190.75V85.8107L1187.26 89.3033C1186.96 89.5962 1186.49 89.5962 1186.2 89.3033C1185.9 89.0104 1185.9 88.5355 1186.2 88.2426Z" fill="#380D75"/>
<path fill-rule="evenodd" clip-rule="evenodd" d="M1339.2 96.2426L1343.97 91.4697C1344.26 91.1768 1344.74 91.1768 1345.03 91.4697L1349.8 96.2426C1350.1 96.5355 1350.1 97.0104 1349.8 97.3033C1349.51 97.5962 1349.04 97.5962 1348.74 97.3033L1345.25 93.8107V172H1343.75V93.8107L1340.26 97.3033C1339.96 97.5962 1339.49 97.5962 1339.2 97.3033C1338.9 97.0104 1338.9 96.5355 1339.2 96.2426Z" fill="#380D75"/>
<path fill-rule="evenodd" clip-rule="evenodd" d="M1493.2 71.2426L1497.97 66.4697C1498.26 66.1768 1498.74 66.1768 1499.03 66.4697L1503.8 71.2426C1504.1 71.5355 1504.1 72.0104 1503.8 72.3033C1503.51 72.5962 1503.04 72.5962 1502.74 72.3033L1499.25 68.8107V146H1497.75V68.8107L1494.26 72.3033C1493.96 72.5962 1493.49 72.5962 1493.2 72.3033C1492.9 72.0104 1492.9 71.5355 1493.2 71.2426Z" fill="#380D75"/>
<path fill-rule="evenodd" clip-rule="evenodd" d="M1642.2 87.2426L1646.97 82.4697C1647.26 82.1768 1647.74 82.1768 1648.03 82.4697L1652.8 87.2426C1653.1 87.5355 1653.1 88.0104 1652.8 88.3033C1652.51 88.5962 1652.04 88.5962 1651.74 88.3033L1648.25 84.8107V163H1646.75V84.8107L1643.26 88.3033C1642.96 88.5962 1642.49 88.5962 1642.2 88.3033C1641.9 88.0104 1641.9 87.5355 1642.2 87.2426Z" fill="#380D75"/>
<path fill-rule="evenodd" clip-rule="evenodd" d="M427 359.194V363H426V359.194H427ZM427 343.972V351.583H426V343.972H427ZM427 328.75V336.361H426V328.75H427ZM427 313.528V321.139H426V313.528H427ZM427 298.306V305.917H426V298.306H427ZM427 283.083V290.694H426V283.083H427ZM427 267.861V275.472H426V267.861H427ZM427 252.639V260.25H426V252.639H427ZM427 237.417V245.028H426V237.417H427ZM427 226V229.806H426V226H427Z" fill="#380D75"/>
<path fill-rule="evenodd" clip-rule="evenodd" d="M578 352.821V357H577V352.821H578ZM578 336.107V344.464H577V336.107H578ZM578 319.393V327.75H577V319.393H578ZM578 302.679V311.036H577V302.679H578ZM578 285.964V294.321H577V285.964H578ZM578 269.25V277.607H577V269.25H578ZM578 252.536V260.893H577V252.536H578ZM578 240V244.179H577V240H578Z" fill="#380D75"/>
<path fill-rule="evenodd" clip-rule="evenodd" d="M733 315.014V319H732V315.014H733ZM733 299.069V307.042H732V299.069H733ZM733 283.125V291.097H732V283.125H733ZM733 267.181V275.153H732V267.181H733ZM733 251.236V259.208H732V251.236H733ZM733 235.292V243.264H732V235.292H733ZM733 219.347V227.319H732V219.347H733ZM733 203.403V211.375H732V203.403H733ZM733 187.458V195.431H732V187.458H733ZM733 175.5V179.486H732V175.5H733Z" fill="#380D75"/>
<path fill-rule="evenodd" clip-rule="evenodd" d="M886 324.875V329H885V324.875H886ZM886 308.375V316.625H885V308.375H886ZM886 291.875V300.125H885V291.875H886ZM886 275.375V283.625H885V275.375H886ZM886 258.875V267.125H885V258.875H886ZM886 242.375V250.625H885V242.375H886ZM886 225.875V234.125H885V225.875H886ZM886 209.375V217.625H885V209.375H886ZM886 197V201.125H885V197H886Z" fill="#380D75"/>
<path fill-rule="evenodd" clip-rule="evenodd" d="M1039 275.833V280H1038V275.833H1039ZM1039 259.167V267.5H1038V259.167H1039ZM1039 242.5V250.833H1038V242.5H1039ZM1039 225.833V234.167H1038V225.833H1039ZM1039 209.167V217.5H1038V209.167H1039ZM1039 192.5V200.833H1038V192.5H1039ZM1039 180V184.167H1038V180H1039Z" fill="#380D75"/>
<path fill-rule="evenodd" clip-rule="evenodd" d="M1192 334.917V339H1191V334.917H1192ZM1192 318.583V326.75H1191V318.583H1192ZM1192 302.25V310.417H1191V302.25H1192ZM1192 285.917V294.083H1191V285.917H1192ZM1192 269.583V277.75H1191V269.583H1192ZM1192 253.25V261.417H1191V253.25H1192ZM1192 236.917V245.083H1191V236.917H1192ZM1192 220.583V228.75H1191V220.583H1192ZM1192 204.25V212.417H1191V204.25H1192ZM1192 187.917V196.083H1191V187.917H1192ZM1192 171.583V179.75H1191V171.583H1192ZM1192 155.25V163.417H1191V155.25H1192ZM1192 143V147.083H1191V143H1192Z" fill="#380D75"/>
<path fill-rule="evenodd" clip-rule="evenodd" d="M1345 371.982V376H1344V371.982H1345ZM1345 355.911V363.946H1344V355.911H1345ZM1345 339.839V347.875H1344V339.839H1345ZM1345 323.768V331.804H1344V323.768H1345ZM1345 307.696V315.732H1344V307.696H1345ZM1345 291.625V299.661H1344V291.625H1345ZM1345 275.554V283.589H1344V275.554H1345ZM1345 259.482V267.518H1344V259.482H1345ZM1345 243.411V251.446H1344V243.411H1345ZM1345 227.339V235.375H1344V227.339H1345ZM1345 211.268V219.304H1344V211.268H1345ZM1345 195.196V203.232H1344V195.196H1345ZM1345 179.125V187.161H1344V179.125H1345ZM1345 163.054V171.089H1344V163.054H1345ZM1345 151V155.018H1344V151H1345Z" fill="#380D75"/>
<path fill-rule="evenodd" clip-rule="evenodd" d="M1499 355.117V359H1498V355.117H1499ZM1499 339.583V347.35H1498V339.583H1499ZM1499 324.05V331.817H1498V324.05H1499ZM1499 308.517V316.283H1498V308.517H1499ZM1499 292.983V300.75H1498V292.983H1499ZM1499 277.45V285.217H1498V277.45H1499ZM1499 261.917V269.683H1498V261.917H1499ZM1499 246.383V254.15H1498V246.383H1499ZM1499 230.85V238.617H1498V230.85H1499ZM1499 215.317V223.083H1498V215.317H1499ZM1499 199.783V207.55H1498V199.783H1499ZM1499 184.25V192.017H1498V184.25H1499ZM1499 168.717V176.483H1498V168.717H1499ZM1499 153.183V160.95H1498V153.183H1499ZM1499 137.65V145.417H1498V137.65H1499ZM1499 126V129.883H1498V126H1499Z" fill="#380D75"/>
<path fill-rule="evenodd" clip-rule="evenodd" d="M1529 341.923V346H1528V341.923H1529ZM1529 325.615V333.769H1528V325.615H1529ZM1529 309.308V317.462H1528V309.308H1529ZM1529 293V301.154H1528V293H1529ZM1529 276.692V284.846H1528V276.692H1529ZM1529 260.385V268.538H1528V260.385H1529ZM1529 244.077V252.231H1528V244.077H1529ZM1529 227.769V235.923H1528V227.769H1529ZM1529 211.462V219.615H1528V211.462H1529ZM1529 195.154V203.308H1528V195.154H1529ZM1529 178.846V187H1528V178.846H1529ZM1529 162.538V170.692H1528V162.538H1529ZM1529 146.231V154.385H1528V146.231H1529ZM1529 134V138.077H1528V134H1529Z" fill="#380D75"/>
<path fill-rule="evenodd" clip-rule="evenodd" d="M1551.5 342.562V346.5H1550.5V342.562H1551.5ZM1551.5 326.812V334.688H1550.5V326.812H1551.5ZM1551.5 311.062V318.938H1550.5V311.062H1551.5ZM1551.5 295.312V303.188H1550.5V295.312H1551.5ZM1551.5 279.562V287.438H1550.5V279.562H1551.5ZM1551.5 263.812V271.688H1550.5V263.812H1551.5ZM1551.5 248.062V255.938H1550.5V248.062H1551.5ZM1551.5 232.312V240.188H1550.5V232.312H1551.5ZM1551.5 216.562V224.438H1550.5V216.562H1551.5ZM1551.5 200.812V208.688H1550.5V200.812H1551.5ZM1551.5 185.062V192.938H1550.5V185.062H1551.5ZM1551.5 169.312V177.188H1550.5V169.312H1551.5ZM1551.5 153.562V161.438H1550.5V153.562H1551.5ZM1551.5 137.812V145.688H1550.5V137.812H1551.5ZM1551.5 126V129.938H1550.5V126H1551.5Z" fill="#380D75"/>
<path fill-rule="evenodd" clip-rule="evenodd" d="M1574.5 338.607V342.5H1573.5V338.607H1574.5ZM1574.5 323.036V330.821H1573.5V323.036H1574.5ZM1574.5 307.464V315.25H1573.5V307.464H1574.5ZM1574.5 291.893V299.679H1573.5V291.893H1574.5ZM1574.5 276.321V284.107H1573.5V276.321H1574.5ZM1574.5 260.75V268.536H1573.5V260.75H1574.5ZM1574.5 245.179V252.964H1573.5V245.179H1574.5ZM1574.5 229.607V237.393H1573.5V229.607H1574.5ZM1574.5 214.036V221.821H1573.5V214.036H1574.5ZM1574.5 198.464V206.25H1573.5V198.464H1574.5ZM1574.5 182.893V190.679H1573.5V182.893H1574.5ZM1574.5 167.321V175.107H1573.5V167.321H1574.5ZM1574.5 151.75V159.536H1573.5V151.75H1574.5ZM1574.5 136.179V143.964H1573.5V136.179H1574.5ZM1574.5 124.5V128.393H1573.5V124.5H1574.5Z" fill="#380D75"/>
<path fill-rule="evenodd" clip-rule="evenodd" d="M1597.5 334.038V338H1596.5V334.038H1597.5ZM1597.5 318.192V326.115H1596.5V318.192H1597.5ZM1597.5 302.346V310.269H1596.5V302.346H1597.5ZM1597.5 286.5V294.423H1596.5V286.5H1597.5ZM1597.5 270.654V278.577H1596.5V270.654H1597.5ZM1597.5 254.808V262.731H1596.5V254.808H1597.5ZM1597.5 238.962V246.885H1596.5V238.962H1597.5ZM1597.5 223.115V231.038H1596.5V223.115H1597.5ZM1597.5 207.269V215.192H1596.5V207.269H1597.5ZM1597.5 191.423V199.346H1596.5V191.423H1597.5ZM1597.5 175.577V183.5H1596.5V175.577H1597.5ZM1597.5 159.731V167.654H1596.5V159.731H1597.5ZM1597.5 143.885V151.808H1596.5V143.885H1597.5ZM1597.5 132V135.961H1596.5V132H1597.5Z" fill="#380D75"/>
<path fill-rule="evenodd" clip-rule="evenodd" d="M1620.5 330.146V334H1619.5V330.146H1620.5ZM1620.5 314.729V322.438H1619.5V314.729H1620.5ZM1620.5 299.312V307.021H1619.5V299.312H1620.5ZM1620.5 283.896V291.604H1619.5V283.896H1620.5ZM1620.5 268.479V276.188H1619.5V268.479H1620.5ZM1620.5 253.062V260.771H1619.5V253.062H1620.5ZM1620.5 237.646V245.354H1619.5V237.646H1620.5ZM1620.5 222.229V229.937H1619.5V222.229H1620.5ZM1620.5 206.812V214.521H1619.5V206.812H1620.5ZM1620.5 191.396V199.104H1619.5V191.396H1620.5ZM1620.5 175.979V183.688H1619.5V175.979H1620.5ZM1620.5 160.563V168.271H1619.5V160.563H1620.5ZM1620.5 149V152.854H1619.5V149H1620.5Z" fill="#380D75"/>
<path fill-rule="evenodd" clip-rule="evenodd" d="M1375 345.114V349H1374V345.114H1375ZM1375 329.568V337.341H1374V329.568H1375ZM1375 314.023V321.795H1374V314.023H1375ZM1375 298.477V306.25H1374V298.477H1375ZM1375 282.932V290.705H1374V282.932H1375ZM1375 267.386V275.159H1374V267.386H1375ZM1375 251.841V259.614H1374V251.841H1375ZM1375 236.295V244.068H1374V236.295H1375ZM1375 220.75V228.523H1374V220.75H1375ZM1375 205.205V212.977H1374V205.205H1375ZM1375 189.659V197.432H1374V189.659H1375ZM1375 178V181.886H1374V178H1375Z" fill="#380D75"/>
<path fill-rule="evenodd" clip-rule="evenodd" d="M1397.5 335.95V340H1396.5V335.95H1397.5ZM1397.5 319.75V327.85H1396.5V319.75H1397.5ZM1397.5 303.55V311.65H1396.5V303.55H1397.5ZM1397.5 287.35V295.45H1396.5V287.35H1397.5ZM1397.5 271.15V279.25H1396.5V271.15H1397.5ZM1397.5 254.95V263.05H1396.5V254.95H1397.5ZM1397.5 238.75V246.85H1396.5V238.75H1397.5ZM1397.5 222.55V230.65H1396.5V222.55H1397.5ZM1397.5 206.35V214.45H1396.5V206.35H1397.5ZM1397.5 190.15V198.25H1396.5V190.15H1397.5ZM1397.5 178V182.05H1396.5V178H1397.5Z" fill="#380D75"/>
<path fill-rule="evenodd" clip-rule="evenodd" d="M1443.5 323.025V327H1442.5V323.025H1443.5ZM1443.5 307.125V315.075H1442.5V307.125H1443.5ZM1443.5 291.225V299.175H1442.5V291.225H1443.5ZM1443.5 275.325V283.275H1442.5V275.325H1443.5ZM1443.5 259.425V267.375H1442.5V259.425H1443.5ZM1443.5 243.525V251.475H1442.5V243.525H1443.5ZM1443.5 227.625V235.575H1442.5V227.625H1443.5ZM1443.5 211.725V219.675H1442.5V211.725H1443.5ZM1443.5 195.825V203.775H1442.5V195.825H1443.5ZM1443.5 179.925V187.875H1442.5V179.925H1443.5ZM1443.5 168V171.975H1442.5V168H1443.5Z" fill="#380D75"/>
<path fill-rule="evenodd" clip-rule="evenodd" d="M1420.5 327.1V331H1419.5V327.1H1420.5ZM1420.5 311.5V319.3H1419.5V311.5H1420.5ZM1420.5 295.9V303.7H1419.5V295.9H1420.5ZM1420.5 280.3V288.1H1419.5V280.3H1420.5ZM1420.5 264.7V272.5H1419.5V264.7H1420.5ZM1420.5 249.1V256.9H1419.5V249.1H1420.5ZM1420.5 233.5V241.3H1419.5V233.5H1420.5ZM1420.5 217.9V225.7H1419.5V217.9H1420.5ZM1420.5 202.3V210.1H1419.5V202.3H1420.5ZM1420.5 186.7V194.5H1419.5V186.7H1420.5ZM1420.5 175V178.9H1419.5V175H1420.5Z" fill="#380D75"/>
<path fill-rule="evenodd" clip-rule="evenodd" d="M1466.5 324.159V328H1465.5V324.159H1466.5ZM1466.5 308.795V316.477H1465.5V308.795H1466.5ZM1466.5 293.432V301.114H1465.5V293.432H1466.5ZM1466.5 278.068V285.75H1465.5V278.068H1466.5ZM1466.5 262.705V270.386H1465.5V262.705H1466.5ZM1466.5 247.341V255.023H1465.5V247.341H1466.5ZM1466.5 231.977V239.659H1465.5V231.977H1466.5ZM1466.5 216.614V224.295H1465.5V216.614H1466.5ZM1466.5 201.25V208.932H1465.5V201.25H1466.5ZM1466.5 185.886V193.568H1465.5V185.886H1466.5ZM1466.5 170.523V178.205H1465.5V170.523H1466.5ZM1466.5 159V162.841H1465.5V159H1466.5Z" fill="#380D75"/>
<path fill-rule="evenodd" clip-rule="evenodd" d="M1222 327.955V332H1221V327.955H1222ZM1222 311.773V319.864H1221V311.773H1222ZM1222 295.591V303.682H1221V295.591H1222ZM1222 279.409V287.5H1221V279.409H1222ZM1222 263.227V271.318H1221V263.227H1222ZM1222 247.045V255.136H1221V247.045H1222ZM1222 230.864V238.955H1221V230.864H1222ZM1222 214.682V222.773H1221V214.682H1222ZM1222 198.5V206.591H1221V198.5H1222ZM1222 182.318V190.409H1221V182.318H1222ZM1222 166.136V174.227H1221V166.136H1222ZM1222 154V158.045H1221V154H1222Z" fill="#380D75"/>
<path fill-rule="evenodd" clip-rule="evenodd" d="M1244.5 338.021V342H1243.5V338.021H1244.5ZM1244.5 322.104V330.062H1243.5V322.104H1244.5ZM1244.5 306.188V314.146H1243.5V306.188H1244.5ZM1244.5 290.271V298.229H1243.5V290.271H1244.5ZM1244.5 274.354V282.313H1243.5V274.354H1244.5ZM1244.5 258.438V266.396H1243.5V258.438H1244.5ZM1244.5 242.521V250.479H1243.5V242.521H1244.5ZM1244.5 226.604V234.562H1243.5V226.604H1244.5ZM1244.5 210.687V218.646H1243.5V210.687H1244.5ZM1244.5 194.771V202.729H1243.5V194.771H1244.5ZM1244.5 178.854V186.812H1243.5V178.854H1244.5ZM1244.5 162.938V170.896H1243.5V162.938H1244.5ZM1244.5 151V154.979H1243.5V151H1244.5Z" fill="#380D75"/>
<path fill-rule="evenodd" clip-rule="evenodd" d="M1290.5 352.115V356H1289.5V352.115H1290.5ZM1290.5 336.577V344.346H1289.5V336.577H1290.5ZM1290.5 321.038V328.808H1289.5V321.038H1290.5ZM1290.5 305.5V313.269H1289.5V305.5H1290.5ZM1290.5 289.962V297.731H1289.5V289.962H1290.5ZM1290.5 274.423V282.192H1289.5V274.423H1290.5ZM1290.5 258.885V266.654H1289.5V258.885H1290.5ZM1290.5 243.346V251.115H1289.5V243.346H1290.5ZM1290.5 227.808V235.577H1289.5V227.808H1290.5ZM1290.5 212.269V220.038H1289.5V212.269H1290.5ZM1290.5 196.731V204.5H1289.5V196.731H1290.5ZM1290.5 181.192V188.962H1289.5V181.192H1290.5ZM1290.5 165.654V173.423H1289.5V165.654H1290.5ZM1290.5 154V157.885H1289.5V154H1290.5Z" fill="#380D75"/>
<path fill-rule="evenodd" clip-rule="evenodd" d="M1267.5 347.135V351H1266.5V347.135H1267.5ZM1267.5 331.673V339.404H1266.5V331.673H1267.5ZM1267.5 316.212V323.942H1266.5V316.212H1267.5ZM1267.5 300.75V308.481H1266.5V300.75H1267.5ZM1267.5 285.288V293.019H1266.5V285.288H1267.5ZM1267.5 269.827V277.558H1266.5V269.827H1267.5ZM1267.5 254.365V262.096H1266.5V254.365H1267.5ZM1267.5 238.904V246.635H1266.5V238.904H1267.5ZM1267.5 223.442V231.173H1266.5V223.442H1267.5ZM1267.5 207.981V215.712H1266.5V207.981H1267.5ZM1267.5 192.519V200.25H1266.5V192.519H1267.5ZM1267.5 177.058V184.788H1266.5V177.058H1267.5ZM1267.5 161.596V169.327H1266.5V161.596H1267.5ZM1267.5 150V153.865H1266.5V150H1267.5Z" fill="#380D75"/>
<path fill-rule="evenodd" clip-rule="evenodd" d="M1313.5 353.896V358H1312.5V353.896H1313.5ZM1313.5 337.479V345.688H1312.5V337.479H1313.5ZM1313.5 321.063V329.271H1312.5V321.063H1313.5ZM1313.5 304.646V312.854H1312.5V304.646H1313.5ZM1313.5 288.229V296.438H1312.5V288.229H1313.5ZM1313.5 271.812V280.021H1312.5V271.812H1313.5ZM1313.5 255.396V263.604H1312.5V255.396H1313.5ZM1313.5 238.979V247.187H1312.5V238.979H1313.5ZM1313.5 222.562V230.771H1312.5V222.562H1313.5ZM1313.5 206.146V214.354H1312.5V206.146H1313.5ZM1313.5 189.729V197.938H1312.5V189.729H1313.5ZM1313.5 173.313V181.521H1312.5V173.313H1313.5ZM1313.5 161V165.104H1312.5V161H1313.5Z" fill="#380D75"/>
<path fill-rule="evenodd" clip-rule="evenodd" d="M1069 261.667V266H1068V261.667H1069ZM1069 244.333V253H1068V244.333H1069ZM1069 227V235.667H1068V227H1069ZM1069 214V218.333H1068V214H1069Z" fill="#380D75"/>
<path fill-rule="evenodd" clip-rule="evenodd" d="M1091.5 271.312V275H1090.5V271.312H1091.5ZM1091.5 256.562V263.938H1090.5V256.562H1091.5ZM1091.5 241.812V249.188H1090.5V241.812H1091.5ZM1091.5 227.062V234.438H1090.5V227.062H1091.5ZM1091.5 216V219.688H1090.5V216H1091.5Z" fill="#380D75"/>
<path fill-rule="evenodd" clip-rule="evenodd" d="M1137.5 290.917V295H1136.5V290.917H1137.5ZM1137.5 274.583V282.75H1136.5V274.583H1137.5ZM1137.5 258.25V266.417H1136.5V258.25H1137.5ZM1137.5 241.917V250.083H1136.5V241.917H1137.5ZM1137.5 225.583V233.75H1136.5V225.583H1137.5ZM1137.5 209.25V217.417H1136.5V209.25H1137.5ZM1137.5 197V201.083H1136.5V197H1137.5Z" fill="#380D75"/>
<path fill-rule="evenodd" clip-rule="evenodd" d="M1114.5 281.3V285H1113.5V281.3H1114.5ZM1114.5 266.5V273.9H1113.5V266.5H1114.5ZM1114.5 251.7V259.1H1113.5V251.7H1114.5ZM1114.5 236.9V244.3H1113.5V236.9H1114.5ZM1114.5 222.1V229.5H1113.5V222.1H1114.5ZM1114.5 211V214.7H1113.5V211H1114.5Z" fill="#380D75"/>
<path fill-rule="evenodd" clip-rule="evenodd" d="M1160.5 301.156V305H1159.5V301.156H1160.5ZM1160.5 285.781V293.469H1159.5V285.781H1160.5ZM1160.5 270.406V278.094H1159.5V270.406H1160.5ZM1160.5 255.031V262.719H1159.5V255.031H1160.5ZM1160.5 239.656V247.344H1159.5V239.656H1160.5ZM1160.5 224.281V231.969H1159.5V224.281H1160.5ZM1160.5 208.906V216.594H1159.5V208.906H1160.5ZM1160.5 193.531V201.219H1159.5V193.531H1160.5ZM1160.5 182V185.844H1159.5V182H1160.5Z" fill="#380D75"/>
<path fill-rule="evenodd" clip-rule="evenodd" d="M916 292.25V296H915V292.25H916ZM916 277.25V284.75H915V277.25H916ZM916 262.25V269.75H915V262.25H916ZM916 247.25V254.75H915V247.25H916ZM916 232.25V239.75H915V232.25H916ZM916 221V224.75H915V221H916Z" fill="#380D75"/>
<path fill-rule="evenodd" clip-rule="evenodd" d="M938.5 280.875V285H937.5V280.875H938.5ZM938.5 264.375V272.625H937.5V264.375H938.5ZM938.5 247.875V256.125H937.5V247.875H938.5ZM938.5 231.375V239.625H937.5V231.375H938.5ZM938.5 219V223.125H937.5V219H938.5Z" fill="#380D75"/>
<path fill-rule="evenodd" clip-rule="evenodd" d="M984.5 262.25V266H983.5V262.25H984.5ZM984.5 247.25V254.75H983.5V247.25H984.5ZM984.5 232.25V239.75H983.5V232.25H984.5ZM984.5 217.25V224.75H983.5V217.25H984.5ZM984.5 206V209.75H983.5V206H984.5Z" fill="#380D75"/>
<path fill-rule="evenodd" clip-rule="evenodd" d="M961.5 271.125V275H960.5V271.125H961.5ZM961.5 255.625V263.375H960.5V255.625H961.5ZM961.5 240.125V247.875H960.5V240.125H961.5ZM961.5 224.625V232.375H960.5V224.625H961.5ZM961.5 213V216.875H960.5V213H961.5Z" fill="#380D75"/>
<path fill-rule="evenodd" clip-rule="evenodd" d="M1007.5 257.125V261H1006.5V257.125H1007.5ZM1007.5 241.625V249.375H1006.5V241.625H1007.5ZM1007.5 226.125V233.875H1006.5V226.125H1007.5ZM1007.5 210.625V218.375H1006.5V210.625H1007.5ZM1007.5 199V202.875H1006.5V199H1007.5Z" fill="#380D75"/>
<path fill-rule="evenodd" clip-rule="evenodd" d="M763 311.094V315H762V311.094H763ZM763 295.469V303.281H762V295.469H763ZM763 279.844V287.656H762V279.844H763ZM763 264.219V272.031H762V264.219H763ZM763 248.594V256.406H762V248.594H763ZM763 232.969V240.781H762V232.969H763ZM763 217.344V225.156H762V217.344H763ZM763 201.719V209.531H762V201.719H763ZM763 190V193.906H762V190H763Z" fill="#380D75"/>
<path fill-rule="evenodd" clip-rule="evenodd" d="M785.5 318.844V323H784.5V318.844H785.5ZM785.5 302.219V310.531H784.5V302.219H785.5ZM785.5 285.594V293.906H784.5V285.594H785.5ZM785.5 268.969V277.281H784.5V268.969H785.5ZM785.5 252.344V260.656H784.5V252.344H785.5ZM785.5 235.719V244.031H784.5V235.719H785.5ZM785.5 219.094V227.406H784.5V219.094H785.5ZM785.5 202.469V210.781H784.5V202.469H785.5ZM785.5 190V194.156H784.5V190H785.5Z" fill="#380D75"/>
<path fill-rule="evenodd" clip-rule="evenodd" d="M831.5 322.125V326H830.5V322.125H831.5ZM831.5 306.625V314.375H830.5V306.625H831.5ZM831.5 291.125V298.875H830.5V291.125H831.5ZM831.5 275.625V283.375H830.5V275.625H831.5ZM831.5 260.125V267.875H830.5V260.125H831.5ZM831.5 244.625V252.375H830.5V244.625H831.5ZM831.5 229.125V236.875H830.5V229.125H831.5ZM831.5 213.625V221.375H830.5V213.625H831.5ZM831.5 202V205.875H830.5V202H831.5Z" fill="#380D75"/>
<path fill-rule="evenodd" clip-rule="evenodd" d="M808.5 322.875V327H807.5V322.875H808.5ZM808.5 306.375V314.625H807.5V306.375H808.5ZM808.5 289.875V298.125H807.5V289.875H808.5ZM808.5 273.375V281.625H807.5V273.375H808.5ZM808.5 256.875V265.125H807.5V256.875H808.5ZM808.5 240.375V248.625H807.5V240.375H808.5ZM808.5 223.875V232.125H807.5V223.875H808.5ZM808.5 207.375V215.625H807.5V207.375H808.5ZM808.5 195V199.125H807.5V195H808.5Z" fill="#380D75"/>
<path fill-rule="evenodd" clip-rule="evenodd" d="M854.5 317.964V322H853.5V317.964H854.5ZM854.5 301.821V309.893H853.5V301.821H854.5ZM854.5 285.679V293.75H853.5V285.679H854.5ZM854.5 269.536V277.607H853.5V269.536H854.5ZM854.5 253.393V261.464H853.5V253.393H854.5ZM854.5 237.25V245.321H853.5V237.25H854.5ZM854.5 221.107V229.179H853.5V221.107H854.5ZM854.5 209V213.036H853.5V209H854.5Z" fill="#380D75"/>
<path fill-rule="evenodd" clip-rule="evenodd" d="M608 319.688V324H607V319.688H608ZM608 302.438V311.062H607V302.438H608ZM608 285.188V293.812H607V285.188H608ZM608 267.938V276.562H607V267.938H608ZM608 255V259.312H607V255H608Z" fill="#380D75"/>
<path fill-rule="evenodd" clip-rule="evenodd" d="M630.5 308.062V312H629.5V308.062H630.5ZM630.5 292.312V300.188H629.5V292.312H630.5ZM630.5 276.562V284.438H629.5V276.562H630.5ZM630.5 260.812V268.688H629.5V260.812H630.5ZM630.5 249V252.938H629.5V249H630.5Z" fill="#380D75"/>
<path fill-rule="evenodd" clip-rule="evenodd" d="M676.5 288.812V293H675.5V288.812H676.5ZM676.5 272.062V280.438H675.5V272.062H676.5ZM676.5 255.312V263.688H675.5V255.312H676.5ZM676.5 238.562V246.938H675.5V238.562H676.5ZM676.5 226V230.188H675.5V226H676.5Z" fill="#380D75"/>
<path fill-rule="evenodd" clip-rule="evenodd" d="M653.5 296.188V300H652.5V296.188H653.5ZM653.5 280.938V288.562H652.5V280.938H653.5ZM653.5 265.688V273.312H652.5V265.688H653.5ZM653.5 250.438V258.062H652.5V250.438H653.5ZM653.5 239V242.812H652.5V239H653.5Z" fill="#380D75"/>
<path fill-rule="evenodd" clip-rule="evenodd" d="M699.5 287V291H698.5V287H699.5ZM699.5 271V279H698.5V271H699.5ZM699.5 255V263H698.5V255H699.5ZM699.5 239V247H698.5V239H699.5ZM699.5 223V231H698.5V223H699.5ZM699.5 211V215H698.5V211H699.5Z" fill="#380D75"/>
<path fill-rule="evenodd" clip-rule="evenodd" d="M457 325.8V330H456V325.8H457ZM457 309V317.4H456V309H457ZM457 292.2V300.6H456V292.2H457ZM457 275.4V283.8H456V275.4H457ZM457 258.6V267H456V258.6H457ZM457 246V250.2H456V246H457Z" fill="#380D75"/>
<path fill-rule="evenodd" clip-rule="evenodd" d="M479.5 326V330H478.5V326H479.5ZM479.5 310V318H478.5V310H479.5ZM479.5 294V302H478.5V294H479.5ZM479.5 278V286H478.5V278H479.5ZM479.5 262V270H478.5V262H479.5ZM479.5 250V254H478.5V250H479.5Z" fill="#380D75"/>
<path fill-rule="evenodd" clip-rule="evenodd" d="M525.5 337.85V342H524.5V337.85H525.5ZM525.5 321.25V329.55H524.5V321.25H525.5ZM525.5 304.65V312.95H524.5V304.65H525.5ZM525.5 288.05V296.35H524.5V288.05H525.5ZM525.5 271.45V279.75H524.5V271.45H525.5ZM525.5 259V263.15H524.5V259H525.5Z" fill="#380D75"/>
<path fill-rule="evenodd" clip-rule="evenodd" d="M502.5 332.85V337H501.5V332.85H502.5ZM502.5 316.25V324.55H501.5V316.25H502.5ZM502.5 299.65V307.95H501.5V299.65H502.5ZM502.5 283.05V291.35H501.5V283.05H502.5ZM502.5 266.45V274.75H501.5V266.45H502.5ZM502.5 254V258.15H501.5V254H502.5Z" fill="#380D75"/>
<path fill-rule="evenodd" clip-rule="evenodd" d="M548.5 338.9V343H547.5V338.9H548.5ZM548.5 322.5V330.7H547.5V322.5H548.5ZM548.5 306.1V314.3H547.5V306.1H548.5ZM548.5 289.7V297.9H547.5V289.7H548.5ZM548.5 273.3V281.5H547.5V273.3H548.5ZM548.5 261V265.1H547.5V261H548.5Z" fill="#380D75"/>
<path fill-rule="evenodd" clip-rule="evenodd" d="M303 396.812V401H302V396.812H303ZM303 380.062V388.438H302V380.062H303ZM303 363.312V371.688H302V363.312H303ZM303 346.562V354.938H302V346.562H303ZM303 334V338.188H302V334H303Z" fill="#380D75"/>
<path fill-rule="evenodd" clip-rule="evenodd" d="M325.5 401.792V406H324.5V401.792H325.5ZM325.5 384.958V393.375H324.5V384.958H325.5ZM325.5 368.125V376.542H324.5V368.125H325.5ZM325.5 351.292V359.708H324.5V351.292H325.5ZM325.5 334.458V342.875H324.5V334.458H325.5ZM325.5 317.625V326.042H324.5V317.625H325.5ZM325.5 305V309.208H324.5V305H325.5Z" fill="#380D75"/>
<path fill-rule="evenodd" clip-rule="evenodd" d="M371.5 381.25V385H370.5V381.25H371.5ZM371.5 366.25V373.75H370.5V366.25H371.5ZM371.5 351.25V358.75H370.5V351.25H371.5ZM371.5 336.25V343.75H370.5V336.25H371.5ZM371.5 321.25V328.75H370.5V321.25H371.5ZM371.5 306.25V313.75H370.5V306.25H371.5ZM371.5 291.25V298.75H370.5V291.25H371.5ZM371.5 276.25V283.75H370.5V276.25H371.5ZM371.5 265V268.75H370.5V265H371.5Z" fill="#380D75"/>
<path fill-rule="evenodd" clip-rule="evenodd" d="M348.5 396.25V400H347.5V396.25H348.5ZM348.5 381.25V388.75H347.5V381.25H348.5ZM348.5 366.25V373.75H347.5V366.25H348.5ZM348.5 351.25V358.75H347.5V351.25H348.5ZM348.5 336.25V343.75H347.5V336.25H348.5ZM348.5 321.25V328.75H347.5V321.25H348.5ZM348.5 306.25V313.75H347.5V306.25H348.5ZM348.5 291.25V298.75H347.5V291.25H348.5ZM348.5 280V283.75H347.5V280H348.5Z" fill="#380D75"/>
<path fill-rule="evenodd" clip-rule="evenodd" d="M394.5 362.964V367H393.5V362.964H394.5ZM394.5 346.821V354.893H393.5V346.821H394.5ZM394.5 330.679V338.75H393.5V330.679H394.5ZM394.5 314.536V322.607H393.5V314.536H394.5ZM394.5 298.393V306.464H393.5V298.393H394.5ZM394.5 282.25V290.321H393.5V282.25H394.5ZM394.5 266.107V274.179H393.5V266.107H394.5ZM394.5 254V258.036H393.5V254H394.5Z" fill="#380D75"/>
<path fill-rule="evenodd" clip-rule="evenodd" d="M1648 355.117V359H1647V355.117H1648ZM1648 339.583V347.35H1647V339.583H1648ZM1648 324.05V331.817H1647V324.05H1648ZM1648 308.517V316.283H1647V308.517H1648ZM1648 292.983V300.75H1647V292.983H1648ZM1648 277.45V285.217H1647V277.45H1648ZM1648 261.917V269.683H1647V261.917H1648ZM1648 246.383V254.15H1647V246.383H1648ZM1648 230.85V238.617H1647V230.85H1648ZM1648 215.317V223.083H1647V215.317H1648ZM1648 199.783V207.55H1647V199.783H1648ZM1648 184.25V192.017H1647V184.25H1648ZM1648 168.717V176.483H1647V168.717H1648ZM1648 153.183V160.95H1647V153.183H1648ZM1648 137.65V145.417H1647V137.65H1648ZM1648 126V129.883H1647V126H1648Z" fill="#380D75"/>
<path fill-rule="evenodd" clip-rule="evenodd" d="M1086.43 314.036C1047.7 296.928 1003.5 297.168 964.958 314.695L871.921 357.001C831.929 375.187 785.453 371.915 748.403 348.306C718.345 329.152 680.328 327.57 648.782 344.161L598.327 370.697C570.501 385.332 538.086 388.611 507.893 379.844L486.073 373.509C465.015 367.395 442.303 371.732 424.979 385.175L361.725 434.259C339.609 451.42 308.695 451.481 286.511 434.407L267.962 420.13C256.676 411.444 244.033 404.68 230.544 400.113C194.02 387.745 154.149 389.8 119.09 405.857L-5.3754 462.864L-6.62463 460.136L117.841 403.13C153.596 386.754 194.257 384.658 231.506 397.271C245.308 401.945 258.244 408.865 269.791 417.753L288.341 432.03C309.442 448.271 338.849 448.212 359.886 431.888L423.14 382.804C441.222 368.773 464.929 364.246 486.91 370.628L508.729 376.963C538.177 385.513 569.792 382.315 596.93 368.042L647.385 341.506C679.884 324.414 719.049 326.043 750.016 345.776C786.209 368.84 831.611 372.036 870.679 354.27L963.716 311.964C1003.04 294.083 1048.13 293.838 1087.64 311.292L1247.6 381.947C1294.3 402.576 1347.68 401.811 1393.77 379.852L1400.82 376.493C1430.56 362.328 1465.04 362.092 1494.97 375.847C1515.46 385.269 1538.4 388.039 1560.55 383.769L1615.12 373.249C1701.36 356.625 1790.38 361.631 1874.21 387.818L1921.45 402.575L1920.55 405.439L1873.31 390.681C1789.95 364.642 1701.44 359.665 1615.69 376.195L1561.12 386.715C1538.35 391.103 1514.78 388.256 1493.71 378.573C1464.6 365.189 1431.04 365.419 1402.11 379.201L1395.06 382.561C1348.18 404.895 1293.89 405.673 1246.39 384.691L1086.43 314.036Z" fill="url(#paint0_linear)"/>
<path fill-rule="evenodd" clip-rule="evenodd" d="M1922.56 3.06077L1920.35 5.27621C1890.09 35.528 1847.88 50.6372 1805.3 46.4533L1772.25 43.2056C1755.74 41.5831 1740.58 52.4352 1736.79 68.5877C1724.33 121.71 1660.7 143.64 1618.16 109.475L1604.97 98.8815C1587.53 84.8789 1563.9 81.3552 1543.14 89.6608L1445.48 128.725C1409.5 143.116 1369.42 143.392 1333.24 129.498L1314.18 122.175C1266.74 103.953 1213.44 109.515 1170.79 137.141L1126.54 165.796C1103.77 180.546 1074.73 181.594 1050.95 168.525C1033.67 159.029 1013.22 157.175 994.517 163.409L962.098 174.215C932.126 184.206 899.786 184.602 869.578 175.35L807.534 156.345C770.951 145.139 731.272 150.933 699.421 172.131L679.247 185.557C630.622 217.918 571.147 229.673 513.867 218.241L471.991 209.884C411.257 197.763 349.453 225.085 317.542 278.163C293.948 317.406 240.681 325.913 206.037 295.97L172.208 266.732C132.004 231.984 72.5427 231.49 31.7669 265.565L-3.03817 294.651L-4.96191 292.349L29.8432 263.263C71.7471 228.245 132.854 228.753 174.17 264.462L207.999 293.701C241.234 322.426 292.336 314.265 314.971 276.617C347.535 222.454 410.603 194.574 472.578 206.942L514.454 215.299C570.955 226.575 629.621 214.981 677.585 183.06L697.759 169.634C730.358 147.938 770.97 142.008 808.412 153.476L870.457 172.481C900.068 181.551 931.769 181.162 961.149 171.369L993.568 160.563C1013.06 154.064 1034.39 155.997 1052.4 165.895C1075.21 178.434 1103.06 177.428 1124.91 163.278L1169.16 134.623C1212.62 106.476 1266.92 100.808 1315.25 119.375L1334.32 126.698C1369.79 140.321 1409.09 140.05 1444.36 125.94L1542.02 86.8754C1563.79 78.1678 1588.56 81.862 1606.84 96.5424L1620.04 107.136C1660.86 139.918 1721.91 118.876 1733.87 67.9026C1738 50.2861 1754.54 38.4504 1772.55 40.22L1805.6 43.4677C1847.28 47.5638 1888.61 32.7717 1918.22 3.15489L1920.44 0.939453L1922.56 3.06077Z" fill="url(#paint1_linear)"/>
<path d="M410.609 506.001H412.751V501.699H414.407C416.945 501.699 418.907 500.511 418.907 497.883C418.907 495.147 416.945 494.229 414.335 494.229H410.609V506.001ZM412.751 499.989V495.939H414.173C415.883 495.939 416.783 496.443 416.783 497.883C416.783 499.305 415.973 499.989 414.245 499.989H412.751Z" fill="white"/>
<path d="M422.957 506.217C423.461 506.217 423.821 506.145 424.073 506.019L423.821 504.453C423.677 504.489 423.605 504.489 423.497 504.489C423.281 504.489 423.047 504.309 423.047 503.787V493.293H420.905V503.679C420.905 505.245 421.463 506.217 422.957 506.217Z" fill="white"/>
<path d="M427.97 506.217C429.014 506.217 429.878 505.713 430.67 505.029H430.742L430.922 506.001H432.65V500.763C432.65 498.297 431.534 496.929 429.338 496.929C427.934 496.929 426.674 497.469 425.702 498.081L426.458 499.485C427.25 499.017 428.078 498.657 428.942 498.657C430.13 498.657 430.49 499.413 430.526 500.313C426.89 500.709 425.342 501.681 425.342 503.625C425.342 505.173 426.422 506.217 427.97 506.217ZM428.618 504.525C427.898 504.525 427.394 504.237 427.394 503.481C427.394 502.581 428.114 502.041 430.526 501.753V503.625C429.878 504.237 429.338 504.525 428.618 504.525Z" fill="white"/>
<path d="M435.091 506.001H437.233V499.845C437.935 499.125 438.439 498.765 439.213 498.765C440.149 498.765 440.563 499.287 440.563 500.727V506.001H442.687V500.457C442.687 498.225 441.859 496.929 439.951 496.929C438.745 496.929 437.845 497.577 437.053 498.333H436.999L436.837 497.145H435.091V506.001Z" fill="white"/>
<path d="M558.538 506.216C560.05 506.216 561.274 505.64 562.264 504.506L561.112 503.228C560.464 503.948 559.654 504.362 558.628 504.362C556.666 504.362 555.424 502.742 555.424 500.096C555.424 497.468 556.792 495.884 558.664 495.884C559.582 495.884 560.284 496.226 560.896 496.82L562.03 495.506C561.292 494.696 560.104 494.012 558.628 494.012C555.64 494.012 553.228 496.298 553.228 500.15C553.228 504.056 555.586 506.216 558.538 506.216Z" fill="white"/>
<path d="M564.03 506H566.172V500.636C566.694 499.286 567.54 498.818 568.242 498.818C568.602 498.818 568.818 498.854 569.088 498.926L569.52 497.108C569.25 497 568.962 496.928 568.512 496.928C567.576 496.928 566.64 497.576 565.992 498.728H565.938L565.776 497.144H564.03V506Z" fill="white"/>
<path d="M574.402 506.216C575.554 506.216 576.634 505.892 577.462 505.28L576.742 503.948C576.13 504.344 575.446 504.56 574.69 504.56C573.286 504.56 572.35 503.696 572.134 502.22H577.714C577.786 501.896 577.822 501.572 577.822 501.14C577.822 498.656 576.526 496.928 574.132 496.928C572.062 496.928 570.046 498.692 570.046 501.572C570.046 504.524 571.954 506.216 574.402 506.216ZM572.134 500.636C572.314 499.304 573.178 498.584 574.186 498.584C575.338 498.584 575.95 499.34 575.95 500.636H572.134Z" fill="white"/>
<path d="M581.712 506.216C582.756 506.216 583.62 505.712 584.412 505.028H584.484L584.664 506H586.392V500.762C586.392 498.296 585.276 496.928 583.08 496.928C581.676 496.928 580.416 497.468 579.444 498.08L580.2 499.484C580.992 499.016 581.82 498.656 582.684 498.656C583.872 498.656 584.232 499.412 584.268 500.312C580.632 500.708 579.084 501.68 579.084 503.624C579.084 505.172 580.164 506.216 581.712 506.216ZM582.36 504.524C581.64 504.524 581.136 504.236 581.136 503.48C581.136 502.58 581.856 502.04 584.268 501.752V503.624C583.62 504.236 583.08 504.524 582.36 504.524Z" fill="white"/>
<path d="M591.702 506.216C592.422 506.216 593.07 506.054 593.538 505.838L593.16 504.344C592.854 504.47 592.548 504.524 592.242 504.524C591.414 504.524 591 504.02 591 502.994V498.836H593.25V497.144H591V494.39H589.236L588.984 497.144L587.616 497.252V498.836H588.876V502.994C588.876 504.92 589.632 506.216 591.702 506.216Z" fill="white"/>
<path d="M598.59 506.216C599.742 506.216 600.822 505.892 601.65 505.28L600.93 503.948C600.318 504.344 599.634 504.56 598.878 504.56C597.474 504.56 596.538 503.696 596.322 502.22H601.902C601.974 501.896 602.01 501.572 602.01 501.14C602.01 498.656 600.714 496.928 598.32 496.928C596.25 496.928 594.234 498.692 594.234 501.572C594.234 504.524 596.142 506.216 598.59 506.216ZM596.322 500.636C596.502 499.304 597.366 498.584 598.374 498.584C599.526 498.584 600.138 499.34 600.138 500.636H596.322Z" fill="white"/>
<path d="M714.651 506H717.189L720.897 494.228H718.701L717.027 500.114C716.649 501.446 716.397 502.598 716.001 503.93H715.929C715.533 502.598 715.263 501.446 714.903 500.114L713.337 494.228H711.069L714.651 506Z" fill="white"/>
<path d="M725.603 506.216C726.755 506.216 727.835 505.892 728.663 505.28L727.943 503.948C727.331 504.344 726.647 504.56 725.891 504.56C724.487 504.56 723.551 503.696 723.335 502.22H728.915C728.987 501.896 729.023 501.572 729.023 501.14C729.023 498.656 727.727 496.928 725.333 496.928C723.263 496.928 721.247 498.692 721.247 501.572C721.247 504.524 723.155 506.216 725.603 506.216ZM723.335 500.636C723.515 499.304 724.379 498.584 725.387 498.584C726.539 498.584 727.151 499.34 727.151 500.636H723.335Z" fill="white"/>
<path d="M730.964 506H733.106V500.636C733.628 499.286 734.474 498.818 735.176 498.818C735.536 498.818 735.752 498.854 736.022 498.926L736.454 497.108C736.184 497 735.896 496.928 735.446 496.928C734.51 496.928 733.574 497.576 732.926 498.728H732.872L732.71 497.144H730.964V506Z" fill="white"/>
<path d="M737.732 506H739.874V497.144H737.732V506ZM738.812 495.632C739.568 495.632 740.09 495.146 740.09 494.426C740.09 493.706 739.568 493.22 738.812 493.22C738.056 493.22 737.534 493.706 737.534 494.426C737.534 495.146 738.056 495.632 738.812 495.632Z" fill="white"/>
<path d="M742.838 506H744.962V498.836H746.672V497.144H744.962V496.244C744.962 495.236 745.34 494.768 746.078 494.768C746.366 494.768 746.672 494.822 746.996 494.912L747.428 493.382C747.05 493.238 746.438 493.076 745.79 493.076C743.684 493.076 742.838 494.444 742.838 496.28V497.144L741.65 497.252V498.836H742.838V506Z" fill="white"/>
<path d="M748.838 509.618C750.782 509.618 751.718 508.394 752.456 506.378L755.642 497.144H753.59L752.294 501.446C752.078 502.256 751.844 503.12 751.628 503.948H751.556C751.304 503.102 751.052 502.22 750.782 501.446L749.288 497.144H747.128L750.602 505.874L750.44 506.432C750.152 507.296 749.612 507.908 748.694 507.908C748.496 507.908 748.334 507.89 748.082 507.818L747.668 509.42C748.01 509.546 748.352 509.618 748.838 509.618Z" fill="white"/>
<path d="M1162.66 506.001H1164.8V501.429H1166.54L1169.06 506.001H1171.46L1168.67 501.105C1170.07 500.619 1170.99 499.521 1170.99 497.739C1170.99 495.093 1169.1 494.229 1166.63 494.229H1162.66V506.001ZM1164.8 499.719V495.939H1166.42C1168.02 495.939 1168.88 496.407 1168.88 497.739C1168.88 499.053 1168.02 499.719 1166.42 499.719H1164.8Z" fill="white"/>
<path d="M1176.75 506.217C1177.9 506.217 1178.98 505.893 1179.81 505.281L1179.09 503.949C1178.48 504.345 1177.79 504.561 1177.04 504.561C1175.63 504.561 1174.7 503.697 1174.48 502.221H1180.06C1180.13 501.897 1180.17 501.573 1180.17 501.141C1180.17 498.657 1178.87 496.929 1176.48 496.929C1174.41 496.929 1172.39 498.693 1172.39 501.573C1172.39 504.525 1174.3 506.217 1176.75 506.217ZM1174.48 500.637C1174.66 499.305 1175.52 498.585 1176.53 498.585C1177.68 498.585 1178.3 499.341 1178.3 500.637H1174.48Z" fill="white"/>
<path d="M1184.16 506.217C1184.67 506.217 1185.03 506.145 1185.28 506.019L1185.03 504.453C1184.88 504.489 1184.81 504.489 1184.7 504.489C1184.49 504.489 1184.25 504.309 1184.25 503.787V493.293H1182.11V503.679C1182.11 505.245 1182.67 506.217 1184.16 506.217Z" fill="white"/>
<path d="M1190.79 506.217C1191.95 506.217 1193.03 505.893 1193.85 505.281L1193.13 503.949C1192.52 504.345 1191.84 504.561 1191.08 504.561C1189.68 504.561 1188.74 503.697 1188.53 502.221H1194.11C1194.18 501.897 1194.21 501.573 1194.21 501.141C1194.21 498.657 1192.92 496.929 1190.52 496.929C1188.45 496.929 1186.44 498.693 1186.44 501.573C1186.44 504.525 1188.35 506.217 1190.79 506.217ZM1188.53 500.637C1188.71 499.305 1189.57 498.585 1190.58 498.585C1191.73 498.585 1192.34 499.341 1192.34 500.637H1188.53Z" fill="white"/>
<path d="M1198.1 506.217C1199.15 506.217 1200.01 505.713 1200.8 505.029H1200.88L1201.06 506.001H1202.78V500.763C1202.78 498.297 1201.67 496.929 1199.47 496.929C1198.07 496.929 1196.81 497.469 1195.84 498.081L1196.59 499.485C1197.38 499.017 1198.21 498.657 1199.08 498.657C1200.26 498.657 1200.62 499.413 1200.66 500.313C1197.02 500.709 1195.48 501.681 1195.48 503.625C1195.48 505.173 1196.56 506.217 1198.1 506.217ZM1198.75 504.525C1198.03 504.525 1197.53 504.237 1197.53 503.481C1197.53 502.581 1198.25 502.041 1200.66 501.753V503.625C1200.01 504.237 1199.47 504.525 1198.75 504.525Z" fill="white"/>
<path d="M1207.71 506.217C1209.96 506.217 1211.18 504.993 1211.18 503.463C1211.18 501.933 1209.98 501.231 1208.61 500.763C1207.49 500.385 1206.86 500.133 1206.86 499.485C1206.86 498.963 1207.26 498.531 1208.14 498.531C1208.84 498.531 1209.49 498.747 1210.12 499.215L1211.04 498.009C1210.32 497.379 1209.29 496.929 1208.09 496.929C1206.11 496.929 1204.85 498.045 1204.85 499.593C1204.85 500.997 1206.03 501.735 1207.31 502.203C1208.3 502.563 1209.17 502.851 1209.17 503.589C1209.17 504.183 1208.72 504.615 1207.78 504.615C1206.88 504.615 1206.07 504.345 1205.3 503.715L1204.36 504.921C1205.22 505.749 1206.48 506.217 1207.71 506.217Z" fill="white"/>
<path d="M1216.77 506.217C1217.93 506.217 1219.01 505.893 1219.83 505.281L1219.11 503.949C1218.5 504.345 1217.82 504.561 1217.06 504.561C1215.66 504.561 1214.72 503.697 1214.51 502.221H1220.09C1220.16 501.897 1220.19 501.573 1220.19 501.141C1220.19 498.657 1218.9 496.929 1216.5 496.929C1214.43 496.929 1212.42 498.693 1212.42 501.573C1212.42 504.525 1214.33 506.217 1216.77 506.217ZM1214.51 500.637C1214.69 499.305 1215.55 498.585 1216.56 498.585C1217.71 498.585 1218.32 499.341 1218.32 500.637H1214.51Z" fill="white"/>
<path d="M1312.2 506.216C1313.71 506.216 1314.93 505.64 1315.92 504.506L1314.77 503.228C1314.12 503.948 1313.31 504.362 1312.29 504.362C1310.32 504.362 1309.08 502.742 1309.08 500.096C1309.08 497.468 1310.45 495.884 1312.32 495.884C1313.24 495.884 1313.94 496.226 1314.55 496.82L1315.69 495.506C1314.95 494.696 1313.76 494.012 1312.29 494.012C1309.3 494.012 1306.89 496.298 1306.89 500.15C1306.89 504.056 1309.24 506.216 1312.2 506.216Z" fill="white"/>
<path d="M1321.34 506.216C1323.54 506.216 1325.56 504.524 1325.56 501.59C1325.56 498.638 1323.54 496.928 1321.34 496.928C1319.13 496.928 1317.11 498.638 1317.11 501.59C1317.11 504.524 1319.13 506.216 1321.34 506.216ZM1321.34 504.488C1320.07 504.488 1319.31 503.336 1319.31 501.59C1319.31 499.826 1320.07 498.674 1321.34 498.674C1322.62 498.674 1323.38 499.826 1323.38 501.59C1323.38 503.336 1322.62 504.488 1321.34 504.488Z" fill="white"/>
<path d="M1327.57 506H1329.71V499.844C1330.41 499.124 1330.92 498.764 1331.69 498.764C1332.63 498.764 1333.04 499.286 1333.04 500.726V506H1335.16V500.456C1335.16 498.224 1334.34 496.928 1332.43 496.928C1331.22 496.928 1330.32 497.576 1329.53 498.332H1329.48L1329.31 497.144H1327.57V506Z" fill="white"/>
<path d="M1338.04 506H1340.16V498.836H1341.87V497.144H1340.16V496.244C1340.16 495.236 1340.54 494.768 1341.28 494.768C1341.56 494.768 1341.87 494.822 1342.19 494.912L1342.63 493.382C1342.25 493.238 1341.64 493.076 1340.99 493.076C1338.88 493.076 1338.04 494.444 1338.04 496.28V497.144L1336.85 497.252V498.836H1338.04V506Z" fill="white"/>
<path d="M1343.41 506H1345.55V497.144H1343.41V506ZM1344.49 495.632C1345.24 495.632 1345.76 495.146 1345.76 494.426C1345.76 493.706 1345.24 493.22 1344.49 493.22C1343.73 493.22 1343.21 493.706 1343.21 494.426C1343.21 495.146 1343.73 495.632 1344.49 495.632Z" fill="white"/>
<path d="M1351.23 509.906C1354.13 509.906 1355.96 508.52 1355.96 506.774C1355.96 505.244 1354.83 504.578 1352.72 504.578H1351.16C1350.1 504.578 1349.74 504.29 1349.74 503.804C1349.74 503.408 1349.9 503.192 1350.15 502.976C1350.55 503.12 1350.96 503.192 1351.34 503.192C1353.21 503.192 1354.72 502.148 1354.72 500.186C1354.72 499.592 1354.51 499.052 1354.24 498.728H1355.82V497.144H1352.65C1352.29 497.018 1351.82 496.928 1351.34 496.928C1349.48 496.928 1347.83 498.08 1347.83 500.114C1347.83 501.158 1348.39 502.004 1349 502.454V502.526C1348.48 502.886 1348.01 503.48 1348.01 504.164C1348.01 504.884 1348.37 505.352 1348.82 505.64V505.712C1348.01 506.216 1347.54 506.846 1347.54 507.602C1347.54 509.15 1349.12 509.906 1351.23 509.906ZM1351.34 501.86C1350.51 501.86 1349.83 501.23 1349.83 500.114C1349.83 499.016 1350.49 498.404 1351.34 498.404C1352.18 498.404 1352.83 499.016 1352.83 500.114C1352.83 501.23 1352.17 501.86 1351.34 501.86ZM1351.55 508.52C1350.19 508.52 1349.32 508.07 1349.32 507.278C1349.32 506.864 1349.52 506.486 1349.99 506.126C1350.33 506.216 1350.71 506.252 1351.19 506.252H1352.38C1353.37 506.252 1353.91 506.45 1353.91 507.116C1353.91 507.872 1352.96 508.52 1351.55 508.52Z" fill="white"/>
<path d="M1360.15 506.216C1361.37 506.216 1362.22 505.622 1362.99 504.704H1363.05L1363.21 506H1364.96V497.144H1362.83V503.192C1362.18 504.038 1361.68 504.398 1360.91 504.398C1359.97 504.398 1359.56 503.858 1359.56 502.418V497.144H1357.43V502.688C1357.43 504.92 1358.26 506.216 1360.15 506.216Z" fill="white"/>
<path d="M1367.56 506H1369.7V500.636C1370.22 499.286 1371.07 498.818 1371.77 498.818C1372.13 498.818 1372.35 498.854 1372.62 498.926L1373.05 497.108C1372.78 497 1372.49 496.928 1372.04 496.928C1371.1 496.928 1370.17 497.576 1369.52 498.728H1369.47L1369.3 497.144H1367.56V506Z" fill="white"/>
<path d="M1377.93 506.216C1379.08 506.216 1380.16 505.892 1380.99 505.28L1380.27 503.948C1379.66 504.344 1378.97 504.56 1378.22 504.56C1376.81 504.56 1375.88 503.696 1375.66 502.22H1381.24C1381.31 501.896 1381.35 501.572 1381.35 501.14C1381.35 498.656 1380.05 496.928 1377.66 496.928C1375.59 496.928 1373.57 498.692 1373.57 501.572C1373.57 504.524 1375.48 506.216 1377.93 506.216ZM1375.66 500.636C1375.84 499.304 1376.71 498.584 1377.71 498.584C1378.87 498.584 1379.48 499.34 1379.48 500.636H1375.66Z" fill="white"/>
<path d="M1468.96 506.001H1470.9V500.637C1470.9 499.521 1470.72 497.901 1470.58 496.821H1470.65L1471.59 499.665L1473.46 504.921H1474.86L1476.77 499.665L1477.71 496.821H1477.78C1477.64 497.901 1477.46 499.521 1477.46 500.637V506.001H1479.44V494.229H1476.92L1474.9 499.989C1474.65 500.745 1474.47 501.429 1474.25 502.293H1474.18C1473.96 501.429 1473.75 500.745 1473.5 499.989L1471.48 494.229H1468.96V506.001Z" fill="white"/>
<path d="M1485.86 506.217C1488.06 506.217 1490.08 504.525 1490.08 501.591C1490.08 498.639 1488.06 496.929 1485.86 496.929C1483.65 496.929 1481.63 498.639 1481.63 501.591C1481.63 504.525 1483.65 506.217 1485.86 506.217ZM1485.86 504.489C1484.59 504.489 1483.83 503.337 1483.83 501.591C1483.83 499.827 1484.59 498.675 1485.86 498.675C1487.14 498.675 1487.9 499.827 1487.9 501.591C1487.9 503.337 1487.14 504.489 1485.86 504.489Z" fill="white"/>
<path d="M1492.09 506.001H1494.23V499.845C1494.93 499.125 1495.44 498.765 1496.21 498.765C1497.15 498.765 1497.56 499.287 1497.56 500.727V506.001H1499.68V500.457C1499.68 498.225 1498.86 496.929 1496.95 496.929C1495.74 496.929 1494.84 497.577 1494.05 498.333H1494L1493.83 497.145H1492.09V506.001Z" fill="white"/>
<path d="M1502.18 506.001H1504.32V497.145H1502.18V506.001ZM1503.26 495.633C1504.01 495.633 1504.54 495.147 1504.54 494.427C1504.54 493.707 1504.01 493.221 1503.26 493.221C1502.5 493.221 1501.98 493.707 1501.98 494.427C1501.98 495.147 1502.5 495.633 1503.26 495.633Z" fill="white"/>
<path d="M1510.06 506.217C1510.78 506.217 1511.43 506.055 1511.89 505.839L1511.52 504.345C1511.21 504.471 1510.9 504.525 1510.6 504.525C1509.77 504.525 1509.36 504.021 1509.36 502.995V498.837H1511.61V497.145H1509.36V494.391H1507.59L1507.34 497.145L1505.97 497.253V498.837H1507.23V502.995C1507.23 504.921 1507.99 506.217 1510.06 506.217Z" fill="white"/>
<path d="M1516.82 506.217C1519.02 506.217 1521.03 504.525 1521.03 501.591C1521.03 498.639 1519.02 496.929 1516.82 496.929C1514.61 496.929 1512.59 498.639 1512.59 501.591C1512.59 504.525 1514.61 506.217 1516.82 506.217ZM1516.82 504.489C1515.54 504.489 1514.79 503.337 1514.79 501.591C1514.79 499.827 1515.54 498.675 1516.82 498.675C1518.1 498.675 1518.85 499.827 1518.85 501.591C1518.85 503.337 1518.1 504.489 1516.82 504.489Z" fill="white"/>
<path d="M1523.04 506.001H1525.19V500.637C1525.71 499.287 1526.55 498.819 1527.26 498.819C1527.62 498.819 1527.83 498.855 1528.1 498.927L1528.53 497.109C1528.26 497.001 1527.98 496.929 1527.53 496.929C1526.59 496.929 1525.65 497.577 1525.01 498.729H1524.95L1524.79 497.145H1523.04V506.001Z" fill="white"/>
<path d="M1623.68 506.001H1625.82V501.699H1627.47C1630.01 501.699 1631.97 500.511 1631.97 497.883C1631.97 495.147 1630.01 494.229 1627.4 494.229H1623.68V506.001ZM1625.82 499.989V495.939H1627.24C1628.95 495.939 1629.85 496.443 1629.85 497.883C1629.85 499.305 1629.04 499.989 1627.31 499.989H1625.82Z" fill="white"/>
<path d="M1633.97 506.001H1636.11V500.637C1636.64 499.287 1637.48 498.819 1638.18 498.819C1638.54 498.819 1638.76 498.855 1639.03 498.927L1639.46 497.109C1639.19 497.001 1638.9 496.929 1638.45 496.929C1637.52 496.929 1636.58 497.577 1635.93 498.729H1635.88L1635.72 497.145H1633.97V506.001Z" fill="white"/>
<path d="M1644.22 506.217C1646.41 506.217 1648.43 504.525 1648.43 501.591C1648.43 498.639 1646.41 496.929 1644.22 496.929C1642 496.929 1639.99 498.639 1639.99 501.591C1639.99 504.525 1642 506.217 1644.22 506.217ZM1644.22 504.489C1642.94 504.489 1642.18 503.337 1642.18 501.591C1642.18 499.827 1642.94 498.675 1644.22 498.675C1645.5 498.675 1646.25 499.827 1646.25 501.591C1646.25 503.337 1645.5 504.489 1644.22 504.489Z" fill="white"/>
<path d="M1653.19 506.217C1653.91 506.217 1654.56 506.055 1655.02 505.839L1654.65 504.345C1654.34 504.471 1654.03 504.525 1653.73 504.525C1652.9 504.525 1652.49 504.021 1652.49 502.995V498.837H1654.74V497.145H1652.49V494.391H1650.72L1650.47 497.145L1649.1 497.253V498.837H1650.36V502.995C1650.36 504.921 1651.12 506.217 1653.19 506.217Z" fill="white"/>
<path d="M1660.08 506.217C1661.23 506.217 1662.31 505.893 1663.14 505.281L1662.42 503.949C1661.8 504.345 1661.12 504.561 1660.36 504.561C1658.96 504.561 1658.02 503.697 1657.81 502.221H1663.39C1663.46 501.897 1663.5 501.573 1663.5 501.141C1663.5 498.657 1662.2 496.929 1659.81 496.929C1657.74 496.929 1655.72 498.693 1655.72 501.573C1655.72 504.525 1657.63 506.217 1660.08 506.217ZM1657.81 500.637C1657.99 499.305 1658.85 498.585 1659.86 498.585C1661.01 498.585 1661.62 499.341 1661.62 500.637H1657.81Z" fill="white"/>
<path d="M1669.14 506.217C1670.15 506.217 1671.2 505.875 1672.04 505.137L1671.18 503.787C1670.67 504.201 1670.06 504.489 1669.36 504.489C1668.01 504.489 1667.06 503.337 1667.06 501.591C1667.06 499.827 1668.03 498.675 1669.43 498.675C1669.99 498.675 1670.44 498.855 1670.89 499.251L1671.92 497.919C1671.27 497.343 1670.44 496.929 1669.32 496.929C1666.95 496.929 1664.86 498.639 1664.86 501.591C1664.86 504.525 1666.73 506.217 1669.14 506.217Z" fill="white"/>
<path d="M1676.73 506.217C1677.45 506.217 1678.09 506.055 1678.56 505.839L1678.18 504.345C1677.88 504.471 1677.57 504.525 1677.27 504.525C1676.44 504.525 1676.02 504.021 1676.02 502.995V498.837H1678.27V497.145H1676.02V494.391H1674.26L1674.01 497.145L1672.64 497.253V498.837H1673.9V502.995C1673.9 504.921 1674.66 506.217 1676.73 506.217Z" fill="white"/>
<path d="M854.896 506.001H857.038V501.699H858.694C861.232 501.699 863.194 500.511 863.194 497.883C863.194 495.147 861.232 494.229 858.622 494.229H854.896V506.001ZM857.038 499.989V495.939H858.46C860.17 495.939 861.07 496.443 861.07 497.883C861.07 499.305 860.26 499.989 858.532 499.989H857.038Z" fill="white"/>
<path d="M866.667 506.217C867.711 506.217 868.575 505.713 869.367 505.029H869.439L869.619 506.001H871.347V500.763C871.347 498.297 870.231 496.929 868.035 496.929C866.631 496.929 865.371 497.469 864.399 498.081L865.155 499.485C865.947 499.017 866.775 498.657 867.639 498.657C868.827 498.657 869.187 499.413 869.223 500.313C865.587 500.709 864.039 501.681 864.039 503.625C864.039 505.173 865.119 506.217 866.667 506.217ZM867.315 504.525C866.595 504.525 866.091 504.237 866.091 503.481C866.091 502.581 866.811 502.041 869.223 501.753V503.625C868.575 504.237 868.035 504.525 867.315 504.525Z" fill="white"/>
<path d="M877.496 506.217C878.504 506.217 879.548 505.875 880.394 505.137L879.53 503.787C879.026 504.201 878.414 504.489 877.712 504.489C876.362 504.489 875.408 503.337 875.408 501.591C875.408 499.827 876.38 498.675 877.784 498.675C878.342 498.675 878.792 498.855 879.242 499.251L880.268 497.919C879.62 497.343 878.792 496.929 877.676 496.929C875.3 496.929 873.212 498.639 873.212 501.591C873.212 504.525 875.084 506.217 877.496 506.217Z" fill="white"/>
<path d="M882.103 506.001H884.209V503.733L885.559 502.203L887.809 506.001H890.113L886.801 500.781L889.807 497.145H887.467L884.281 501.141H884.209V493.293H882.103V506.001Z" fill="white"/>
<path d="M893.526 506.217C894.57 506.217 895.434 505.713 896.226 505.029H896.298L896.478 506.001H898.206V500.763C898.206 498.297 897.09 496.929 894.894 496.929C893.49 496.929 892.23 497.469 891.258 498.081L892.014 499.485C892.806 499.017 893.634 498.657 894.498 498.657C895.686 498.657 896.046 499.413 896.082 500.313C892.446 500.709 890.898 501.681 890.898 503.625C890.898 505.173 891.978 506.217 893.526 506.217ZM894.174 504.525C893.454 504.525 892.95 504.237 892.95 503.481C892.95 502.581 893.67 502.041 896.082 501.753V503.625C895.434 504.237 894.894 504.525 894.174 504.525Z" fill="white"/>
<path d="M903.744 509.907C906.642 509.907 908.478 508.521 908.478 506.775C908.478 505.245 907.344 504.579 905.238 504.579H903.672C902.61 504.579 902.25 504.291 902.25 503.805C902.25 503.409 902.412 503.193 902.664 502.977C903.06 503.121 903.474 503.193 903.852 503.193C905.724 503.193 907.236 502.149 907.236 500.187C907.236 499.593 907.02 499.053 906.75 498.729H908.334V497.145H905.166C904.806 497.019 904.338 496.929 903.852 496.929C901.998 496.929 900.342 498.081 900.342 500.115C900.342 501.159 900.9 502.005 901.512 502.455V502.527C900.99 502.887 900.522 503.481 900.522 504.165C900.522 504.885 900.882 505.353 901.332 505.641V505.713C900.522 506.217 900.054 506.847 900.054 507.603C900.054 509.151 901.638 509.907 903.744 509.907ZM903.852 501.861C903.024 501.861 902.34 501.231 902.34 500.115C902.34 499.017 903.006 498.405 903.852 498.405C904.698 498.405 905.346 499.017 905.346 500.115C905.346 501.231 904.68 501.861 903.852 501.861ZM904.068 508.521C902.7 508.521 901.836 508.071 901.836 507.279C901.836 506.865 902.034 506.487 902.502 506.127C902.844 506.217 903.222 506.253 903.708 506.253H904.896C905.886 506.253 906.426 506.451 906.426 507.117C906.426 507.873 905.472 508.521 904.068 508.521Z" fill="white"/>
<path d="M913.533 506.217C914.685 506.217 915.765 505.893 916.593 505.281L915.873 503.949C915.261 504.345 914.577 504.561 913.821 504.561C912.417 504.561 911.481 503.697 911.265 502.221H916.845C916.917 501.897 916.953 501.573 916.953 501.141C916.953 498.657 915.657 496.929 913.263 496.929C911.193 496.929 909.177 498.693 909.177 501.573C909.177 504.525 911.085 506.217 913.533 506.217ZM911.265 500.637C911.445 499.305 912.309 498.585 913.317 498.585C914.469 498.585 915.081 499.341 915.081 500.637H911.265Z" fill="white"/>
<path d="M1016.41 506.216C1019.07 506.216 1020.65 504.614 1020.65 502.706C1020.65 500.996 1019.68 500.114 1018.28 499.52L1016.69 498.872C1015.72 498.458 1014.84 498.134 1014.84 497.234C1014.84 496.388 1015.54 495.884 1016.64 495.884C1017.54 495.884 1018.4 496.244 1019.14 496.874L1020.29 495.47C1019.38 494.588 1018.06 494.012 1016.64 494.012C1014.34 494.012 1012.68 495.47 1012.68 497.36C1012.68 499.07 1013.89 499.988 1015.06 500.474L1016.66 501.176C1017.72 501.626 1018.48 501.932 1018.48 502.868C1018.48 503.768 1017.76 504.362 1016.46 504.362C1015.33 504.362 1014.16 503.894 1013.31 503.084L1012.16 504.488C1013.27 505.622 1014.79 506.216 1016.41 506.216Z" fill="white"/>
<path d="M1026.38 506.216C1027.53 506.216 1028.61 505.892 1029.44 505.28L1028.72 503.948C1028.1 504.344 1027.42 504.56 1026.66 504.56C1025.26 504.56 1024.32 503.696 1024.11 502.22H1029.69C1029.76 501.896 1029.8 501.572 1029.8 501.14C1029.8 498.656 1028.5 496.928 1026.11 496.928C1024.04 496.928 1022.02 498.692 1022.02 501.572C1022.02 504.524 1023.93 506.216 1026.38 506.216ZM1024.11 500.636C1024.29 499.304 1025.15 498.584 1026.16 498.584C1027.31 498.584 1027.92 499.34 1027.92 500.636H1024.11Z" fill="white"/>
<path d="M1035.45 506.216C1036.45 506.216 1037.5 505.874 1038.34 505.136L1037.48 503.786C1036.98 504.2 1036.36 504.488 1035.66 504.488C1034.31 504.488 1033.36 503.336 1033.36 501.59C1033.36 499.826 1034.33 498.674 1035.73 498.674C1036.29 498.674 1036.74 498.854 1037.19 499.25L1038.22 497.918C1037.57 497.342 1036.74 496.928 1035.63 496.928C1033.25 496.928 1031.16 498.638 1031.16 501.59C1031.16 504.524 1033.03 506.216 1035.45 506.216Z" fill="white"/>
<path d="M1042.68 506.216C1043.9 506.216 1044.75 505.622 1045.52 504.704H1045.58L1045.74 506H1047.49V497.144H1045.36V503.192C1044.71 504.038 1044.21 504.398 1043.44 504.398C1042.5 504.398 1042.09 503.858 1042.09 502.418V497.144H1039.96V502.688C1039.96 504.92 1040.79 506.216 1042.68 506.216Z" fill="white"/>
<path d="M1050.09 506H1052.23V500.636C1052.75 499.286 1053.6 498.818 1054.3 498.818C1054.66 498.818 1054.88 498.854 1055.15 498.926L1055.58 497.108C1055.31 497 1055.02 496.928 1054.57 496.928C1053.63 496.928 1052.7 497.576 1052.05 498.728H1052L1051.83 497.144H1050.09V506Z" fill="white"/>
<path d="M1060.46 506.216C1061.61 506.216 1062.69 505.892 1063.52 505.28L1062.8 503.948C1062.19 504.344 1061.5 504.56 1060.75 504.56C1059.34 504.56 1058.41 503.696 1058.19 502.22H1063.77C1063.84 501.896 1063.88 501.572 1063.88 501.14C1063.88 498.656 1062.58 496.928 1060.19 496.928C1058.12 496.928 1056.1 498.692 1056.1 501.572C1056.1 504.524 1058.01 506.216 1060.46 506.216ZM1058.19 500.636C1058.37 499.304 1059.24 498.584 1060.24 498.584C1061.4 498.584 1062.01 499.34 1062.01 500.636H1058.19Z" fill="white"/>
<path d="M244.812 506.001H246.756V500.637C246.756 499.521 246.576 497.901 246.432 496.821H246.504L247.44 499.665L249.312 504.921H250.716L252.624 499.665L253.56 496.821H253.632C253.488 497.901 253.308 499.521 253.308 500.637V506.001H255.288V494.229H252.768L250.752 499.989C250.5 500.745 250.32 501.429 250.104 502.293H250.032C249.816 501.429 249.6 500.745 249.348 499.989L247.332 494.229H244.812V506.001Z" fill="white"/>
<path d="M260.222 506.217C261.266 506.217 262.13 505.713 262.922 505.029H262.994L263.174 506.001H264.902V500.763C264.902 498.297 263.786 496.929 261.59 496.929C260.186 496.929 258.926 497.469 257.954 498.081L258.71 499.485C259.502 499.017 260.33 498.657 261.194 498.657C262.382 498.657 262.742 499.413 262.778 500.313C259.142 500.709 257.594 501.681 257.594 503.625C257.594 505.173 258.674 506.217 260.222 506.217ZM260.87 504.525C260.15 504.525 259.646 504.237 259.646 503.481C259.646 502.581 260.366 502.041 262.778 501.753V503.625C262.13 504.237 261.59 504.525 260.87 504.525Z" fill="white"/>
<path d="M267.343 506.001H269.485V499.845C270.187 499.125 270.691 498.765 271.465 498.765C272.401 498.765 272.815 499.287 272.815 500.727V506.001H274.939V500.457C274.939 498.225 274.111 496.929 272.203 496.929C270.997 496.929 270.097 497.577 269.305 498.333H269.251L269.089 497.145H267.343V506.001Z" fill="white"/>
<path d="M279.593 506.217C280.637 506.217 281.501 505.713 282.293 505.029H282.365L282.545 506.001H284.273V500.763C284.273 498.297 283.157 496.929 280.961 496.929C279.557 496.929 278.297 497.469 277.325 498.081L278.081 499.485C278.873 499.017 279.701 498.657 280.565 498.657C281.753 498.657 282.113 499.413 282.149 500.313C278.513 500.709 276.965 501.681 276.965 503.625C276.965 505.173 278.045 506.217 279.593 506.217ZM280.241 504.525C279.521 504.525 279.017 504.237 279.017 503.481C279.017 502.581 279.737 502.041 282.149 501.753V503.625C281.501 504.237 280.961 504.525 280.241 504.525Z" fill="white"/>
<path d="M289.81 509.907C292.708 509.907 294.544 508.521 294.544 506.775C294.544 505.245 293.41 504.579 291.304 504.579H289.738C288.676 504.579 288.316 504.291 288.316 503.805C288.316 503.409 288.478 503.193 288.73 502.977C289.126 503.121 289.54 503.193 289.918 503.193C291.79 503.193 293.302 502.149 293.302 500.187C293.302 499.593 293.086 499.053 292.816 498.729H294.4V497.145H291.232C290.872 497.019 290.404 496.929 289.918 496.929C288.064 496.929 286.408 498.081 286.408 500.115C286.408 501.159 286.966 502.005 287.578 502.455V502.527C287.056 502.887 286.588 503.481 286.588 504.165C286.588 504.885 286.948 505.353 287.398 505.641V505.713C286.588 506.217 286.12 506.847 286.12 507.603C286.12 509.151 287.704 509.907 289.81 509.907ZM289.918 501.861C289.09 501.861 288.406 501.231 288.406 500.115C288.406 499.017 289.072 498.405 289.918 498.405C290.764 498.405 291.412 499.017 291.412 500.115C291.412 501.231 290.746 501.861 289.918 501.861ZM290.134 508.521C288.766 508.521 287.902 508.071 287.902 507.279C287.902 506.865 288.1 506.487 288.568 506.127C288.91 506.217 289.288 506.253 289.774 506.253H290.962C291.952 506.253 292.492 506.451 292.492 507.117C292.492 507.873 291.538 508.521 290.134 508.521Z" fill="white"/>
<path d="M299.599 506.217C300.751 506.217 301.831 505.893 302.659 505.281L301.939 503.949C301.327 504.345 300.643 504.561 299.887 504.561C298.483 504.561 297.547 503.697 297.331 502.221H302.911C302.983 501.897 303.019 501.573 303.019 501.141C303.019 498.657 301.723 496.929 299.329 496.929C297.259 496.929 295.243 498.693 295.243 501.573C295.243 504.525 297.151 506.217 299.599 506.217ZM297.331 500.637C297.511 499.305 298.375 498.585 299.383 498.585C300.535 498.585 301.147 499.341 301.147 500.637H297.331Z" fill="white"/>
<path d="M282 422C282 427.247 277.747 431.5 272.5 431.5C267.253 431.5 263 427.247 263 422C263 416.753 267.253 412.5 272.5 412.5C277.747 412.5 282 416.753 282 422Z" fill="#E24F23"/>
<path d="M275.667 422.001C275.667 423.75 274.249 425.167 272.5 425.167C270.751 425.167 269.333 423.75 269.333 422.001C269.333 420.252 270.751 418.834 272.5 418.834C274.249 418.834 275.667 420.252 275.667 422.001Z" fill="#380D75"/>
<path d="M436 382.5C436 387.747 431.747 392 426.5 392C421.253 392 417 387.747 417 382.5C417 377.253 421.253 373 426.5 373C431.747 373 436 377.253 436 382.5Z" fill="#EC6F24"/>
<path d="M429.667 382.501C429.667 384.25 428.249 385.667 426.5 385.667C424.751 385.667 423.333 384.25 423.333 382.501C423.333 380.752 424.751 379.334 426.5 379.334C428.249 379.334 429.667 380.752 429.667 382.501Z" fill="#380D75"/>
<path d="M587 376.5C587 381.747 582.747 386 577.5 386C572.253 386 568 381.747 568 376.5C568 371.253 572.253 367 577.5 367C582.747 367 587 371.253 587 376.5Z" fill="#EF7925"/>
<path d="M580.667 376.501C580.667 378.25 579.249 379.667 577.5 379.667C575.751 379.667 574.333 378.25 574.333 376.501C574.333 374.752 575.751 373.334 577.5 373.334C579.249 373.334 580.667 374.752 580.667 376.501Z" fill="#380D75"/>
<path d="M742 338.5C742 343.747 737.747 348 732.5 348C727.253 348 723 343.747 723 338.5C723 333.253 727.253 329 732.5 329C737.747 329 742 333.253 742 338.5Z" fill="#F68F26"/>
<path d="M735.667 338.501C735.667 340.25 734.249 341.667 732.5 341.667C730.751 341.667 729.333 340.25 729.333 338.501C729.333 336.752 730.751 335.334 732.5 335.334C734.249 335.334 735.667 336.752 735.667 338.501Z" fill="#380D75"/>
<path d="M895 348.5C895 353.747 890.747 358 885.5 358C880.253 358 876 353.747 876 348.5C876 343.253 880.253 339 885.5 339C890.747 339 895 343.253 895 348.5Z" fill="#F58D25"/>
<path d="M888.667 348.501C888.667 350.25 887.249 351.667 885.5 351.667C883.751 351.667 882.333 350.25 882.333 348.501C882.333 346.752 883.751 345.334 885.5 345.334C887.249 345.334 888.667 346.752 888.667 348.501Z" fill="#380D75"/>
<path d="M1048 299.5C1048 304.747 1043.75 309 1038.5 309C1033.25 309 1029 304.747 1029 299.5C1029 294.253 1033.25 290 1038.5 290C1043.75 290 1048 294.253 1048 299.5Z" fill="#FDA327"/>
<path d="M1041.67 299.501C1041.67 301.25 1040.25 302.667 1038.5 302.667C1036.75 302.667 1035.33 301.25 1035.33 299.501C1035.33 297.752 1036.75 296.334 1038.5 296.334C1040.25 296.334 1041.67 297.752 1041.67 299.501Z" fill="#380D75"/>
<path d="M1201 358.5C1201 363.747 1196.75 368 1191.5 368C1186.25 368 1182 363.747 1182 358.5C1182 353.253 1186.25 349 1191.5 349C1196.75 349 1201 353.253 1201 358.5Z" fill="#F38625"/>
<path d="M1194.67 358.501C1194.67 360.25 1193.25 361.667 1191.5 361.667C1189.75 361.667 1188.33 360.25 1188.33 358.501C1188.33 356.752 1189.75 355.334 1191.5 355.334C1193.25 355.334 1194.67 356.752 1194.67 358.501Z" fill="#380D75"/>
<path d="M1354 395.5C1354 400.747 1349.75 405 1344.5 405C1339.25 405 1335 400.747 1335 395.5C1335 390.253 1339.25 386 1344.5 386C1349.75 386 1354 390.253 1354 395.5Z" fill="#EA6A24"/>
<path d="M1347.67 395.501C1347.67 397.25 1346.25 398.667 1344.5 398.667C1342.75 398.667 1341.33 397.25 1341.33 395.501C1341.33 393.752 1342.75 392.334 1344.5 392.334C1346.25 392.334 1347.67 393.752 1347.67 395.501Z" fill="#380D75"/>
<path d="M1508 378.5C1508 383.747 1503.75 388 1498.5 388C1493.25 388 1489 383.747 1489 378.5C1489 373.253 1493.25 369 1498.5 369C1503.75 369 1508 373.253 1508 378.5Z" fill="#ED7324"/>
<path d="M1501.67 378.501C1501.67 380.25 1500.25 381.667 1498.5 381.667C1496.75 381.667 1495.33 380.25 1495.33 378.501C1495.33 376.752 1496.75 375.334 1498.5 375.334C1500.25 375.334 1501.67 376.752 1501.67 378.501Z" fill="#380D75"/>
<path d="M1657 368.5C1657 373.747 1652.75 378 1647.5 378C1642.25 378 1638 373.747 1638 368.5C1638 363.253 1642.25 359 1647.5 359C1652.75 359 1657 363.253 1657 368.5Z" fill="#F07C25"/>
<path d="M1650.67 368.501C1650.67 370.25 1649.25 371.667 1647.5 371.667C1645.75 371.667 1644.33 370.25 1644.33 368.501C1644.33 366.752 1645.75 365.334 1647.5 365.334C1649.25 365.334 1650.67 366.752 1650.67 368.501Z" fill="#380D75"/>
<path d="M282 310.5C282 315.747 277.747 320 272.5 320C267.253 320 263 315.747 263 310.5C263 305.253 267.253 301 272.5 301C277.747 301 282 305.253 282 310.5Z" fill="#2784FF"/>
<path d="M275.667 310.501C275.667 312.25 274.249 313.667 272.5 313.667C270.751 313.667 269.333 312.25 269.333 310.501C269.333 308.752 270.751 307.334 272.5 307.334C274.249 307.334 275.667 308.752 275.667 310.501Z" fill="#380D75"/>
<path d="M436 206.5C436 211.747 431.747 216 426.5 216C421.253 216 417 211.747 417 206.5C417 201.253 421.253 197 426.5 197C431.747 197 436 201.253 436 206.5Z" fill="#489FB7"/>
<path d="M429.667 206.501C429.667 208.25 428.249 209.667 426.5 209.667C424.751 209.667 423.333 208.25 423.333 206.501C423.333 204.752 424.751 203.334 426.5 203.334C428.249 203.334 429.667 204.752 429.667 206.501Z" fill="#380D75"/>
<path d="M587 219.5C587 224.747 582.747 229 577.5 229C572.253 229 568 224.747 568 219.5C568 214.253 572.253 210 577.5 210C582.747 210 587 214.253 587 219.5Z" fill="#459DBD"/>
<path d="M580.667 219.501C580.667 221.25 579.249 222.667 577.5 222.667C575.751 222.667 574.333 221.25 574.333 219.501C574.333 217.752 575.751 216.334 577.5 216.334C579.249 216.334 580.667 217.752 580.667 219.501Z" fill="#380D75"/>
<path d="M742 155.5C742 160.747 737.747 165 732.5 165C727.253 165 723 160.747 723 155.5C723 150.253 727.253 146 732.5 146C737.747 146 742 150.253 742 155.5Z" fill="#75C356"/>
<path d="M735.667 155.501C735.667 157.25 734.249 158.667 732.5 158.667C730.751 158.667 729.333 157.25 729.333 155.501C729.333 153.752 730.751 152.334 732.5 152.334C734.249 152.334 735.667 153.752 735.667 155.501Z" fill="#380D75"/>
<path d="M895 177.5C895 182.747 890.747 187 885.5 187C880.253 187 876 182.747 876 177.5C876 172.253 880.253 168 885.5 168C890.747 168 895 172.253 895 177.5Z" fill="#63B57D"/>
<path d="M888.667 177.501C888.667 179.25 887.249 180.667 885.5 180.667C883.751 180.667 882.333 179.25 882.333 177.501C882.333 175.752 883.751 174.334 885.5 174.334C887.249 174.334 888.667 175.752 888.667 177.501Z" fill="#380D75"/>
<path d="M1048 160.5C1048 165.747 1043.75 170 1038.5 170C1033.25 170 1029 165.747 1029 160.5C1029 155.253 1033.25 151 1038.5 151C1043.75 151 1048 155.253 1048 160.5Z" fill="#6DBD67"/>
<path d="M1041.67 160.501C1041.67 162.25 1040.25 163.667 1038.5 163.667C1036.75 163.667 1035.33 162.25 1035.33 160.501C1035.33 158.752 1036.75 157.334 1038.5 157.334C1040.25 157.334 1041.67 158.752 1041.67 160.501Z" fill="#380D75"/>
<path d="M1201 123.5C1201 128.747 1196.75 133 1191.5 133C1186.25 133 1182 128.747 1182 123.5C1182 118.253 1186.25 114 1191.5 114C1196.75 114 1201 118.253 1201 123.5Z" fill="#8AD42A"/>
<path d="M1194.67 123.501C1194.67 125.25 1193.25 126.667 1191.5 126.667C1189.75 126.667 1188.33 125.25 1188.33 123.501C1188.33 121.752 1189.75 120.334 1191.5 120.334C1193.25 120.334 1194.67 121.752 1194.67 123.501Z" fill="#380D75"/>
<path d="M1354 131.5C1354 136.747 1349.75 141 1344.5 141C1339.25 141 1335 136.747 1335 131.5C1335 126.253 1339.25 122 1344.5 122C1349.75 122 1354 126.253 1354 131.5Z" fill="#84CF36"/>
<path d="M1347.67 131.501C1347.67 133.25 1346.25 134.667 1344.5 134.667C1342.75 134.667 1341.33 133.25 1341.33 131.501C1341.33 129.752 1342.75 128.334 1344.5 128.334C1346.25 128.334 1347.67 129.752 1347.67 131.501Z" fill="#380D75"/>
<path d="M1508 106.5C1508 111.747 1503.75 116 1498.5 116C1493.25 116 1489 111.747 1489 106.5C1489 101.253 1493.25 97 1498.5 97C1503.75 97 1508 101.253 1508 106.5Z" fill="#8AD42A"/>
<path d="M1501.67 106.501C1501.67 108.25 1500.25 109.667 1498.5 109.667C1496.75 109.667 1495.33 108.25 1495.33 106.501C1495.33 104.752 1496.75 103.334 1498.5 103.334C1500.25 103.334 1501.67 104.752 1501.67 106.501Z" fill="#380D75"/>
<path d="M1657 122.5C1657 127.747 1652.75 132 1647.5 132C1642.25 132 1638 127.747 1638 122.5C1638 117.253 1642.25 113 1647.5 113C1652.75 113 1657 117.253 1657 122.5Z" fill="#7BC849"/>
<path d="M1650.67 122.501C1650.67 124.25 1649.25 125.667 1647.5 125.667C1645.75 125.667 1644.33 124.25 1644.33 122.501C1644.33 120.752 1645.75 119.334 1647.5 119.334C1649.25 119.334 1650.67 120.752 1650.67 122.501Z" fill="#380D75"/>
<path d="M276 473.5C276 475.433 274.433 477 272.5 477C270.567 477 269 475.433 269 473.5C269 471.567 270.567 470 272.5 470C274.433 470 276 471.567 276 473.5Z" fill="#380D75"/>
<path d="M430 473.5C430 475.433 428.433 477 426.5 477C424.567 477 423 475.433 423 473.5C423 471.567 424.567 470 426.5 470C428.433 470 430 471.567 430 473.5Z" fill="#380D75"/>
<path d="M581 473.5C581 475.433 579.433 477 577.5 477C575.567 477 574 475.433 574 473.5C574 471.567 575.567 470 577.5 470C579.433 470 581 471.567 581 473.5Z" fill="#380D75"/>
<path d="M736 473.5C736 475.433 734.433 477 732.5 477C730.567 477 729 475.433 729 473.5C729 471.567 730.567 470 732.5 470C734.433 470 736 471.567 736 473.5Z" fill="#380D75"/>
<path d="M889 473.5C889 475.433 887.433 477 885.5 477C883.567 477 882 475.433 882 473.5C882 471.567 883.567 470 885.5 470C887.433 470 889 471.567 889 473.5Z" fill="#380D75"/>
<path d="M1042 473.5C1042 475.433 1040.43 477 1038.5 477C1036.57 477 1035 475.433 1035 473.5C1035 471.567 1036.57 470 1038.5 470C1040.43 470 1042 471.567 1042 473.5Z" fill="#380D75"/>
<path d="M1195 473.5C1195 475.433 1193.43 477 1191.5 477C1189.57 477 1188 475.433 1188 473.5C1188 471.567 1189.57 470 1191.5 470C1193.43 470 1195 471.567 1195 473.5Z" fill="#380D75"/>
<path d="M1348 473.5C1348 475.433 1346.43 477 1344.5 477C1342.57 477 1341 475.433 1341 473.5C1341 471.567 1342.57 470 1344.5 470C1346.43 470 1348 471.567 1348 473.5Z" fill="#380D75"/>
<path d="M1502 473.5C1502 475.433 1500.43 477 1498.5 477C1496.57 477 1495 475.433 1495 473.5C1495 471.567 1496.57 470 1498.5 470C1500.43 470 1502 471.567 1502 473.5Z" fill="#380D75"/>
<path d="M1651 473.5C1651 475.433 1649.43 477 1647.5 477C1645.57 477 1644 475.433 1644 473.5C1644 471.567 1645.57 470 1647.5 470C1649.43 470 1651 471.567 1651 473.5Z" fill="#380D75"/>
<defs>
<linearGradient id="paint0_linear" x1="955" y1="273.168" x2="955" y2="461.5" gradientUnits="userSpaceOnUse">
<stop offset="0.207827" stop-color="#FCA326"/>
<stop offset="1" stop-color="#DB3B21"/>
</linearGradient>
<linearGradient id="paint1_linear" x1="960.25" y1="91.4553" x2="960.25" y2="260.5" gradientUnits="userSpaceOnUse">
<stop offset="0.207827" stop-color="#89D329"/>
<stop offset="1" stop-color="#2684FF"/>
</linearGradient>
</defs>
</svg>
