<?xml version="1.0" encoding="UTF-8"?>
<svg version="1.1" baseProfile="tiny" xmlns="http://www.w3.org/2000/svg" width="200" height="200">
<rect shape-rendering="optimizeSpeed"  x="0" y="0" width="200" height="200" fill="white" />
<rect shape-rendering="optimizeSpeed"  x="7" y="7" width="5" height="5" fill="black" />
<rect shape-rendering="optimizeSpeed"  x="12" y="7" width="5" height="5" fill="black" />
<rect shape-rendering="optimizeSpeed"  x="17" y="7" width="5" height="5" fill="black" />
<rect shape-rendering="optimizeSpeed"  x="22" y="7" width="5" height="5" fill="black" />
<rect shape-rendering="optimizeSpeed"  x="27" y="7" width="5" height="5" fill="black" />
<rect shape-rendering="optimizeSpeed"  x="32" y="7" width="5" height="5" fill="black" />
<rect shape-rendering="optimizeSpeed"  x="37" y="7" width="5" height="5" fill="black" />
<rect shape-rendering="optimizeSpeed"  x="57" y="7" width="5" height="5" fill="black" />
<rect shape-rendering="optimizeSpeed"  x="67" y="7" width="5" height="5" fill="black" />
<rect shape-rendering="optimizeSpeed"  x="72" y="7" width="5" height="5" fill="black" />
<rect shape-rendering="optimizeSpeed"  x="77" y="7" width="5" height="5" fill="black" />
<rect shape-rendering="optimizeSpeed"  x="82" y="7" width="5" height="5" fill="black" />
<rect shape-rendering="optimizeSpeed"  x="102" y="7" width="5" height="5" fill="black" />
<rect shape-rendering="optimizeSpeed"  x="107" y="7" width="5" height="5" fill="black" />
<rect shape-rendering="optimizeSpeed"  x="112" y="7" width="5" height="5" fill="black" />
<rect shape-rendering="optimizeSpeed"  x="122" y="7" width="5" height="5" fill="black" />
<rect shape-rendering="optimizeSpeed"  x="132" y="7" width="5" height="5" fill="black" />
<rect shape-rendering="optimizeSpeed"  x="157" y="7" width="5" height="5" fill="black" />
<rect shape-rendering="optimizeSpeed"  x="162" y="7" width="5" height="5" fill="black" />
<rect shape-rendering="optimizeSpeed"  x="167" y="7" width="5" height="5" fill="black" />
<rect shape-rendering="optimizeSpeed"  x="172" y="7" width="5" height="5" fill="black" />
<rect shape-rendering="optimizeSpeed"  x="177" y="7" width="5" height="5" fill="black" />
<rect shape-rendering="optimizeSpeed"  x="182" y="7" width="5" height="5" fill="black" />
<rect shape-rendering="optimizeSpeed"  x="187" y="7" width="5" height="5" fill="black" />
<rect shape-rendering="optimizeSpeed"  x="7" y="12" width="5" height="5" fill="black" />
<rect shape-rendering="optimizeSpeed"  x="37" y="12" width="5" height="5" fill="black" />
<rect shape-rendering="optimizeSpeed"  x="47" y="12" width="5" height="5" fill="black" />
<rect shape-rendering="optimizeSpeed"  x="57" y="12" width="5" height="5" fill="black" />
<rect shape-rendering="optimizeSpeed"  x="72" y="12" width="5" height="5" fill="black" />
<rect shape-rendering="optimizeSpeed"  x="77" y="12" width="5" height="5" fill="black" />
<rect shape-rendering="optimizeSpeed"  x="82" y="12" width="5" height="5" fill="black" />
<rect shape-rendering="optimizeSpeed"  x="87" y="12" width="5" height="5" fill="black" />
<rect shape-rendering="optimizeSpeed"  x="97" y="12" width="5" height="5" fill="black" />
<rect shape-rendering="optimizeSpeed"  x="112" y="12" width="5" height="5" fill="black" />
<rect shape-rendering="optimizeSpeed"  x="117" y="12" width="5" height="5" fill="black" />
<rect shape-rendering="optimizeSpeed"  x="127" y="12" width="5" height="5" fill="black" />
<rect shape-rendering="optimizeSpeed"  x="132" y="12" width="5" height="5" fill="black" />
<rect shape-rendering="optimizeSpeed"  x="137" y="12" width="5" height="5" fill="black" />
<rect shape-rendering="optimizeSpeed"  x="142" y="12" width="5" height="5" fill="black" />
<rect shape-rendering="optimizeSpeed"  x="157" y="12" width="5" height="5" fill="black" />
<rect shape-rendering="optimizeSpeed"  x="187" y="12" width="5" height="5" fill="black" />
<rect shape-rendering="optimizeSpeed"  x="7" y="17" width="5" height="5" fill="black" />
<rect shape-rendering="optimizeSpeed"  x="17" y="17" width="5" height="5" fill="black" />
<rect shape-rendering="optimizeSpeed"  x="22" y="17" width="5" height="5" fill="black" />
<rect shape-rendering="optimizeSpeed"  x="27" y="17" width="5" height="5" fill="black" />
<rect shape-rendering="optimizeSpeed"  x="37" y="17" width="5" height="5" fill="black" />
<rect shape-rendering="optimizeSpeed"  x="67" y="17" width="5" height="5" fill="black" />
<rect shape-rendering="optimizeSpeed"  x="72" y="17" width="5" height="5" fill="black" />
<rect shape-rendering="optimizeSpeed"  x="82" y="17" width="5" height="5" fill="black" />
<rect shape-rendering="optimizeSpeed"  x="97" y="17" width="5" height="5" fill="black" />
<rect shape-rendering="optimizeSpeed"  x="112" y="17" width="5" height="5" fill="black" />
<rect shape-rendering="optimizeSpeed"  x="122" y="17" width="5" height="5" fill="black" />
<rect shape-rendering="optimizeSpeed"  x="127" y="17" width="5" height="5" fill="black" />
<rect shape-rendering="optimizeSpeed"  x="137" y="17" width="5" height="5" fill="black" />
<rect shape-rendering="optimizeSpeed"  x="142" y="17" width="5" height="5" fill="black" />
<rect shape-rendering="optimizeSpeed"  x="147" y="17" width="5" height="5" fill="black" />
<rect shape-rendering="optimizeSpeed"  x="157" y="17" width="5" height="5" fill="black" />
<rect shape-rendering="optimizeSpeed"  x="167" y="17" width="5" height="5" fill="black" />
<rect shape-rendering="optimizeSpeed"  x="172" y="17" width="5" height="5" fill="black" />
<rect shape-rendering="optimizeSpeed"  x="177" y="17" width="5" height="5" fill="black" />
<rect shape-rendering="optimizeSpeed"  x="187" y="17" width="5" height="5" fill="black" />
<rect shape-rendering="optimizeSpeed"  x="7" y="22" width="5" height="5" fill="black" />
<rect shape-rendering="optimizeSpeed"  x="17" y="22" width="5" height="5" fill="black" />
<rect shape-rendering="optimizeSpeed"  x="22" y="22" width="5" height="5" fill="black" />
<rect shape-rendering="optimizeSpeed"  x="27" y="22" width="5" height="5" fill="black" />
<rect shape-rendering="optimizeSpeed"  x="37" y="22" width="5" height="5" fill="black" />
<rect shape-rendering="optimizeSpeed"  x="47" y="22" width="5" height="5" fill="black" />
<rect shape-rendering="optimizeSpeed"  x="52" y="22" width="5" height="5" fill="black" />
<rect shape-rendering="optimizeSpeed"  x="57" y="22" width="5" height="5" fill="black" />
<rect shape-rendering="optimizeSpeed"  x="67" y="22" width="5" height="5" fill="black" />
<rect shape-rendering="optimizeSpeed"  x="77" y="22" width="5" height="5" fill="black" />
<rect shape-rendering="optimizeSpeed"  x="82" y="22" width="5" height="5" fill="black" />
<rect shape-rendering="optimizeSpeed"  x="92" y="22" width="5" height="5" fill="black" />
<rect shape-rendering="optimizeSpeed"  x="102" y="22" width="5" height="5" fill="black" />
<rect shape-rendering="optimizeSpeed"  x="117" y="22" width="5" height="5" fill="black" />
<rect shape-rendering="optimizeSpeed"  x="122" y="22" width="5" height="5" fill="black" />
<rect shape-rendering="optimizeSpeed"  x="132" y="22" width="5" height="5" fill="black" />
<rect shape-rendering="optimizeSpeed"  x="137" y="22" width="5" height="5" fill="black" />
<rect shape-rendering="optimizeSpeed"  x="142" y="22" width="5" height="5" fill="black" />
<rect shape-rendering="optimizeSpeed"  x="147" y="22" width="5" height="5" fill="black" />
<rect shape-rendering="optimizeSpeed"  x="157" y="22" width="5" height="5" fill="black" />
<rect shape-rendering="optimizeSpeed"  x="167" y="22" width="5" height="5" fill="black" />
<rect shape-rendering="optimizeSpeed"  x="172" y="22" width="5" height="5" fill="black" />
<rect shape-rendering="optimizeSpeed"  x="177" y="22" width="5" height="5" fill="black" />
<rect shape-rendering="optimizeSpeed"  x="187" y="22" width="5" height="5" fill="black" />
<rect shape-rendering="optimizeSpeed"  x="7" y="27" width="5" height="5" fill="black" />
<rect shape-rendering="optimizeSpeed"  x="17" y="27" width="5" height="5" fill="black" />
<rect shape-rendering="optimizeSpeed"  x="22" y="27" width="5" height="5" fill="black" />
<rect shape-rendering="optimizeSpeed"  x="27" y="27" width="5" height="5" fill="black" />
<rect shape-rendering="optimizeSpeed"  x="37" y="27" width="5" height="5" fill="black" />
<rect shape-rendering="optimizeSpeed"  x="52" y="27" width="5" height="5" fill="black" />
<rect shape-rendering="optimizeSpeed"  x="82" y="27" width="5" height="5" fill="black" />
<rect shape-rendering="optimizeSpeed"  x="87" y="27" width="5" height="5" fill="black" />
<rect shape-rendering="optimizeSpeed"  x="97" y="27" width="5" height="5" fill="black" />
<rect shape-rendering="optimizeSpeed"  x="107" y="27" width="5" height="5" fill="black" />
<rect shape-rendering="optimizeSpeed"  x="112" y="27" width="5" height="5" fill="black" />
<rect shape-rendering="optimizeSpeed"  x="147" y="27" width="5" height="5" fill="black" />
<rect shape-rendering="optimizeSpeed"  x="157" y="27" width="5" height="5" fill="black" />
<rect shape-rendering="optimizeSpeed"  x="167" y="27" width="5" height="5" fill="black" />
<rect shape-rendering="optimizeSpeed"  x="172" y="27" width="5" height="5" fill="black" />
<rect shape-rendering="optimizeSpeed"  x="177" y="27" width="5" height="5" fill="black" />
<rect shape-rendering="optimizeSpeed"  x="187" y="27" width="5" height="5" fill="black" />
<rect shape-rendering="optimizeSpeed"  x="7" y="32" width="5" height="5" fill="black" />
<rect shape-rendering="optimizeSpeed"  x="37" y="32" width="5" height="5" fill="black" />
<rect shape-rendering="optimizeSpeed"  x="47" y="32" width="5" height="5" fill="black" />
<rect shape-rendering="optimizeSpeed"  x="52" y="32" width="5" height="5" fill="black" />
<rect shape-rendering="optimizeSpeed"  x="62" y="32" width="5" height="5" fill="black" />
<rect shape-rendering="optimizeSpeed"  x="67" y="32" width="5" height="5" fill="black" />
<rect shape-rendering="optimizeSpeed"  x="117" y="32" width="5" height="5" fill="black" />
<rect shape-rendering="optimizeSpeed"  x="127" y="32" width="5" height="5" fill="black" />
<rect shape-rendering="optimizeSpeed"  x="137" y="32" width="5" height="5" fill="black" />
<rect shape-rendering="optimizeSpeed"  x="142" y="32" width="5" height="5" fill="black" />
<rect shape-rendering="optimizeSpeed"  x="157" y="32" width="5" height="5" fill="black" />
<rect shape-rendering="optimizeSpeed"  x="187" y="32" width="5" height="5" fill="black" />
<rect shape-rendering="optimizeSpeed"  x="7" y="37" width="5" height="5" fill="black" />
<rect shape-rendering="optimizeSpeed"  x="12" y="37" width="5" height="5" fill="black" />
<rect shape-rendering="optimizeSpeed"  x="17" y="37" width="5" height="5" fill="black" />
<rect shape-rendering="optimizeSpeed"  x="22" y="37" width="5" height="5" fill="black" />
<rect shape-rendering="optimizeSpeed"  x="27" y="37" width="5" height="5" fill="black" />
<rect shape-rendering="optimizeSpeed"  x="32" y="37" width="5" height="5" fill="black" />
<rect shape-rendering="optimizeSpeed"  x="37" y="37" width="5" height="5" fill="black" />
<rect shape-rendering="optimizeSpeed"  x="47" y="37" width="5" height="5" fill="black" />
<rect shape-rendering="optimizeSpeed"  x="57" y="37" width="5" height="5" fill="black" />
<rect shape-rendering="optimizeSpeed"  x="67" y="37" width="5" height="5" fill="black" />
<rect shape-rendering="optimizeSpeed"  x="77" y="37" width="5" height="5" fill="black" />
<rect shape-rendering="optimizeSpeed"  x="87" y="37" width="5" height="5" fill="black" />
<rect shape-rendering="optimizeSpeed"  x="97" y="37" width="5" height="5" fill="black" />
<rect shape-rendering="optimizeSpeed"  x="107" y="37" width="5" height="5" fill="black" />
<rect shape-rendering="optimizeSpeed"  x="117" y="37" width="5" height="5" fill="black" />
<rect shape-rendering="optimizeSpeed"  x="127" y="37" width="5" height="5" fill="black" />
<rect shape-rendering="optimizeSpeed"  x="137" y="37" width="5" height="5" fill="black" />
<rect shape-rendering="optimizeSpeed"  x="147" y="37" width="5" height="5" fill="black" />
<rect shape-rendering="optimizeSpeed"  x="157" y="37" width="5" height="5" fill="black" />
<rect shape-rendering="optimizeSpeed"  x="162" y="37" width="5" height="5" fill="black" />
<rect shape-rendering="optimizeSpeed"  x="167" y="37" width="5" height="5" fill="black" />
<rect shape-rendering="optimizeSpeed"  x="172" y="37" width="5" height="5" fill="black" />
<rect shape-rendering="optimizeSpeed"  x="177" y="37" width="5" height="5" fill="black" />
<rect shape-rendering="optimizeSpeed"  x="182" y="37" width="5" height="5" fill="black" />
<rect shape-rendering="optimizeSpeed"  x="187" y="37" width="5" height="5" fill="black" />
<rect shape-rendering="optimizeSpeed"  x="52" y="42" width="5" height="5" fill="black" />
<rect shape-rendering="optimizeSpeed"  x="57" y="42" width="5" height="5" fill="black" />
<rect shape-rendering="optimizeSpeed"  x="62" y="42" width="5" height="5" fill="black" />
<rect shape-rendering="optimizeSpeed"  x="77" y="42" width="5" height="5" fill="black" />
<rect shape-rendering="optimizeSpeed"  x="87" y="42" width="5" height="5" fill="black" />
<rect shape-rendering="optimizeSpeed"  x="107" y="42" width="5" height="5" fill="black" />
<rect shape-rendering="optimizeSpeed"  x="112" y="42" width="5" height="5" fill="black" />
<rect shape-rendering="optimizeSpeed"  x="117" y="42" width="5" height="5" fill="black" />
<rect shape-rendering="optimizeSpeed"  x="122" y="42" width="5" height="5" fill="black" />
<rect shape-rendering="optimizeSpeed"  x="127" y="42" width="5" height="5" fill="black" />
<rect shape-rendering="optimizeSpeed"  x="147" y="42" width="5" height="5" fill="black" />
<rect shape-rendering="optimizeSpeed"  x="7" y="47" width="5" height="5" fill="black" />
<rect shape-rendering="optimizeSpeed"  x="12" y="47" width="5" height="5" fill="black" />
<rect shape-rendering="optimizeSpeed"  x="17" y="47" width="5" height="5" fill="black" />
<rect shape-rendering="optimizeSpeed"  x="22" y="47" width="5" height="5" fill="black" />
<rect shape-rendering="optimizeSpeed"  x="27" y="47" width="5" height="5" fill="black" />
<rect shape-rendering="optimizeSpeed"  x="37" y="47" width="5" height="5" fill="black" />
<rect shape-rendering="optimizeSpeed"  x="42" y="47" width="5" height="5" fill="black" />
<rect shape-rendering="optimizeSpeed"  x="47" y="47" width="5" height="5" fill="black" />
<rect shape-rendering="optimizeSpeed"  x="52" y="47" width="5" height="5" fill="black" />
<rect shape-rendering="optimizeSpeed"  x="62" y="47" width="5" height="5" fill="black" />
<rect shape-rendering="optimizeSpeed"  x="87" y="47" width="5" height="5" fill="black" />
<rect shape-rendering="optimizeSpeed"  x="92" y="47" width="5" height="5" fill="black" />
<rect shape-rendering="optimizeSpeed"  x="107" y="47" width="5" height="5" fill="black" />
<rect shape-rendering="optimizeSpeed"  x="117" y="47" width="5" height="5" fill="black" />
<rect shape-rendering="optimizeSpeed"  x="122" y="47" width="5" height="5" fill="black" />
<rect shape-rendering="optimizeSpeed"  x="132" y="47" width="5" height="5" fill="black" />
<rect shape-rendering="optimizeSpeed"  x="152" y="47" width="5" height="5" fill="black" />
<rect shape-rendering="optimizeSpeed"  x="162" y="47" width="5" height="5" fill="black" />
<rect shape-rendering="optimizeSpeed"  x="172" y="47" width="5" height="5" fill="black" />
<rect shape-rendering="optimizeSpeed"  x="182" y="47" width="5" height="5" fill="black" />
<rect shape-rendering="optimizeSpeed"  x="7" y="52" width="5" height="5" fill="black" />
<rect shape-rendering="optimizeSpeed"  x="12" y="52" width="5" height="5" fill="black" />
<rect shape-rendering="optimizeSpeed"  x="22" y="52" width="5" height="5" fill="black" />
<rect shape-rendering="optimizeSpeed"  x="27" y="52" width="5" height="5" fill="black" />
<rect shape-rendering="optimizeSpeed"  x="42" y="52" width="5" height="5" fill="black" />
<rect shape-rendering="optimizeSpeed"  x="47" y="52" width="5" height="5" fill="black" />
<rect shape-rendering="optimizeSpeed"  x="52" y="52" width="5" height="5" fill="black" />
<rect shape-rendering="optimizeSpeed"  x="57" y="52" width="5" height="5" fill="black" />
<rect shape-rendering="optimizeSpeed"  x="67" y="52" width="5" height="5" fill="black" />
<rect shape-rendering="optimizeSpeed"  x="72" y="52" width="5" height="5" fill="black" />
<rect shape-rendering="optimizeSpeed"  x="77" y="52" width="5" height="5" fill="black" />
<rect shape-rendering="optimizeSpeed"  x="82" y="52" width="5" height="5" fill="black" />
<rect shape-rendering="optimizeSpeed"  x="97" y="52" width="5" height="5" fill="black" />
<rect shape-rendering="optimizeSpeed"  x="107" y="52" width="5" height="5" fill="black" />
<rect shape-rendering="optimizeSpeed"  x="132" y="52" width="5" height="5" fill="black" />
<rect shape-rendering="optimizeSpeed"  x="147" y="52" width="5" height="5" fill="black" />
<rect shape-rendering="optimizeSpeed"  x="162" y="52" width="5" height="5" fill="black" />
<rect shape-rendering="optimizeSpeed"  x="172" y="52" width="5" height="5" fill="black" />
<rect shape-rendering="optimizeSpeed"  x="177" y="52" width="5" height="5" fill="black" />
<rect shape-rendering="optimizeSpeed"  x="182" y="52" width="5" height="5" fill="black" />
<rect shape-rendering="optimizeSpeed"  x="27" y="57" width="5" height="5" fill="black" />
<rect shape-rendering="optimizeSpeed"  x="37" y="57" width="5" height="5" fill="black" />
<rect shape-rendering="optimizeSpeed"  x="42" y="57" width="5" height="5" fill="black" />
<rect shape-rendering="optimizeSpeed"  x="72" y="57" width="5" height="5" fill="black" />
<rect shape-rendering="optimizeSpeed"  x="77" y="57" width="5" height="5" fill="black" />
<rect shape-rendering="optimizeSpeed"  x="82" y="57" width="5" height="5" fill="black" />
<rect shape-rendering="optimizeSpeed"  x="87" y="57" width="5" height="5" fill="black" />
<rect shape-rendering="optimizeSpeed"  x="107" y="57" width="5" height="5" fill="black" />
<rect shape-rendering="optimizeSpeed"  x="117" y="57" width="5" height="5" fill="black" />
<rect shape-rendering="optimizeSpeed"  x="127" y="57" width="5" height="5" fill="black" />
<rect shape-rendering="optimizeSpeed"  x="132" y="57" width="5" height="5" fill="black" />
<rect shape-rendering="optimizeSpeed"  x="137" y="57" width="5" height="5" fill="black" />
<rect shape-rendering="optimizeSpeed"  x="142" y="57" width="5" height="5" fill="black" />
<rect shape-rendering="optimizeSpeed"  x="147" y="57" width="5" height="5" fill="black" />
<rect shape-rendering="optimizeSpeed"  x="152" y="57" width="5" height="5" fill="black" />
<rect shape-rendering="optimizeSpeed"  x="157" y="57" width="5" height="5" fill="black" />
<rect shape-rendering="optimizeSpeed"  x="172" y="57" width="5" height="5" fill="black" />
<rect shape-rendering="optimizeSpeed"  x="177" y="57" width="5" height="5" fill="black" />
<rect shape-rendering="optimizeSpeed"  x="187" y="57" width="5" height="5" fill="black" />
<rect shape-rendering="optimizeSpeed"  x="12" y="62" width="5" height="5" fill="black" />
<rect shape-rendering="optimizeSpeed"  x="27" y="62" width="5" height="5" fill="black" />
<rect shape-rendering="optimizeSpeed"  x="42" y="62" width="5" height="5" fill="black" />
<rect shape-rendering="optimizeSpeed"  x="57" y="62" width="5" height="5" fill="black" />
<rect shape-rendering="optimizeSpeed"  x="67" y="62" width="5" height="5" fill="black" />
<rect shape-rendering="optimizeSpeed"  x="72" y="62" width="5" height="5" fill="black" />
<rect shape-rendering="optimizeSpeed"  x="82" y="62" width="5" height="5" fill="black" />
<rect shape-rendering="optimizeSpeed"  x="97" y="62" width="5" height="5" fill="black" />
<rect shape-rendering="optimizeSpeed"  x="112" y="62" width="5" height="5" fill="black" />
<rect shape-rendering="optimizeSpeed"  x="117" y="62" width="5" height="5" fill="black" />
<rect shape-rendering="optimizeSpeed"  x="127" y="62" width="5" height="5" fill="black" />
<rect shape-rendering="optimizeSpeed"  x="137" y="62" width="5" height="5" fill="black" />
<rect shape-rendering="optimizeSpeed"  x="142" y="62" width="5" height="5" fill="black" />
<rect shape-rendering="optimizeSpeed"  x="147" y="62" width="5" height="5" fill="black" />
<rect shape-rendering="optimizeSpeed"  x="152" y="62" width="5" height="5" fill="black" />
<rect shape-rendering="optimizeSpeed"  x="157" y="62" width="5" height="5" fill="black" />
<rect shape-rendering="optimizeSpeed"  x="162" y="62" width="5" height="5" fill="black" />
<rect shape-rendering="optimizeSpeed"  x="167" y="62" width="5" height="5" fill="black" />
<rect shape-rendering="optimizeSpeed"  x="172" y="62" width="5" height="5" fill="black" />
<rect shape-rendering="optimizeSpeed"  x="182" y="62" width="5" height="5" fill="black" />
<rect shape-rendering="optimizeSpeed"  x="7" y="67" width="5" height="5" fill="black" />
<rect shape-rendering="optimizeSpeed"  x="27" y="67" width="5" height="5" fill="black" />
<rect shape-rendering="optimizeSpeed"  x="32" y="67" width="5" height="5" fill="black" />
<rect shape-rendering="optimizeSpeed"  x="37" y="67" width="5" height="5" fill="black" />
<rect shape-rendering="optimizeSpeed"  x="42" y="67" width="5" height="5" fill="black" />
<rect shape-rendering="optimizeSpeed"  x="67" y="67" width="5" height="5" fill="black" />
<rect shape-rendering="optimizeSpeed"  x="77" y="67" width="5" height="5" fill="black" />
<rect shape-rendering="optimizeSpeed"  x="82" y="67" width="5" height="5" fill="black" />
<rect shape-rendering="optimizeSpeed"  x="92" y="67" width="5" height="5" fill="black" />
<rect shape-rendering="optimizeSpeed"  x="102" y="67" width="5" height="5" fill="black" />
<rect shape-rendering="optimizeSpeed"  x="112" y="67" width="5" height="5" fill="black" />
<rect shape-rendering="optimizeSpeed"  x="117" y="67" width="5" height="5" fill="black" />
<rect shape-rendering="optimizeSpeed"  x="122" y="67" width="5" height="5" fill="black" />
<rect shape-rendering="optimizeSpeed"  x="132" y="67" width="5" height="5" fill="black" />
<rect shape-rendering="optimizeSpeed"  x="142" y="67" width="5" height="5" fill="black" />
<rect shape-rendering="optimizeSpeed"  x="157" y="67" width="5" height="5" fill="black" />
<rect shape-rendering="optimizeSpeed"  x="167" y="67" width="5" height="5" fill="black" />
<rect shape-rendering="optimizeSpeed"  x="172" y="67" width="5" height="5" fill="black" />
<rect shape-rendering="optimizeSpeed"  x="177" y="67" width="5" height="5" fill="black" />
<rect shape-rendering="optimizeSpeed"  x="187" y="67" width="5" height="5" fill="black" />
<rect shape-rendering="optimizeSpeed"  x="12" y="72" width="5" height="5" fill="black" />
<rect shape-rendering="optimizeSpeed"  x="27" y="72" width="5" height="5" fill="black" />
<rect shape-rendering="optimizeSpeed"  x="32" y="72" width="5" height="5" fill="black" />
<rect shape-rendering="optimizeSpeed"  x="42" y="72" width="5" height="5" fill="black" />
<rect shape-rendering="optimizeSpeed"  x="47" y="72" width="5" height="5" fill="black" />
<rect shape-rendering="optimizeSpeed"  x="52" y="72" width="5" height="5" fill="black" />
<rect shape-rendering="optimizeSpeed"  x="57" y="72" width="5" height="5" fill="black" />
<rect shape-rendering="optimizeSpeed"  x="82" y="72" width="5" height="5" fill="black" />
<rect shape-rendering="optimizeSpeed"  x="87" y="72" width="5" height="5" fill="black" />
<rect shape-rendering="optimizeSpeed"  x="92" y="72" width="5" height="5" fill="black" />
<rect shape-rendering="optimizeSpeed"  x="97" y="72" width="5" height="5" fill="black" />
<rect shape-rendering="optimizeSpeed"  x="102" y="72" width="5" height="5" fill="black" />
<rect shape-rendering="optimizeSpeed"  x="107" y="72" width="5" height="5" fill="black" />
<rect shape-rendering="optimizeSpeed"  x="122" y="72" width="5" height="5" fill="black" />
<rect shape-rendering="optimizeSpeed"  x="137" y="72" width="5" height="5" fill="black" />
<rect shape-rendering="optimizeSpeed"  x="147" y="72" width="5" height="5" fill="black" />
<rect shape-rendering="optimizeSpeed"  x="162" y="72" width="5" height="5" fill="black" />
<rect shape-rendering="optimizeSpeed"  x="177" y="72" width="5" height="5" fill="black" />
<rect shape-rendering="optimizeSpeed"  x="182" y="72" width="5" height="5" fill="black" />
<rect shape-rendering="optimizeSpeed"  x="7" y="77" width="5" height="5" fill="black" />
<rect shape-rendering="optimizeSpeed"  x="12" y="77" width="5" height="5" fill="black" />
<rect shape-rendering="optimizeSpeed"  x="22" y="77" width="5" height="5" fill="black" />
<rect shape-rendering="optimizeSpeed"  x="27" y="77" width="5" height="5" fill="black" />
<rect shape-rendering="optimizeSpeed"  x="32" y="77" width="5" height="5" fill="black" />
<rect shape-rendering="optimizeSpeed"  x="37" y="77" width="5" height="5" fill="black" />
<rect shape-rendering="optimizeSpeed"  x="62" y="77" width="5" height="5" fill="black" />
<rect shape-rendering="optimizeSpeed"  x="67" y="77" width="5" height="5" fill="black" />
<rect shape-rendering="optimizeSpeed"  x="92" y="77" width="5" height="5" fill="black" />
<rect shape-rendering="optimizeSpeed"  x="112" y="77" width="5" height="5" fill="black" />
<rect shape-rendering="optimizeSpeed"  x="117" y="77" width="5" height="5" fill="black" />
<rect shape-rendering="optimizeSpeed"  x="127" y="77" width="5" height="5" fill="black" />
<rect shape-rendering="optimizeSpeed"  x="142" y="77" width="5" height="5" fill="black" />
<rect shape-rendering="optimizeSpeed"  x="147" y="77" width="5" height="5" fill="black" />
<rect shape-rendering="optimizeSpeed"  x="152" y="77" width="5" height="5" fill="black" />
<rect shape-rendering="optimizeSpeed"  x="162" y="77" width="5" height="5" fill="black" />
<rect shape-rendering="optimizeSpeed"  x="167" y="77" width="5" height="5" fill="black" />
<rect shape-rendering="optimizeSpeed"  x="177" y="77" width="5" height="5" fill="black" />
<rect shape-rendering="optimizeSpeed"  x="182" y="77" width="5" height="5" fill="black" />
<rect shape-rendering="optimizeSpeed"  x="187" y="77" width="5" height="5" fill="black" />
<rect shape-rendering="optimizeSpeed"  x="7" y="82" width="5" height="5" fill="black" />
<rect shape-rendering="optimizeSpeed"  x="12" y="82" width="5" height="5" fill="black" />
<rect shape-rendering="optimizeSpeed"  x="27" y="82" width="5" height="5" fill="black" />
<rect shape-rendering="optimizeSpeed"  x="32" y="82" width="5" height="5" fill="black" />
<rect shape-rendering="optimizeSpeed"  x="57" y="82" width="5" height="5" fill="black" />
<rect shape-rendering="optimizeSpeed"  x="62" y="82" width="5" height="5" fill="black" />
<rect shape-rendering="optimizeSpeed"  x="77" y="82" width="5" height="5" fill="black" />
<rect shape-rendering="optimizeSpeed"  x="87" y="82" width="5" height="5" fill="black" />
<rect shape-rendering="optimizeSpeed"  x="107" y="82" width="5" height="5" fill="black" />
<rect shape-rendering="optimizeSpeed"  x="112" y="82" width="5" height="5" fill="black" />
<rect shape-rendering="optimizeSpeed"  x="122" y="82" width="5" height="5" fill="black" />
<rect shape-rendering="optimizeSpeed"  x="137" y="82" width="5" height="5" fill="black" />
<rect shape-rendering="optimizeSpeed"  x="142" y="82" width="5" height="5" fill="black" />
<rect shape-rendering="optimizeSpeed"  x="147" y="82" width="5" height="5" fill="black" />
<rect shape-rendering="optimizeSpeed"  x="162" y="82" width="5" height="5" fill="black" />
<rect shape-rendering="optimizeSpeed"  x="172" y="82" width="5" height="5" fill="black" />
<rect shape-rendering="optimizeSpeed"  x="187" y="82" width="5" height="5" fill="black" />
<rect shape-rendering="optimizeSpeed"  x="7" y="87" width="5" height="5" fill="black" />
<rect shape-rendering="optimizeSpeed"  x="12" y="87" width="5" height="5" fill="black" />
<rect shape-rendering="optimizeSpeed"  x="27" y="87" width="5" height="5" fill="black" />
<rect shape-rendering="optimizeSpeed"  x="32" y="87" width="5" height="5" fill="black" />
<rect shape-rendering="optimizeSpeed"  x="37" y="87" width="5" height="5" fill="black" />
<rect shape-rendering="optimizeSpeed"  x="42" y="87" width="5" height="5" fill="black" />
<rect shape-rendering="optimizeSpeed"  x="47" y="87" width="5" height="5" fill="black" />
<rect shape-rendering="optimizeSpeed"  x="62" y="87" width="5" height="5" fill="black" />
<rect shape-rendering="optimizeSpeed"  x="87" y="87" width="5" height="5" fill="black" />
<rect shape-rendering="optimizeSpeed"  x="92" y="87" width="5" height="5" fill="black" />
<rect shape-rendering="optimizeSpeed"  x="102" y="87" width="5" height="5" fill="black" />
<rect shape-rendering="optimizeSpeed"  x="117" y="87" width="5" height="5" fill="black" />
<rect shape-rendering="optimizeSpeed"  x="132" y="87" width="5" height="5" fill="black" />
<rect shape-rendering="optimizeSpeed"  x="137" y="87" width="5" height="5" fill="black" />
<rect shape-rendering="optimizeSpeed"  x="152" y="87" width="5" height="5" fill="black" />
<rect shape-rendering="optimizeSpeed"  x="157" y="87" width="5" height="5" fill="black" />
<rect shape-rendering="optimizeSpeed"  x="167" y="87" width="5" height="5" fill="black" />
<rect shape-rendering="optimizeSpeed"  x="172" y="87" width="5" height="5" fill="black" />
<rect shape-rendering="optimizeSpeed"  x="177" y="87" width="5" height="5" fill="black" />
<rect shape-rendering="optimizeSpeed"  x="187" y="87" width="5" height="5" fill="black" />
<rect shape-rendering="optimizeSpeed"  x="7" y="92" width="5" height="5" fill="black" />
<rect shape-rendering="optimizeSpeed"  x="12" y="92" width="5" height="5" fill="black" />
<rect shape-rendering="optimizeSpeed"  x="17" y="92" width="5" height="5" fill="black" />
<rect shape-rendering="optimizeSpeed"  x="27" y="92" width="5" height="5" fill="black" />
<rect shape-rendering="optimizeSpeed"  x="42" y="92" width="5" height="5" fill="black" />
<rect shape-rendering="optimizeSpeed"  x="47" y="92" width="5" height="5" fill="black" />
<rect shape-rendering="optimizeSpeed"  x="52" y="92" width="5" height="5" fill="black" />
<rect shape-rendering="optimizeSpeed"  x="57" y="92" width="5" height="5" fill="black" />
<rect shape-rendering="optimizeSpeed"  x="67" y="92" width="5" height="5" fill="black" />
<rect shape-rendering="optimizeSpeed"  x="72" y="92" width="5" height="5" fill="black" />
<rect shape-rendering="optimizeSpeed"  x="77" y="92" width="5" height="5" fill="black" />
<rect shape-rendering="optimizeSpeed"  x="82" y="92" width="5" height="5" fill="black" />
<rect shape-rendering="optimizeSpeed"  x="92" y="92" width="5" height="5" fill="black" />
<rect shape-rendering="optimizeSpeed"  x="102" y="92" width="5" height="5" fill="black" />
<rect shape-rendering="optimizeSpeed"  x="107" y="92" width="5" height="5" fill="black" />
<rect shape-rendering="optimizeSpeed"  x="117" y="92" width="5" height="5" fill="black" />
<rect shape-rendering="optimizeSpeed"  x="122" y="92" width="5" height="5" fill="black" />
<rect shape-rendering="optimizeSpeed"  x="132" y="92" width="5" height="5" fill="black" />
<rect shape-rendering="optimizeSpeed"  x="137" y="92" width="5" height="5" fill="black" />
<rect shape-rendering="optimizeSpeed"  x="147" y="92" width="5" height="5" fill="black" />
<rect shape-rendering="optimizeSpeed"  x="162" y="92" width="5" height="5" fill="black" />
<rect shape-rendering="optimizeSpeed"  x="177" y="92" width="5" height="5" fill="black" />
<rect shape-rendering="optimizeSpeed"  x="182" y="92" width="5" height="5" fill="black" />
<rect shape-rendering="optimizeSpeed"  x="12" y="97" width="5" height="5" fill="black" />
<rect shape-rendering="optimizeSpeed"  x="17" y="97" width="5" height="5" fill="black" />
<rect shape-rendering="optimizeSpeed"  x="22" y="97" width="5" height="5" fill="black" />
<rect shape-rendering="optimizeSpeed"  x="27" y="97" width="5" height="5" fill="black" />
<rect shape-rendering="optimizeSpeed"  x="37" y="97" width="5" height="5" fill="black" />
<rect shape-rendering="optimizeSpeed"  x="42" y="97" width="5" height="5" fill="black" />
<rect shape-rendering="optimizeSpeed"  x="52" y="97" width="5" height="5" fill="black" />
<rect shape-rendering="optimizeSpeed"  x="72" y="97" width="5" height="5" fill="black" />
<rect shape-rendering="optimizeSpeed"  x="77" y="97" width="5" height="5" fill="black" />
<rect shape-rendering="optimizeSpeed"  x="82" y="97" width="5" height="5" fill="black" />
<rect shape-rendering="optimizeSpeed"  x="87" y="97" width="5" height="5" fill="black" />
<rect shape-rendering="optimizeSpeed"  x="97" y="97" width="5" height="5" fill="black" />
<rect shape-rendering="optimizeSpeed"  x="107" y="97" width="5" height="5" fill="black" />
<rect shape-rendering="optimizeSpeed"  x="112" y="97" width="5" height="5" fill="black" />
<rect shape-rendering="optimizeSpeed"  x="142" y="97" width="5" height="5" fill="black" />
<rect shape-rendering="optimizeSpeed"  x="147" y="97" width="5" height="5" fill="black" />
<rect shape-rendering="optimizeSpeed"  x="157" y="97" width="5" height="5" fill="black" />
<rect shape-rendering="optimizeSpeed"  x="162" y="97" width="5" height="5" fill="black" />
<rect shape-rendering="optimizeSpeed"  x="167" y="97" width="5" height="5" fill="black" />
<rect shape-rendering="optimizeSpeed"  x="177" y="97" width="5" height="5" fill="black" />
<rect shape-rendering="optimizeSpeed"  x="182" y="97" width="5" height="5" fill="black" />
<rect shape-rendering="optimizeSpeed"  x="187" y="97" width="5" height="5" fill="black" />
<rect shape-rendering="optimizeSpeed"  x="7" y="102" width="5" height="5" fill="black" />
<rect shape-rendering="optimizeSpeed"  x="17" y="102" width="5" height="5" fill="black" />
<rect shape-rendering="optimizeSpeed"  x="22" y="102" width="5" height="5" fill="black" />
<rect shape-rendering="optimizeSpeed"  x="32" y="102" width="5" height="5" fill="black" />
<rect shape-rendering="optimizeSpeed"  x="42" y="102" width="5" height="5" fill="black" />
<rect shape-rendering="optimizeSpeed"  x="57" y="102" width="5" height="5" fill="black" />
<rect shape-rendering="optimizeSpeed"  x="67" y="102" width="5" height="5" fill="black" />
<rect shape-rendering="optimizeSpeed"  x="72" y="102" width="5" height="5" fill="black" />
<rect shape-rendering="optimizeSpeed"  x="82" y="102" width="5" height="5" fill="black" />
<rect shape-rendering="optimizeSpeed"  x="97" y="102" width="5" height="5" fill="black" />
<rect shape-rendering="optimizeSpeed"  x="107" y="102" width="5" height="5" fill="black" />
<rect shape-rendering="optimizeSpeed"  x="112" y="102" width="5" height="5" fill="black" />
<rect shape-rendering="optimizeSpeed"  x="127" y="102" width="5" height="5" fill="black" />
<rect shape-rendering="optimizeSpeed"  x="137" y="102" width="5" height="5" fill="black" />
<rect shape-rendering="optimizeSpeed"  x="142" y="102" width="5" height="5" fill="black" />
<rect shape-rendering="optimizeSpeed"  x="147" y="102" width="5" height="5" fill="black" />
<rect shape-rendering="optimizeSpeed"  x="152" y="102" width="5" height="5" fill="black" />
<rect shape-rendering="optimizeSpeed"  x="162" y="102" width="5" height="5" fill="black" />
<rect shape-rendering="optimizeSpeed"  x="167" y="102" width="5" height="5" fill="black" />
<rect shape-rendering="optimizeSpeed"  x="187" y="102" width="5" height="5" fill="black" />
<rect shape-rendering="optimizeSpeed"  x="22" y="107" width="5" height="5" fill="black" />
<rect shape-rendering="optimizeSpeed"  x="27" y="107" width="5" height="5" fill="black" />
<rect shape-rendering="optimizeSpeed"  x="32" y="107" width="5" height="5" fill="black" />
<rect shape-rendering="optimizeSpeed"  x="37" y="107" width="5" height="5" fill="black" />
<rect shape-rendering="optimizeSpeed"  x="42" y="107" width="5" height="5" fill="black" />
<rect shape-rendering="optimizeSpeed"  x="47" y="107" width="5" height="5" fill="black" />
<rect shape-rendering="optimizeSpeed"  x="52" y="107" width="5" height="5" fill="black" />
<rect shape-rendering="optimizeSpeed"  x="57" y="107" width="5" height="5" fill="black" />
<rect shape-rendering="optimizeSpeed"  x="67" y="107" width="5" height="5" fill="black" />
<rect shape-rendering="optimizeSpeed"  x="77" y="107" width="5" height="5" fill="black" />
<rect shape-rendering="optimizeSpeed"  x="82" y="107" width="5" height="5" fill="black" />
<rect shape-rendering="optimizeSpeed"  x="102" y="107" width="5" height="5" fill="black" />
<rect shape-rendering="optimizeSpeed"  x="112" y="107" width="5" height="5" fill="black" />
<rect shape-rendering="optimizeSpeed"  x="117" y="107" width="5" height="5" fill="black" />
<rect shape-rendering="optimizeSpeed"  x="137" y="107" width="5" height="5" fill="black" />
<rect shape-rendering="optimizeSpeed"  x="142" y="107" width="5" height="5" fill="black" />
<rect shape-rendering="optimizeSpeed"  x="147" y="107" width="5" height="5" fill="black" />
<rect shape-rendering="optimizeSpeed"  x="152" y="107" width="5" height="5" fill="black" />
<rect shape-rendering="optimizeSpeed"  x="157" y="107" width="5" height="5" fill="black" />
<rect shape-rendering="optimizeSpeed"  x="167" y="107" width="5" height="5" fill="black" />
<rect shape-rendering="optimizeSpeed"  x="172" y="107" width="5" height="5" fill="black" />
<rect shape-rendering="optimizeSpeed"  x="177" y="107" width="5" height="5" fill="black" />
<rect shape-rendering="optimizeSpeed"  x="182" y="107" width="5" height="5" fill="black" />
<rect shape-rendering="optimizeSpeed"  x="187" y="107" width="5" height="5" fill="black" />
<rect shape-rendering="optimizeSpeed"  x="7" y="112" width="5" height="5" fill="black" />
<rect shape-rendering="optimizeSpeed"  x="17" y="112" width="5" height="5" fill="black" />
<rect shape-rendering="optimizeSpeed"  x="22" y="112" width="5" height="5" fill="black" />
<rect shape-rendering="optimizeSpeed"  x="42" y="112" width="5" height="5" fill="black" />
<rect shape-rendering="optimizeSpeed"  x="47" y="112" width="5" height="5" fill="black" />
<rect shape-rendering="optimizeSpeed"  x="82" y="112" width="5" height="5" fill="black" />
<rect shape-rendering="optimizeSpeed"  x="87" y="112" width="5" height="5" fill="black" />
<rect shape-rendering="optimizeSpeed"  x="102" y="112" width="5" height="5" fill="black" />
<rect shape-rendering="optimizeSpeed"  x="112" y="112" width="5" height="5" fill="black" />
<rect shape-rendering="optimizeSpeed"  x="117" y="112" width="5" height="5" fill="black" />
<rect shape-rendering="optimizeSpeed"  x="122" y="112" width="5" height="5" fill="black" />
<rect shape-rendering="optimizeSpeed"  x="127" y="112" width="5" height="5" fill="black" />
<rect shape-rendering="optimizeSpeed"  x="147" y="112" width="5" height="5" fill="black" />
<rect shape-rendering="optimizeSpeed"  x="162" y="112" width="5" height="5" fill="black" />
<rect shape-rendering="optimizeSpeed"  x="182" y="112" width="5" height="5" fill="black" />
<rect shape-rendering="optimizeSpeed"  x="7" y="117" width="5" height="5" fill="black" />
<rect shape-rendering="optimizeSpeed"  x="12" y="117" width="5" height="5" fill="black" />
<rect shape-rendering="optimizeSpeed"  x="22" y="117" width="5" height="5" fill="black" />
<rect shape-rendering="optimizeSpeed"  x="27" y="117" width="5" height="5" fill="black" />
<rect shape-rendering="optimizeSpeed"  x="37" y="117" width="5" height="5" fill="black" />
<rect shape-rendering="optimizeSpeed"  x="47" y="117" width="5" height="5" fill="black" />
<rect shape-rendering="optimizeSpeed"  x="52" y="117" width="5" height="5" fill="black" />
<rect shape-rendering="optimizeSpeed"  x="57" y="117" width="5" height="5" fill="black" />
<rect shape-rendering="optimizeSpeed"  x="62" y="117" width="5" height="5" fill="black" />
<rect shape-rendering="optimizeSpeed"  x="67" y="117" width="5" height="5" fill="black" />
<rect shape-rendering="optimizeSpeed"  x="97" y="117" width="5" height="5" fill="black" />
<rect shape-rendering="optimizeSpeed"  x="117" y="117" width="5" height="5" fill="black" />
<rect shape-rendering="optimizeSpeed"  x="132" y="117" width="5" height="5" fill="black" />
<rect shape-rendering="optimizeSpeed"  x="142" y="117" width="5" height="5" fill="black" />
<rect shape-rendering="optimizeSpeed"  x="147" y="117" width="5" height="5" fill="black" />
<rect shape-rendering="optimizeSpeed"  x="152" y="117" width="5" height="5" fill="black" />
<rect shape-rendering="optimizeSpeed"  x="162" y="117" width="5" height="5" fill="black" />
<rect shape-rendering="optimizeSpeed"  x="167" y="117" width="5" height="5" fill="black" />
<rect shape-rendering="optimizeSpeed"  x="172" y="117" width="5" height="5" fill="black" />
<rect shape-rendering="optimizeSpeed"  x="182" y="117" width="5" height="5" fill="black" />
<rect shape-rendering="optimizeSpeed"  x="187" y="117" width="5" height="5" fill="black" />
<rect shape-rendering="optimizeSpeed"  x="7" y="122" width="5" height="5" fill="black" />
<rect shape-rendering="optimizeSpeed"  x="12" y="122" width="5" height="5" fill="black" />
<rect shape-rendering="optimizeSpeed"  x="32" y="122" width="5" height="5" fill="black" />
<rect shape-rendering="optimizeSpeed"  x="47" y="122" width="5" height="5" fill="black" />
<rect shape-rendering="optimizeSpeed"  x="52" y="122" width="5" height="5" fill="black" />
<rect shape-rendering="optimizeSpeed"  x="57" y="122" width="5" height="5" fill="black" />
<rect shape-rendering="optimizeSpeed"  x="62" y="122" width="5" height="5" fill="black" />
<rect shape-rendering="optimizeSpeed"  x="77" y="122" width="5" height="5" fill="black" />
<rect shape-rendering="optimizeSpeed"  x="87" y="122" width="5" height="5" fill="black" />
<rect shape-rendering="optimizeSpeed"  x="97" y="122" width="5" height="5" fill="black" />
<rect shape-rendering="optimizeSpeed"  x="102" y="122" width="5" height="5" fill="black" />
<rect shape-rendering="optimizeSpeed"  x="107" y="122" width="5" height="5" fill="black" />
<rect shape-rendering="optimizeSpeed"  x="112" y="122" width="5" height="5" fill="black" />
<rect shape-rendering="optimizeSpeed"  x="117" y="122" width="5" height="5" fill="black" />
<rect shape-rendering="optimizeSpeed"  x="122" y="122" width="5" height="5" fill="black" />
<rect shape-rendering="optimizeSpeed"  x="137" y="122" width="5" height="5" fill="black" />
<rect shape-rendering="optimizeSpeed"  x="152" y="122" width="5" height="5" fill="black" />
<rect shape-rendering="optimizeSpeed"  x="162" y="122" width="5" height="5" fill="black" />
<rect shape-rendering="optimizeSpeed"  x="167" y="122" width="5" height="5" fill="black" />
<rect shape-rendering="optimizeSpeed"  x="187" y="122" width="5" height="5" fill="black" />
<rect shape-rendering="optimizeSpeed"  x="7" y="127" width="5" height="5" fill="black" />
<rect shape-rendering="optimizeSpeed"  x="12" y="127" width="5" height="5" fill="black" />
<rect shape-rendering="optimizeSpeed"  x="17" y="127" width="5" height="5" fill="black" />
<rect shape-rendering="optimizeSpeed"  x="27" y="127" width="5" height="5" fill="black" />
<rect shape-rendering="optimizeSpeed"  x="32" y="127" width="5" height="5" fill="black" />
<rect shape-rendering="optimizeSpeed"  x="37" y="127" width="5" height="5" fill="black" />
<rect shape-rendering="optimizeSpeed"  x="47" y="127" width="5" height="5" fill="black" />
<rect shape-rendering="optimizeSpeed"  x="62" y="127" width="5" height="5" fill="black" />
<rect shape-rendering="optimizeSpeed"  x="92" y="127" width="5" height="5" fill="black" />
<rect shape-rendering="optimizeSpeed"  x="112" y="127" width="5" height="5" fill="black" />
<rect shape-rendering="optimizeSpeed"  x="117" y="127" width="5" height="5" fill="black" />
<rect shape-rendering="optimizeSpeed"  x="122" y="127" width="5" height="5" fill="black" />
<rect shape-rendering="optimizeSpeed"  x="132" y="127" width="5" height="5" fill="black" />
<rect shape-rendering="optimizeSpeed"  x="137" y="127" width="5" height="5" fill="black" />
<rect shape-rendering="optimizeSpeed"  x="142" y="127" width="5" height="5" fill="black" />
<rect shape-rendering="optimizeSpeed"  x="152" y="127" width="5" height="5" fill="black" />
<rect shape-rendering="optimizeSpeed"  x="157" y="127" width="5" height="5" fill="black" />
<rect shape-rendering="optimizeSpeed"  x="167" y="127" width="5" height="5" fill="black" />
<rect shape-rendering="optimizeSpeed"  x="172" y="127" width="5" height="5" fill="black" />
<rect shape-rendering="optimizeSpeed"  x="177" y="127" width="5" height="5" fill="black" />
<rect shape-rendering="optimizeSpeed"  x="182" y="127" width="5" height="5" fill="black" />
<rect shape-rendering="optimizeSpeed"  x="187" y="127" width="5" height="5" fill="black" />
<rect shape-rendering="optimizeSpeed"  x="7" y="132" width="5" height="5" fill="black" />
<rect shape-rendering="optimizeSpeed"  x="17" y="132" width="5" height="5" fill="black" />
<rect shape-rendering="optimizeSpeed"  x="27" y="132" width="5" height="5" fill="black" />
<rect shape-rendering="optimizeSpeed"  x="47" y="132" width="5" height="5" fill="black" />
<rect shape-rendering="optimizeSpeed"  x="52" y="132" width="5" height="5" fill="black" />
<rect shape-rendering="optimizeSpeed"  x="67" y="132" width="5" height="5" fill="black" />
<rect shape-rendering="optimizeSpeed"  x="72" y="132" width="5" height="5" fill="black" />
<rect shape-rendering="optimizeSpeed"  x="77" y="132" width="5" height="5" fill="black" />
<rect shape-rendering="optimizeSpeed"  x="82" y="132" width="5" height="5" fill="black" />
<rect shape-rendering="optimizeSpeed"  x="97" y="132" width="5" height="5" fill="black" />
<rect shape-rendering="optimizeSpeed"  x="107" y="132" width="5" height="5" fill="black" />
<rect shape-rendering="optimizeSpeed"  x="147" y="132" width="5" height="5" fill="black" />
<rect shape-rendering="optimizeSpeed"  x="162" y="132" width="5" height="5" fill="black" />
<rect shape-rendering="optimizeSpeed"  x="177" y="132" width="5" height="5" fill="black" />
<rect shape-rendering="optimizeSpeed"  x="182" y="132" width="5" height="5" fill="black" />
<rect shape-rendering="optimizeSpeed"  x="7" y="137" width="5" height="5" fill="black" />
<rect shape-rendering="optimizeSpeed"  x="22" y="137" width="5" height="5" fill="black" />
<rect shape-rendering="optimizeSpeed"  x="37" y="137" width="5" height="5" fill="black" />
<rect shape-rendering="optimizeSpeed"  x="42" y="137" width="5" height="5" fill="black" />
<rect shape-rendering="optimizeSpeed"  x="47" y="137" width="5" height="5" fill="black" />
<rect shape-rendering="optimizeSpeed"  x="52" y="137" width="5" height="5" fill="black" />
<rect shape-rendering="optimizeSpeed"  x="72" y="137" width="5" height="5" fill="black" />
<rect shape-rendering="optimizeSpeed"  x="77" y="137" width="5" height="5" fill="black" />
<rect shape-rendering="optimizeSpeed"  x="82" y="137" width="5" height="5" fill="black" />
<rect shape-rendering="optimizeSpeed"  x="87" y="137" width="5" height="5" fill="black" />
<rect shape-rendering="optimizeSpeed"  x="92" y="137" width="5" height="5" fill="black" />
<rect shape-rendering="optimizeSpeed"  x="97" y="137" width="5" height="5" fill="black" />
<rect shape-rendering="optimizeSpeed"  x="112" y="137" width="5" height="5" fill="black" />
<rect shape-rendering="optimizeSpeed"  x="117" y="137" width="5" height="5" fill="black" />
<rect shape-rendering="optimizeSpeed"  x="132" y="137" width="5" height="5" fill="black" />
<rect shape-rendering="optimizeSpeed"  x="142" y="137" width="5" height="5" fill="black" />
<rect shape-rendering="optimizeSpeed"  x="147" y="137" width="5" height="5" fill="black" />
<rect shape-rendering="optimizeSpeed"  x="152" y="137" width="5" height="5" fill="black" />
<rect shape-rendering="optimizeSpeed"  x="162" y="137" width="5" height="5" fill="black" />
<rect shape-rendering="optimizeSpeed"  x="167" y="137" width="5" height="5" fill="black" />
<rect shape-rendering="optimizeSpeed"  x="177" y="137" width="5" height="5" fill="black" />
<rect shape-rendering="optimizeSpeed"  x="182" y="137" width="5" height="5" fill="black" />
<rect shape-rendering="optimizeSpeed"  x="187" y="137" width="5" height="5" fill="black" />
<rect shape-rendering="optimizeSpeed"  x="7" y="142" width="5" height="5" fill="black" />
<rect shape-rendering="optimizeSpeed"  x="17" y="142" width="5" height="5" fill="black" />
<rect shape-rendering="optimizeSpeed"  x="22" y="142" width="5" height="5" fill="black" />
<rect shape-rendering="optimizeSpeed"  x="27" y="142" width="5" height="5" fill="black" />
<rect shape-rendering="optimizeSpeed"  x="32" y="142" width="5" height="5" fill="black" />
<rect shape-rendering="optimizeSpeed"  x="57" y="142" width="5" height="5" fill="black" />
<rect shape-rendering="optimizeSpeed"  x="67" y="142" width="5" height="5" fill="black" />
<rect shape-rendering="optimizeSpeed"  x="72" y="142" width="5" height="5" fill="black" />
<rect shape-rendering="optimizeSpeed"  x="87" y="142" width="5" height="5" fill="black" />
<rect shape-rendering="optimizeSpeed"  x="112" y="142" width="5" height="5" fill="black" />
<rect shape-rendering="optimizeSpeed"  x="122" y="142" width="5" height="5" fill="black" />
<rect shape-rendering="optimizeSpeed"  x="127" y="142" width="5" height="5" fill="black" />
<rect shape-rendering="optimizeSpeed"  x="147" y="142" width="5" height="5" fill="black" />
<rect shape-rendering="optimizeSpeed"  x="152" y="142" width="5" height="5" fill="black" />
<rect shape-rendering="optimizeSpeed"  x="157" y="142" width="5" height="5" fill="black" />
<rect shape-rendering="optimizeSpeed"  x="162" y="142" width="5" height="5" fill="black" />
<rect shape-rendering="optimizeSpeed"  x="187" y="142" width="5" height="5" fill="black" />
<rect shape-rendering="optimizeSpeed"  x="7" y="147" width="5" height="5" fill="black" />
<rect shape-rendering="optimizeSpeed"  x="27" y="147" width="5" height="5" fill="black" />
<rect shape-rendering="optimizeSpeed"  x="37" y="147" width="5" height="5" fill="black" />
<rect shape-rendering="optimizeSpeed"  x="47" y="147" width="5" height="5" fill="black" />
<rect shape-rendering="optimizeSpeed"  x="67" y="147" width="5" height="5" fill="black" />
<rect shape-rendering="optimizeSpeed"  x="77" y="147" width="5" height="5" fill="black" />
<rect shape-rendering="optimizeSpeed"  x="92" y="147" width="5" height="5" fill="black" />
<rect shape-rendering="optimizeSpeed"  x="97" y="147" width="5" height="5" fill="black" />
<rect shape-rendering="optimizeSpeed"  x="102" y="147" width="5" height="5" fill="black" />
<rect shape-rendering="optimizeSpeed"  x="107" y="147" width="5" height="5" fill="black" />
<rect shape-rendering="optimizeSpeed"  x="117" y="147" width="5" height="5" fill="black" />
<rect shape-rendering="optimizeSpeed"  x="132" y="147" width="5" height="5" fill="black" />
<rect shape-rendering="optimizeSpeed"  x="147" y="147" width="5" height="5" fill="black" />
<rect shape-rendering="optimizeSpeed"  x="152" y="147" width="5" height="5" fill="black" />
<rect shape-rendering="optimizeSpeed"  x="157" y="147" width="5" height="5" fill="black" />
<rect shape-rendering="optimizeSpeed"  x="162" y="147" width="5" height="5" fill="black" />
<rect shape-rendering="optimizeSpeed"  x="167" y="147" width="5" height="5" fill="black" />
<rect shape-rendering="optimizeSpeed"  x="172" y="147" width="5" height="5" fill="black" />
<rect shape-rendering="optimizeSpeed"  x="177" y="147" width="5" height="5" fill="black" />
<rect shape-rendering="optimizeSpeed"  x="47" y="152" width="5" height="5" fill="black" />
<rect shape-rendering="optimizeSpeed"  x="92" y="152" width="5" height="5" fill="black" />
<rect shape-rendering="optimizeSpeed"  x="102" y="152" width="5" height="5" fill="black" />
<rect shape-rendering="optimizeSpeed"  x="112" y="152" width="5" height="5" fill="black" />
<rect shape-rendering="optimizeSpeed"  x="117" y="152" width="5" height="5" fill="black" />
<rect shape-rendering="optimizeSpeed"  x="122" y="152" width="5" height="5" fill="black" />
<rect shape-rendering="optimizeSpeed"  x="127" y="152" width="5" height="5" fill="black" />
<rect shape-rendering="optimizeSpeed"  x="132" y="152" width="5" height="5" fill="black" />
<rect shape-rendering="optimizeSpeed"  x="137" y="152" width="5" height="5" fill="black" />
<rect shape-rendering="optimizeSpeed"  x="142" y="152" width="5" height="5" fill="black" />
<rect shape-rendering="optimizeSpeed"  x="147" y="152" width="5" height="5" fill="black" />
<rect shape-rendering="optimizeSpeed"  x="167" y="152" width="5" height="5" fill="black" />
<rect shape-rendering="optimizeSpeed"  x="172" y="152" width="5" height="5" fill="black" />
<rect shape-rendering="optimizeSpeed"  x="7" y="157" width="5" height="5" fill="black" />
<rect shape-rendering="optimizeSpeed"  x="12" y="157" width="5" height="5" fill="black" />
<rect shape-rendering="optimizeSpeed"  x="17" y="157" width="5" height="5" fill="black" />
<rect shape-rendering="optimizeSpeed"  x="22" y="157" width="5" height="5" fill="black" />
<rect shape-rendering="optimizeSpeed"  x="27" y="157" width="5" height="5" fill="black" />
<rect shape-rendering="optimizeSpeed"  x="32" y="157" width="5" height="5" fill="black" />
<rect shape-rendering="optimizeSpeed"  x="37" y="157" width="5" height="5" fill="black" />
<rect shape-rendering="optimizeSpeed"  x="47" y="157" width="5" height="5" fill="black" />
<rect shape-rendering="optimizeSpeed"  x="52" y="157" width="5" height="5" fill="black" />
<rect shape-rendering="optimizeSpeed"  x="62" y="157" width="5" height="5" fill="black" />
<rect shape-rendering="optimizeSpeed"  x="67" y="157" width="5" height="5" fill="black" />
<rect shape-rendering="optimizeSpeed"  x="82" y="157" width="5" height="5" fill="black" />
<rect shape-rendering="optimizeSpeed"  x="87" y="157" width="5" height="5" fill="black" />
<rect shape-rendering="optimizeSpeed"  x="97" y="157" width="5" height="5" fill="black" />
<rect shape-rendering="optimizeSpeed"  x="147" y="157" width="5" height="5" fill="black" />
<rect shape-rendering="optimizeSpeed"  x="157" y="157" width="5" height="5" fill="black" />
<rect shape-rendering="optimizeSpeed"  x="167" y="157" width="5" height="5" fill="black" />
<rect shape-rendering="optimizeSpeed"  x="177" y="157" width="5" height="5" fill="black" />
<rect shape-rendering="optimizeSpeed"  x="182" y="157" width="5" height="5" fill="black" />
<rect shape-rendering="optimizeSpeed"  x="187" y="157" width="5" height="5" fill="black" />
<rect shape-rendering="optimizeSpeed"  x="7" y="162" width="5" height="5" fill="black" />
<rect shape-rendering="optimizeSpeed"  x="37" y="162" width="5" height="5" fill="black" />
<rect shape-rendering="optimizeSpeed"  x="62" y="162" width="5" height="5" fill="black" />
<rect shape-rendering="optimizeSpeed"  x="77" y="162" width="5" height="5" fill="black" />
<rect shape-rendering="optimizeSpeed"  x="82" y="162" width="5" height="5" fill="black" />
<rect shape-rendering="optimizeSpeed"  x="87" y="162" width="5" height="5" fill="black" />
<rect shape-rendering="optimizeSpeed"  x="107" y="162" width="5" height="5" fill="black" />
<rect shape-rendering="optimizeSpeed"  x="112" y="162" width="5" height="5" fill="black" />
<rect shape-rendering="optimizeSpeed"  x="127" y="162" width="5" height="5" fill="black" />
<rect shape-rendering="optimizeSpeed"  x="137" y="162" width="5" height="5" fill="black" />
<rect shape-rendering="optimizeSpeed"  x="147" y="162" width="5" height="5" fill="black" />
<rect shape-rendering="optimizeSpeed"  x="167" y="162" width="5" height="5" fill="black" />
<rect shape-rendering="optimizeSpeed"  x="187" y="162" width="5" height="5" fill="black" />
<rect shape-rendering="optimizeSpeed"  x="7" y="167" width="5" height="5" fill="black" />
<rect shape-rendering="optimizeSpeed"  x="17" y="167" width="5" height="5" fill="black" />
<rect shape-rendering="optimizeSpeed"  x="22" y="167" width="5" height="5" fill="black" />
<rect shape-rendering="optimizeSpeed"  x="27" y="167" width="5" height="5" fill="black" />
<rect shape-rendering="optimizeSpeed"  x="37" y="167" width="5" height="5" fill="black" />
<rect shape-rendering="optimizeSpeed"  x="47" y="167" width="5" height="5" fill="black" />
<rect shape-rendering="optimizeSpeed"  x="52" y="167" width="5" height="5" fill="black" />
<rect shape-rendering="optimizeSpeed"  x="62" y="167" width="5" height="5" fill="black" />
<rect shape-rendering="optimizeSpeed"  x="82" y="167" width="5" height="5" fill="black" />
<rect shape-rendering="optimizeSpeed"  x="87" y="167" width="5" height="5" fill="black" />
<rect shape-rendering="optimizeSpeed"  x="92" y="167" width="5" height="5" fill="black" />
<rect shape-rendering="optimizeSpeed"  x="97" y="167" width="5" height="5" fill="black" />
<rect shape-rendering="optimizeSpeed"  x="122" y="167" width="5" height="5" fill="black" />
<rect shape-rendering="optimizeSpeed"  x="127" y="167" width="5" height="5" fill="black" />
<rect shape-rendering="optimizeSpeed"  x="132" y="167" width="5" height="5" fill="black" />
<rect shape-rendering="optimizeSpeed"  x="142" y="167" width="5" height="5" fill="black" />
<rect shape-rendering="optimizeSpeed"  x="147" y="167" width="5" height="5" fill="black" />
<rect shape-rendering="optimizeSpeed"  x="152" y="167" width="5" height="5" fill="black" />
<rect shape-rendering="optimizeSpeed"  x="157" y="167" width="5" height="5" fill="black" />
<rect shape-rendering="optimizeSpeed"  x="162" y="167" width="5" height="5" fill="black" />
<rect shape-rendering="optimizeSpeed"  x="167" y="167" width="5" height="5" fill="black" />
<rect shape-rendering="optimizeSpeed"  x="177" y="167" width="5" height="5" fill="black" />
<rect shape-rendering="optimizeSpeed"  x="187" y="167" width="5" height="5" fill="black" />
<rect shape-rendering="optimizeSpeed"  x="7" y="172" width="5" height="5" fill="black" />
<rect shape-rendering="optimizeSpeed"  x="17" y="172" width="5" height="5" fill="black" />
<rect shape-rendering="optimizeSpeed"  x="22" y="172" width="5" height="5" fill="black" />
<rect shape-rendering="optimizeSpeed"  x="27" y="172" width="5" height="5" fill="black" />
<rect shape-rendering="optimizeSpeed"  x="37" y="172" width="5" height="5" fill="black" />
<rect shape-rendering="optimizeSpeed"  x="47" y="172" width="5" height="5" fill="black" />
<rect shape-rendering="optimizeSpeed"  x="67" y="172" width="5" height="5" fill="black" />
<rect shape-rendering="optimizeSpeed"  x="72" y="172" width="5" height="5" fill="black" />
<rect shape-rendering="optimizeSpeed"  x="77" y="172" width="5" height="5" fill="black" />
<rect shape-rendering="optimizeSpeed"  x="82" y="172" width="5" height="5" fill="black" />
<rect shape-rendering="optimizeSpeed"  x="87" y="172" width="5" height="5" fill="black" />
<rect shape-rendering="optimizeSpeed"  x="107" y="172" width="5" height="5" fill="black" />
<rect shape-rendering="optimizeSpeed"  x="112" y="172" width="5" height="5" fill="black" />
<rect shape-rendering="optimizeSpeed"  x="117" y="172" width="5" height="5" fill="black" />
<rect shape-rendering="optimizeSpeed"  x="137" y="172" width="5" height="5" fill="black" />
<rect shape-rendering="optimizeSpeed"  x="142" y="172" width="5" height="5" fill="black" />
<rect shape-rendering="optimizeSpeed"  x="157" y="172" width="5" height="5" fill="black" />
<rect shape-rendering="optimizeSpeed"  x="167" y="172" width="5" height="5" fill="black" />
<rect shape-rendering="optimizeSpeed"  x="172" y="172" width="5" height="5" fill="black" />
<rect shape-rendering="optimizeSpeed"  x="182" y="172" width="5" height="5" fill="black" />
<rect shape-rendering="optimizeSpeed"  x="187" y="172" width="5" height="5" fill="black" />
<rect shape-rendering="optimizeSpeed"  x="7" y="177" width="5" height="5" fill="black" />
<rect shape-rendering="optimizeSpeed"  x="17" y="177" width="5" height="5" fill="black" />
<rect shape-rendering="optimizeSpeed"  x="22" y="177" width="5" height="5" fill="black" />
<rect shape-rendering="optimizeSpeed"  x="27" y="177" width="5" height="5" fill="black" />
<rect shape-rendering="optimizeSpeed"  x="37" y="177" width="5" height="5" fill="black" />
<rect shape-rendering="optimizeSpeed"  x="47" y="177" width="5" height="5" fill="black" />
<rect shape-rendering="optimizeSpeed"  x="52" y="177" width="5" height="5" fill="black" />
<rect shape-rendering="optimizeSpeed"  x="72" y="177" width="5" height="5" fill="black" />
<rect shape-rendering="optimizeSpeed"  x="77" y="177" width="5" height="5" fill="black" />
<rect shape-rendering="optimizeSpeed"  x="82" y="177" width="5" height="5" fill="black" />
<rect shape-rendering="optimizeSpeed"  x="87" y="177" width="5" height="5" fill="black" />
<rect shape-rendering="optimizeSpeed"  x="92" y="177" width="5" height="5" fill="black" />
<rect shape-rendering="optimizeSpeed"  x="107" y="177" width="5" height="5" fill="black" />
<rect shape-rendering="optimizeSpeed"  x="162" y="177" width="5" height="5" fill="black" />
<rect shape-rendering="optimizeSpeed"  x="177" y="177" width="5" height="5" fill="black" />
<rect shape-rendering="optimizeSpeed"  x="182" y="177" width="5" height="5" fill="black" />
<rect shape-rendering="optimizeSpeed"  x="187" y="177" width="5" height="5" fill="black" />
<rect shape-rendering="optimizeSpeed"  x="7" y="182" width="5" height="5" fill="black" />
<rect shape-rendering="optimizeSpeed"  x="37" y="182" width="5" height="5" fill="black" />
<rect shape-rendering="optimizeSpeed"  x="47" y="182" width="5" height="5" fill="black" />
<rect shape-rendering="optimizeSpeed"  x="52" y="182" width="5" height="5" fill="black" />
<rect shape-rendering="optimizeSpeed"  x="57" y="182" width="5" height="5" fill="black" />
<rect shape-rendering="optimizeSpeed"  x="67" y="182" width="5" height="5" fill="black" />
<rect shape-rendering="optimizeSpeed"  x="72" y="182" width="5" height="5" fill="black" />
<rect shape-rendering="optimizeSpeed"  x="82" y="182" width="5" height="5" fill="black" />
<rect shape-rendering="optimizeSpeed"  x="102" y="182" width="5" height="5" fill="black" />
<rect shape-rendering="optimizeSpeed"  x="107" y="182" width="5" height="5" fill="black" />
<rect shape-rendering="optimizeSpeed"  x="112" y="182" width="5" height="5" fill="black" />
<rect shape-rendering="optimizeSpeed"  x="117" y="182" width="5" height="5" fill="black" />
<rect shape-rendering="optimizeSpeed"  x="127" y="182" width="5" height="5" fill="black" />
<rect shape-rendering="optimizeSpeed"  x="137" y="182" width="5" height="5" fill="black" />
<rect shape-rendering="optimizeSpeed"  x="142" y="182" width="5" height="5" fill="black" />
<rect shape-rendering="optimizeSpeed"  x="147" y="182" width="5" height="5" fill="black" />
<rect shape-rendering="optimizeSpeed"  x="152" y="182" width="5" height="5" fill="black" />
<rect shape-rendering="optimizeSpeed"  x="167" y="182" width="5" height="5" fill="black" />
<rect shape-rendering="optimizeSpeed"  x="172" y="182" width="5" height="5" fill="black" />
<rect shape-rendering="optimizeSpeed"  x="187" y="182" width="5" height="5" fill="black" />
<rect shape-rendering="optimizeSpeed"  x="7" y="187" width="5" height="5" fill="black" />
<rect shape-rendering="optimizeSpeed"  x="12" y="187" width="5" height="5" fill="black" />
<rect shape-rendering="optimizeSpeed"  x="17" y="187" width="5" height="5" fill="black" />
<rect shape-rendering="optimizeSpeed"  x="22" y="187" width="5" height="5" fill="black" />
<rect shape-rendering="optimizeSpeed"  x="27" y="187" width="5" height="5" fill="black" />
<rect shape-rendering="optimizeSpeed"  x="32" y="187" width="5" height="5" fill="black" />
<rect shape-rendering="optimizeSpeed"  x="37" y="187" width="5" height="5" fill="black" />
<rect shape-rendering="optimizeSpeed"  x="47" y="187" width="5" height="5" fill="black" />
<rect shape-rendering="optimizeSpeed"  x="67" y="187" width="5" height="5" fill="black" />
<rect shape-rendering="optimizeSpeed"  x="77" y="187" width="5" height="5" fill="black" />
<rect shape-rendering="optimizeSpeed"  x="82" y="187" width="5" height="5" fill="black" />
<rect shape-rendering="optimizeSpeed"  x="87" y="187" width="5" height="5" fill="black" />
<rect shape-rendering="optimizeSpeed"  x="92" y="187" width="5" height="5" fill="black" />
<rect shape-rendering="optimizeSpeed"  x="102" y="187" width="5" height="5" fill="black" />
<rect shape-rendering="optimizeSpeed"  x="107" y="187" width="5" height="5" fill="black" />
<rect shape-rendering="optimizeSpeed"  x="112" y="187" width="5" height="5" fill="black" />
<rect shape-rendering="optimizeSpeed"  x="117" y="187" width="5" height="5" fill="black" />
<rect shape-rendering="optimizeSpeed"  x="137" y="187" width="5" height="5" fill="black" />
<rect shape-rendering="optimizeSpeed"  x="152" y="187" width="5" height="5" fill="black" />
<rect shape-rendering="optimizeSpeed"  x="162" y="187" width="5" height="5" fill="black" />
<rect shape-rendering="optimizeSpeed"  x="167" y="187" width="5" height="5" fill="black" />
<rect shape-rendering="optimizeSpeed"  x="172" y="187" width="5" height="5" fill="black" />
<rect shape-rendering="optimizeSpeed"  x="177" y="187" width="5" height="5" fill="black" />
<rect shape-rendering="optimizeSpeed"  x="182" y="187" width="5" height="5" fill="black" />
<rect shape-rendering="optimizeSpeed"  x="187" y="187" width="5" height="5" fill="black" /></svg>